0,TimingClock,'248'
0.021023,TimingClock,'248'
0.0421157,TimingClock,'248'
0.0631244,TimingClock,'248'
0.0841084,TimingClock,'248'
0.105092,TimingClock,'248'
0.126105,TimingClock,'248'
0.147082,TimingClock,'248'
0.16809,TimingClock,'248'
0.189239,TimingClock,'248'
0.210256,TimingClock,'248'
0.231235,TimingClock,'248'
0.252085,TimingClock,'248'
0.27323,TimingClock,'248'
0.294418,TimingClock,'248'
0.294418,NoteOn Channel: 9,'153'
0.315243,TimingClock,'248'
0.33623,TimingClock,'248'
0.357284,TimingClock,'248'
0.378242,TimingClock,'248'
0.39929,TimingClock,'248'
0.420395,TimingClock,'248'
0.441221,TimingClock,'248'
0.462235,TimingClock,'248'
0.483297,TimingClock,'248'
0.50419,TimingClock,'248'
0.525108,TimingClock,'248'
0.546347,TimingClock,'248'
0.56741,TimingClock,'248'
0.588221,TimingClock,'248'
0.609226,TimingClock,'248'
0.630273,TimingClock,'248'
0.651329,TimingClock,'248'
0.67236,TimingClock,'248'
0.69322,TimingClock,'248'
0.714346,TimingClock,'248'
0.735345,TimingClock,'248'
0.756371,TimingClock,'248'
0.777354,TimingClock,'248'
0.798407,TimingClock,'248'
0.798407,NoteOn Channel: 9,'153'
0.819274,TimingClock,'248'
0.840354,TimingClock,'248'
0.861259,TimingClock,'248'
0.882357,TimingClock,'248'
0.903341,TimingClock,'248'
0.924485,TimingClock,'248'
0.945206,TimingClock,'248'
0.966345,TimingClock,'248'
0.987212,TimingClock,'248'
1.00836,TimingClock,'248'
1.02936,TimingClock,'248'
1.0504,TimingClock,'248'
1.07135,TimingClock,'248'
1.09248,TimingClock,'248'
1.11334,TimingClock,'248'
1.13453,TimingClock,'248'
1.15554,TimingClock,'248'
1.17649,TimingClock,'248'
1.19748,TimingClock,'248'
1.21846,TimingClock,'248'
1.23952,TimingClock,'248'
1.26047,TimingClock,'248'
1.28132,TimingClock,'248'
1.30259,TimingClock,'248'
1.30259,NoteOn Channel: 9,'153'
1.32348,TimingClock,'248'
1.34439,TimingClock,'248'
1.36545,TimingClock,'248'
1.38648,TimingClock,'248'
1.40745,TimingClock,'248'
1.42846,TimingClock,'248'
1.4495,TimingClock,'248'
1.47049,TimingClock,'248'
1.49166,TimingClock,'248'
1.5126,TimingClock,'248'
1.53348,TimingClock,'248'
1.55458,TimingClock,'248'
1.57559,TimingClock,'248'
1.59661,TimingClock,'248'
1.61756,TimingClock,'248'
1.63859,TimingClock,'248'
1.65957,TimingClock,'248'
1.68057,TimingClock,'248'
1.70174,TimingClock,'248'
1.72272,TimingClock,'248'
1.74373,TimingClock,'248'
1.76475,TimingClock,'248'
1.78575,TimingClock,'248'
1.80673,TimingClock,'248'
1.80673,NoteOn Channel: 9,'153'
1.82763,TimingClock,'248'
1.84875,TimingClock,'248'
1.86973,TimingClock,'248'
1.89073,TimingClock,'248'
1.9117,TimingClock,'248'
1.93285,TimingClock,'248'
1.95373,TimingClock,'248'
1.97473,TimingClock,'248'
1.99572,TimingClock,'248'
2.01673,TimingClock,'248'
2.03775,TimingClock,'248'
2.05885,TimingClock,'248'
2.07985,TimingClock,'248'
2.10086,TimingClock,'248'
2.12185,TimingClock,'248'
2.14286,TimingClock,'248'
2.16392,TimingClock,'248'
2.18491,TimingClock,'248'
2.20599,TimingClock,'248'
2.22687,TimingClock,'248'
2.24784,TimingClock,'248'
2.26897,TimingClock,'248'
2.28998,TimingClock,'248'
2.3111,TimingClock,'248'
2.3111,NoteOn Channel: 9,'153'
2.33204,TimingClock,'248'
2.3529,TimingClock,'248'
2.37405,TimingClock,'248'
2.39486,TimingClock,'248'
2.4159,TimingClock,'248'
2.43703,TimingClock,'248'
2.45799,TimingClock,'248'
2.47899,TimingClock,'248'
2.49999,TimingClock,'248'
2.52102,TimingClock,'248'
2.54199,TimingClock,'248'
2.56298,TimingClock,'248'
2.58389,TimingClock,'248'
2.60493,TimingClock,'248'
2.62617,TimingClock,'248'
2.64707,TimingClock,'248'
2.66813,TimingClock,'248'
2.68911,TimingClock,'248'
2.71004,TimingClock,'248'
2.7311,TimingClock,'248'
2.75213,TimingClock,'248'
2.77299,TimingClock,'248'
2.79398,TimingClock,'248'
2.81522,TimingClock,'248'
2.81522,NoteOn Channel: 9,'153'
2.83609,TimingClock,'248'
2.85707,TimingClock,'248'
2.87812,TimingClock,'248'
2.89916,TimingClock,'248'
2.92013,TimingClock,'248'
2.94125,TimingClock,'248'
2.96211,TimingClock,'248'
2.98312,TimingClock,'248'
3.00423,TimingClock,'248'
3.02525,TimingClock,'248'
3.04623,TimingClock,'248'
3.06723,TimingClock,'248'
3.08823,TimingClock,'248'
3.10923,TimingClock,'248'
3.13011,TimingClock,'248'
3.15111,TimingClock,'248'
3.17228,TimingClock,'248'
3.19326,TimingClock,'248'
3.21422,TimingClock,'248'
3.23523,TimingClock,'248'
3.25624,TimingClock,'248'
3.27725,TimingClock,'248'
3.29841,TimingClock,'248'
3.31938,TimingClock,'248'
3.31938,NoteOn Channel: 9,'153'
3.34025,TimingClock,'248'
3.36135,TimingClock,'248'
3.3823,TimingClock,'248'
3.40335,TimingClock,'248'
3.42429,TimingClock,'248'
3.44538,TimingClock,'248'
3.46636,TimingClock,'248'
3.48735,TimingClock,'248'
3.50827,TimingClock,'248'
3.52937,TimingClock,'248'
3.55038,TimingClock,'248'
3.5714,TimingClock,'248'
3.59238,TimingClock,'248'
3.61336,TimingClock,'248'
3.63439,TimingClock,'248'
3.65536,TimingClock,'248'
3.67634,TimingClock,'248'
3.69734,TimingClock,'248'
3.71837,TimingClock,'248'
3.73936,TimingClock,'248'
3.76037,TimingClock,'248'
3.7815,TimingClock,'248'
3.80242,TimingClock,'248'
3.82361,TimingClock,'248'
3.82361,NoteOn Channel: 9,'153'
3.84436,TimingClock,'248'
3.86547,TimingClock,'248'
3.88653,TimingClock,'248'
3.90754,TimingClock,'248'
3.9284,TimingClock,'248'
3.94961,TimingClock,'248'
3.97035,TimingClock,'248'
3.99148,TimingClock,'248'
4.01249,TimingClock,'248'
4.03356,TimingClock,'248'
4.05435,TimingClock,'248'
4.07541,TimingClock,'248'
4.09647,TimingClock,'248'
4.11749,TimingClock,'248'
4.13849,TimingClock,'248'
4.15962,TimingClock,'248'
4.18062,TimingClock,'248'
4.2016,TimingClock,'248'
4.22266,TimingClock,'248'
4.2436,TimingClock,'248'
4.26449,TimingClock,'248'
4.2855,TimingClock,'248'
4.3066,TimingClock,'248'
4.32773,TimingClock,'248'
4.32773,NoteOn Channel: 9,'153'
4.34862,TimingClock,'248'
4.36962,TimingClock,'248'
4.39066,TimingClock,'248'
4.41156,TimingClock,'248'
4.43261,TimingClock,'248'
4.45377,TimingClock,'248'
4.47455,TimingClock,'248'
4.49559,TimingClock,'248'
4.51668,TimingClock,'248'
4.53761,TimingClock,'248'
4.5587,TimingClock,'248'
4.57977,TimingClock,'248'
4.60073,TimingClock,'248'
4.62176,TimingClock,'248'
4.64277,TimingClock,'248'
4.66374,TimingClock,'248'
4.68474,TimingClock,'248'
4.7057,TimingClock,'248'
4.72672,TimingClock,'248'
4.74773,TimingClock,'248'
4.76891,TimingClock,'248'
4.78986,TimingClock,'248'
4.81085,TimingClock,'248'
4.83196,TimingClock,'248'
4.83196,NoteOn Channel: 9,'153'
4.85287,TimingClock,'248'
4.87379,TimingClock,'248'
4.89486,TimingClock,'248'
4.91586,TimingClock,'248'
4.93687,TimingClock,'248'
4.95797,TimingClock,'248'
4.97899,TimingClock,'248'
4.99997,TimingClock,'248'
5.02094,TimingClock,'248'
5.04201,TimingClock,'248'
5.06298,TimingClock,'248'
5.08398,TimingClock,'248'
5.10482,TimingClock,'248'
5.12592,TimingClock,'248'
5.14698,TimingClock,'248'
5.16798,TimingClock,'248'
5.18898,TimingClock,'248'
5.20993,TimingClock,'248'
5.23097,TimingClock,'248'
5.25203,TimingClock,'248'
5.27297,TimingClock,'248'
5.29405,TimingClock,'248'
5.31497,TimingClock,'248'
5.3361,TimingClock,'248'
5.3361,NoteOn Channel: 9,'153'
5.35697,TimingClock,'248'
5.37795,TimingClock,'248'
5.39902,TimingClock,'248'
5.42004,TimingClock,'248'
5.44114,TimingClock,'248'
5.46206,TimingClock,'248'
5.48312,TimingClock,'248'
5.50402,TimingClock,'248'
5.52516,TimingClock,'248'
5.54611,TimingClock,'248'
5.56712,TimingClock,'248'
5.58799,TimingClock,'248'
5.60912,TimingClock,'248'
5.6301,TimingClock,'248'
5.65111,TimingClock,'248'
5.67199,TimingClock,'248'
5.69307,TimingClock,'248'
5.71423,TimingClock,'248'
5.73523,TimingClock,'248'
5.75626,TimingClock,'248'
5.77726,TimingClock,'248'
5.79826,TimingClock,'248'
5.81924,TimingClock,'248'
5.84029,TimingClock,'248'
5.84029,NoteOn Channel: 9,'153'
5.86124,TimingClock,'248'
5.88223,TimingClock,'248'
5.90314,TimingClock,'248'
5.92424,TimingClock,'248'
5.94523,TimingClock,'248'
5.96635,TimingClock,'248'
5.98726,TimingClock,'248'
6.00825,TimingClock,'248'
6.02926,TimingClock,'248'
6.05029,TimingClock,'248'
6.07124,TimingClock,'248'
6.09224,TimingClock,'248'
6.11324,TimingClock,'248'
6.13424,TimingClock,'248'
6.15524,TimingClock,'248'
6.17608,TimingClock,'248'
6.1972,TimingClock,'248'
6.21828,TimingClock,'248'
6.23936,TimingClock,'248'
6.26037,TimingClock,'248'
6.28141,TimingClock,'248'
6.3024,TimingClock,'248'
6.32329,TimingClock,'248'
6.34448,TimingClock,'248'
6.34448,NoteOn Channel: 9,'153'
6.36536,TimingClock,'248'
6.38635,TimingClock,'248'
6.40727,TimingClock,'248'
6.42828,TimingClock,'248'
6.44936,TimingClock,'248'
6.47048,TimingClock,'248'
6.49141,TimingClock,'248'
6.51224,TimingClock,'248'
6.53335,TimingClock,'248'
6.55436,TimingClock,'248'
6.57542,TimingClock,'248'
6.59648,TimingClock,'248'
6.61748,TimingClock,'248'
6.6385,TimingClock,'248'
6.65934,TimingClock,'248'
6.68047,TimingClock,'248'
6.70147,TimingClock,'248'
6.72247,TimingClock,'248'
6.74352,TimingClock,'248'
6.76442,TimingClock,'248'
6.78538,TimingClock,'248'
6.80647,TimingClock,'248'
6.82751,TimingClock,'248'
6.8486,TimingClock,'248'
6.8486,NoteOn Channel: 9,'153'
6.86953,TimingClock,'248'
6.89055,TimingClock,'248'
6.91137,TimingClock,'248'
6.93261,TimingClock,'248'
6.9536,TimingClock,'248'
6.97466,TimingClock,'248'
6.99555,TimingClock,'248'
7.01648,TimingClock,'248'
7.03747,TimingClock,'248'
7.05861,TimingClock,'248'
7.07961,TimingClock,'248'
7.1006,TimingClock,'248'
7.12161,TimingClock,'248'
7.14264,TimingClock,'248'
7.16351,TimingClock,'248'
7.18459,TimingClock,'248'
7.20563,TimingClock,'248'
7.22675,TimingClock,'248'
7.24773,TimingClock,'248'
7.26872,TimingClock,'248'
7.28974,TimingClock,'248'
7.31074,TimingClock,'248'
7.33177,TimingClock,'248'
7.35293,TimingClock,'248'
7.35293,NoteOn Channel: 9,'153'
7.37372,TimingClock,'248'
7.39474,TimingClock,'248'
7.41573,TimingClock,'248'
7.43668,TimingClock,'248'
7.45759,TimingClock,'248'
7.47898,TimingClock,'248'
7.49987,TimingClock,'248'
7.52087,TimingClock,'248'
7.54187,TimingClock,'248'
7.56276,TimingClock,'248'
7.58384,TimingClock,'248'
7.6048,TimingClock,'248'
7.62586,TimingClock,'248'
7.64686,TimingClock,'248'
7.66786,TimingClock,'248'
7.68898,TimingClock,'248'
7.70998,TimingClock,'248'
7.73098,TimingClock,'248'
7.75198,TimingClock,'248'
7.77292,TimingClock,'248'
7.7939,TimingClock,'248'
7.815,TimingClock,'248'
7.83598,TimingClock,'248'
7.85696,TimingClock,'248'
7.85696,NoteOn Channel: 9,'153'
7.87801,TimingClock,'248'
7.89904,TimingClock,'248'
7.91998,TimingClock,'248'
7.94091,TimingClock,'248'
7.96189,TimingClock,'248'
7.98313,TimingClock,'248'
8.00402,TimingClock,'248'
8.02487,TimingClock,'248'
8.046,TimingClock,'248'
8.06703,TimingClock,'248'
8.08804,TimingClock,'248'
8.10899,TimingClock,'248'
8.12999,TimingClock,'248'
8.15109,TimingClock,'248'
8.1721,TimingClock,'248'
8.19309,TimingClock,'248'
8.2141,TimingClock,'248'
8.23511,TimingClock,'248'
8.2561,TimingClock,'248'
8.27711,TimingClock,'248'
8.29816,TimingClock,'248'
8.31911,TimingClock,'248'
8.34012,TimingClock,'248'
8.36113,TimingClock,'248'
8.36113,NoteOn Channel: 9,'153'
8.38214,TimingClock,'248'
8.40311,TimingClock,'248'
8.42413,TimingClock,'248'
8.44512,TimingClock,'248'
8.46617,TimingClock,'248'
8.48728,TimingClock,'248'
8.50813,TimingClock,'248'
8.52924,TimingClock,'248'
8.55012,TimingClock,'248'
8.57118,TimingClock,'248'
8.59224,TimingClock,'248'
8.61323,TimingClock,'248'
8.63425,TimingClock,'248'
8.65522,TimingClock,'248'
8.67622,TimingClock,'248'
8.69725,TimingClock,'248'
8.71825,TimingClock,'248'
8.73911,TimingClock,'248'
8.7602,TimingClock,'248'
8.78113,TimingClock,'248'
8.80225,TimingClock,'248'
8.82319,TimingClock,'248'
8.84413,TimingClock,'248'
8.86536,TimingClock,'248'
8.86536,NoteOn Channel: 9,'153'
8.88623,TimingClock,'248'
8.90724,TimingClock,'248'
8.9281,TimingClock,'248'
8.94924,TimingClock,'248'
8.97024,TimingClock,'248'
8.99137,TimingClock,'248'
9.01236,TimingClock,'248'
9.0334,TimingClock,'248'
9.05435,TimingClock,'248'
9.07536,TimingClock,'248'
9.09635,TimingClock,'248'
9.11735,TimingClock,'248'
9.13835,TimingClock,'248'
9.15936,TimingClock,'248'
9.18041,TimingClock,'248'
9.20123,TimingClock,'248'
9.22242,TimingClock,'248'
9.24323,TimingClock,'248'
9.26434,TimingClock,'248'
9.28549,TimingClock,'248'
9.30654,TimingClock,'248'
9.32756,TimingClock,'248'
9.34843,TimingClock,'248'
9.3696,TimingClock,'248'
9.3696,NoteOn Channel: 9,'153'
9.39047,TimingClock,'248'
9.41155,TimingClock,'248'
9.43251,TimingClock,'248'
9.45359,TimingClock,'248'
9.47436,TimingClock,'248'
9.4956,TimingClock,'248'
9.51649,TimingClock,'248'
9.53747,TimingClock,'248'
9.55844,TimingClock,'248'
9.57949,TimingClock,'248'
9.60037,TimingClock,'248'
9.62149,TimingClock,'248'
9.64248,TimingClock,'248'
9.66338,TimingClock,'248'
9.68448,TimingClock,'248'
9.70562,TimingClock,'248'
9.72664,TimingClock,'248'
9.74754,TimingClock,'248'
9.76866,TimingClock,'248'
9.7896,TimingClock,'248'
9.81064,TimingClock,'248'
9.83159,TimingClock,'248'
9.85261,TimingClock,'248'
9.87374,TimingClock,'248'
9.87374,NoteOn Channel: 9,'153'
9.8946,TimingClock,'248'
9.91548,TimingClock,'248'
9.93651,TimingClock,'248'
9.95761,TimingClock,'248'
9.9786,TimingClock,'248'
9.99976,TimingClock,'248'
10.0206,TimingClock,'248'
10.0416,TimingClock,'248'
10.0627,TimingClock,'248'
10.0837,TimingClock,'248'
10.1047,TimingClock,'248'
10.1257,TimingClock,'248'
10.1468,TimingClock,'248'
10.1677,TimingClock,'248'
10.1887,TimingClock,'248'
10.2097,TimingClock,'248'
10.2309,TimingClock,'248'
10.2519,TimingClock,'248'
10.2729,TimingClock,'248'
10.2939,TimingClock,'248'
10.3149,TimingClock,'248'
10.3359,TimingClock,'248'
10.3569,TimingClock,'248'
10.3779,TimingClock,'248'
10.3779,NoteOn Channel: 9,'153'
10.3989,TimingClock,'248'
10.4198,TimingClock,'248'
10.4407,TimingClock,'248'
10.4618,TimingClock,'248'
10.4829,TimingClock,'248'
10.504,TimingClock,'248'
10.5249,TimingClock,'248'
10.5459,TimingClock,'248'
10.567,TimingClock,'248'
10.588,TimingClock,'248'
10.609,TimingClock,'248'
10.63,TimingClock,'248'
10.651,TimingClock,'248'
10.6719,TimingClock,'248'
10.693,TimingClock,'248'
10.714,TimingClock,'248'
10.7349,TimingClock,'248'
10.756,TimingClock,'248'
10.777,TimingClock,'248'
10.798,TimingClock,'248'
10.819,TimingClock,'248'
10.84,TimingClock,'248'
10.8608,TimingClock,'248'
10.8821,TimingClock,'248'
10.8821,NoteOn Channel: 9,'153'
10.903,TimingClock,'248'
10.924,TimingClock,'248'
10.945,TimingClock,'248'
10.966,TimingClock,'248'
10.987,TimingClock,'248'
11.0081,TimingClock,'248'
11.0291,TimingClock,'248'
11.0501,TimingClock,'248'
11.0712,TimingClock,'248'
11.0921,TimingClock,'248'
11.1131,TimingClock,'248'
11.134,TimingClock,'248'
11.155,TimingClock,'248'
11.1761,TimingClock,'248'
11.1971,TimingClock,'248'
11.2181,TimingClock,'248'
11.239,TimingClock,'248'
11.2601,TimingClock,'248'
11.2811,TimingClock,'248'
11.3021,TimingClock,'248'
11.323,TimingClock,'248'
11.3441,TimingClock,'248'
11.3651,TimingClock,'248'
11.3863,TimingClock,'248'
11.3863,NoteOn Channel: 9,'153'
11.4071,TimingClock,'248'
11.4281,TimingClock,'248'
11.4492,TimingClock,'248'
11.4702,TimingClock,'248'
11.4912,TimingClock,'248'
11.5123,TimingClock,'248'
11.5332,TimingClock,'248'
11.5542,TimingClock,'248'
11.5752,TimingClock,'248'
11.5963,TimingClock,'248'
11.6172,TimingClock,'248'
11.6382,TimingClock,'248'
11.6592,TimingClock,'248'
11.6802,TimingClock,'248'
11.7013,TimingClock,'248'
11.7222,TimingClock,'248'
11.7433,TimingClock,'248'
11.7643,TimingClock,'248'
11.7854,TimingClock,'248'
11.8062,TimingClock,'248'
11.8272,TimingClock,'248'
11.8484,TimingClock,'248'
11.8694,TimingClock,'248'
11.8904,TimingClock,'248'
11.8904,NoteOn Channel: 9,'153'
11.9113,TimingClock,'248'
11.9323,TimingClock,'248'
11.9534,TimingClock,'248'
11.9743,TimingClock,'248'
11.9954,TimingClock,'248'
12.0164,TimingClock,'248'
12.0373,TimingClock,'248'
12.0583,TimingClock,'248'
12.0794,TimingClock,'248'
12.1004,TimingClock,'248'
12.1214,TimingClock,'248'
12.1425,TimingClock,'248'
12.1634,TimingClock,'248'
12.1845,TimingClock,'248'
12.2054,TimingClock,'248'
12.2265,TimingClock,'248'
12.2475,TimingClock,'248'
12.2685,TimingClock,'248'
12.2895,TimingClock,'248'
12.3105,TimingClock,'248'
12.3315,TimingClock,'248'
12.3525,TimingClock,'248'
12.3736,TimingClock,'248'
12.3948,TimingClock,'248'
12.3948,NoteOn Channel: 9,'153'
12.4155,TimingClock,'248'
12.4366,TimingClock,'248'
12.4575,TimingClock,'248'
12.4786,TimingClock,'248'
12.4996,TimingClock,'248'
12.5208,TimingClock,'248'
12.5417,TimingClock,'248'
12.5626,TimingClock,'248'
12.5836,TimingClock,'248'
12.6046,TimingClock,'248'
12.6255,TimingClock,'248'
12.6465,TimingClock,'248'
12.6677,TimingClock,'248'
12.6886,TimingClock,'248'
12.7097,TimingClock,'248'
12.7306,TimingClock,'248'
12.7517,TimingClock,'248'
12.7727,TimingClock,'248'
12.7937,TimingClock,'248'
12.8147,TimingClock,'248'
12.8358,TimingClock,'248'
12.8568,TimingClock,'248'
12.8777,TimingClock,'248'
12.8989,TimingClock,'248'
12.8989,NoteOn Channel: 9,'153'
12.9198,TimingClock,'248'
12.9407,TimingClock,'248'
12.9617,TimingClock,'248'
12.9827,TimingClock,'248'
13.0038,TimingClock,'248'
13.0248,TimingClock,'248'
13.0457,TimingClock,'248'
13.0669,TimingClock,'248'
13.0879,TimingClock,'248'
13.1088,TimingClock,'248'
13.1299,TimingClock,'248'
13.1509,TimingClock,'248'
13.1719,TimingClock,'248'
13.1928,TimingClock,'248'
13.2137,TimingClock,'248'
13.235,TimingClock,'248'
13.256,TimingClock,'248'
13.277,TimingClock,'248'
13.298,TimingClock,'248'
13.319,TimingClock,'248'
13.34,TimingClock,'248'
13.361,TimingClock,'248'
13.382,TimingClock,'248'
13.4031,TimingClock,'248'
13.4031,NoteOn Channel: 9,'153'
13.424,TimingClock,'248'
13.445,TimingClock,'248'
13.4659,TimingClock,'248'
13.4869,TimingClock,'248'
13.508,TimingClock,'248'
13.5291,TimingClock,'248'
13.55,TimingClock,'248'
13.571,TimingClock,'248'
13.592,TimingClock,'248'
13.613,TimingClock,'248'
13.634,TimingClock,'248'
13.655,TimingClock,'248'
13.676,TimingClock,'248'
13.697,TimingClock,'248'
13.7181,TimingClock,'248'
13.7391,TimingClock,'248'
13.7601,TimingClock,'248'
13.7811,TimingClock,'248'
13.8021,TimingClock,'248'
13.8232,TimingClock,'248'
13.8441,TimingClock,'248'
13.8651,TimingClock,'248'
13.8862,TimingClock,'248'
13.9073,TimingClock,'248'
13.9073,NoteOn Channel: 9,'153'
13.9281,TimingClock,'248'
13.9491,TimingClock,'248'
13.97,TimingClock,'248'
13.9911,TimingClock,'248'
14.0121,TimingClock,'248'
14.0332,TimingClock,'248'
14.0541,TimingClock,'248'
14.075,TimingClock,'248'
14.096,TimingClock,'248'
14.1171,TimingClock,'248'
14.1381,TimingClock,'248'
14.1592,TimingClock,'248'
14.1802,TimingClock,'248'
14.2012,TimingClock,'248'
14.2222,TimingClock,'248'
14.2432,TimingClock,'248'
14.2642,TimingClock,'248'
14.2852,TimingClock,'248'
14.3062,TimingClock,'248'
14.3272,TimingClock,'248'
14.3482,TimingClock,'248'
14.3692,TimingClock,'248'
14.3902,TimingClock,'248'
14.4114,TimingClock,'248'
14.4114,NoteOn Channel: 9,'153'
14.4322,TimingClock,'248'
14.4532,TimingClock,'248'
14.4742,TimingClock,'248'
14.4952,TimingClock,'248'
14.5161,TimingClock,'248'
14.5374,TimingClock,'248'
14.5584,TimingClock,'248'
14.5794,TimingClock,'248'
14.6004,TimingClock,'248'
14.6212,TimingClock,'248'
14.6424,TimingClock,'248'
14.6634,TimingClock,'248'
14.6844,TimingClock,'248'
14.7053,TimingClock,'248'
14.7263,TimingClock,'248'
14.7474,TimingClock,'248'
14.7683,TimingClock,'248'
14.7892,TimingClock,'248'
14.8104,TimingClock,'248'
14.8313,TimingClock,'248'
14.8525,TimingClock,'248'
14.8735,TimingClock,'248'
14.8944,TimingClock,'248'
14.9156,TimingClock,'248'
14.9156,NoteOn Channel: 9,'153'
14.9365,TimingClock,'248'
14.9573,TimingClock,'248'
14.9785,TimingClock,'248'
14.9995,TimingClock,'248'
15.0205,TimingClock,'248'
15.0416,TimingClock,'248'
15.0625,TimingClock,'248'
15.0835,TimingClock,'248'
15.1045,TimingClock,'248'
15.1255,TimingClock,'248'
15.1465,TimingClock,'248'
15.1675,TimingClock,'248'
15.1884,TimingClock,'248'
15.2096,TimingClock,'248'
15.2306,TimingClock,'248'
15.2516,TimingClock,'248'
15.2726,TimingClock,'248'
15.2936,TimingClock,'248'
15.3146,TimingClock,'248'
15.3356,TimingClock,'248'
15.3565,TimingClock,'248'
15.3776,TimingClock,'248'
15.3986,TimingClock,'248'
15.4197,TimingClock,'248'
15.4197,NoteOn Channel: 9,'153'
15.4405,TimingClock,'248'
15.4616,TimingClock,'248'
15.4827,TimingClock,'248'
15.5038,TimingClock,'248'
15.5247,TimingClock,'248'
15.5458,TimingClock,'248'
15.5666,TimingClock,'248'
15.5876,TimingClock,'248'
15.6087,TimingClock,'248'
15.6297,TimingClock,'248'
15.6507,TimingClock,'248'
15.6717,TimingClock,'248'
15.6927,TimingClock,'248'
15.7138,TimingClock,'248'
15.7348,TimingClock,'248'
15.7557,TimingClock,'248'
15.7768,TimingClock,'248'
15.7979,TimingClock,'248'
15.8189,TimingClock,'248'
15.8398,TimingClock,'248'
15.8608,TimingClock,'248'
15.8819,TimingClock,'248'
15.9028,TimingClock,'248'
15.9239,TimingClock,'248'
15.9239,NoteOn Channel: 9,'153'
15.9448,TimingClock,'248'
15.9659,TimingClock,'248'
15.9869,TimingClock,'248'
16.0079,TimingClock,'248'
16.029,TimingClock,'248'
16.05,TimingClock,'248'
16.071,TimingClock,'248'
16.0919,TimingClock,'248'
16.113,TimingClock,'248'
16.1339,TimingClock,'248'
16.1549,TimingClock,'248'
16.176,TimingClock,'248'
16.197,TimingClock,'248'
16.2178,TimingClock,'248'
16.239,TimingClock,'248'
16.26,TimingClock,'248'
16.281,TimingClock,'248'
16.302,TimingClock,'248'
16.323,TimingClock,'248'
16.344,TimingClock,'248'
16.3649,TimingClock,'248'
16.3858,TimingClock,'248'
16.407,TimingClock,'248'
16.428,TimingClock,'248'
16.428,NoteOn Channel: 9,'153'
16.4488,TimingClock,'248'
16.4699,TimingClock,'248'
16.4909,TimingClock,'248'
16.512,TimingClock,'248'
16.533,TimingClock,'248'
16.554,TimingClock,'248'
16.5749,TimingClock,'248'
16.596,TimingClock,'248'
16.617,TimingClock,'248'
16.638,TimingClock,'248'
16.659,TimingClock,'248'
16.68,TimingClock,'248'
16.701,TimingClock,'248'
16.722,TimingClock,'248'
16.7431,TimingClock,'248'
16.7641,TimingClock,'248'
16.7852,TimingClock,'248'
16.8061,TimingClock,'248'
16.8271,TimingClock,'248'
16.8481,TimingClock,'248'
16.869,TimingClock,'248'
16.8901,TimingClock,'248'
16.9112,TimingClock,'248'
16.9323,TimingClock,'248'
16.9323,NoteOn Channel: 9,'153'
16.9531,TimingClock,'248'
16.9741,TimingClock,'248'
16.9952,TimingClock,'248'
17.0162,TimingClock,'248'
17.0372,TimingClock,'248'
17.0583,TimingClock,'248'
17.0792,TimingClock,'248'
17.1002,TimingClock,'248'
17.1211,TimingClock,'248'
17.1422,TimingClock,'248'
17.1632,TimingClock,'248'
17.1841,TimingClock,'248'
17.2052,TimingClock,'248'
17.2263,TimingClock,'248'
17.2472,TimingClock,'248'
17.2683,TimingClock,'248'
17.2893,TimingClock,'248'
17.3103,TimingClock,'248'
17.3314,TimingClock,'248'
17.3524,TimingClock,'248'
17.3734,TimingClock,'248'
17.3943,TimingClock,'248'
17.4154,TimingClock,'248'
17.4365,TimingClock,'248'
17.4365,NoteOn Channel: 9,'153'
17.4574,TimingClock,'248'
17.4784,TimingClock,'248'
17.4993,TimingClock,'248'
17.5202,TimingClock,'248'
17.5414,TimingClock,'248'
17.5625,TimingClock,'248'
17.5834,TimingClock,'248'
17.6044,TimingClock,'248'
17.6253,TimingClock,'248'
17.6465,TimingClock,'248'
17.6674,TimingClock,'248'
17.6885,TimingClock,'248'
17.7095,TimingClock,'248'
17.7305,TimingClock,'248'
17.7515,TimingClock,'248'
17.7725,TimingClock,'248'
17.7934,TimingClock,'248'
17.8145,TimingClock,'248'
17.8353,TimingClock,'248'
17.8563,TimingClock,'248'
17.8775,TimingClock,'248'
17.8986,TimingClock,'248'
17.9196,TimingClock,'248'
17.9408,TimingClock,'248'
17.9408,NoteOn Channel: 9,'153'
17.9616,TimingClock,'248'
17.9826,TimingClock,'248'
18.0036,TimingClock,'248'
18.0246,TimingClock,'248'
18.0457,TimingClock,'248'
18.0667,TimingClock,'248'
18.0876,TimingClock,'248'
18.1087,TimingClock,'248'
18.1297,TimingClock,'248'
18.1506,TimingClock,'248'
18.1715,TimingClock,'248'
18.1927,TimingClock,'248'
18.2137,TimingClock,'248'
18.2348,TimingClock,'248'
18.2557,TimingClock,'248'
18.2767,TimingClock,'248'
18.2977,TimingClock,'248'
18.3187,TimingClock,'248'
18.3397,TimingClock,'248'
18.3608,TimingClock,'248'
18.3816,TimingClock,'248'
18.4027,TimingClock,'248'
18.4237,TimingClock,'248'
18.445,TimingClock,'248'
18.445,NoteOn Channel: 9,'153'
18.4657,TimingClock,'248'
18.4867,TimingClock,'248'
18.5077,TimingClock,'248'
18.5287,TimingClock,'248'
18.5497,TimingClock,'248'
18.571,TimingClock,'248'
18.5919,TimingClock,'248'
18.6127,TimingClock,'248'
18.6339,TimingClock,'248'
18.6548,TimingClock,'248'
18.6759,TimingClock,'248'
18.6968,TimingClock,'248'
18.7179,TimingClock,'248'
18.7389,TimingClock,'248'
18.76,TimingClock,'248'
18.781,TimingClock,'248'
18.802,TimingClock,'248'
18.823,TimingClock,'248'
18.844,TimingClock,'248'
18.865,TimingClock,'248'
18.886,TimingClock,'248'
18.9069,TimingClock,'248'
18.928,TimingClock,'248'
18.9491,TimingClock,'248'
18.9491,NoteOn Channel: 9,'153'
18.97,TimingClock,'248'
18.991,TimingClock,'248'
19.012,TimingClock,'248'
19.0329,TimingClock,'248'
19.0539,TimingClock,'248'
19.0752,TimingClock,'248'
19.096,TimingClock,'248'
19.117,TimingClock,'248'
19.138,TimingClock,'248'
19.159,TimingClock,'248'
19.18,TimingClock,'248'
19.201,TimingClock,'248'
19.222,TimingClock,'248'
19.243,TimingClock,'248'
19.264,TimingClock,'248'
19.2849,TimingClock,'248'
19.3059,TimingClock,'248'
19.3271,TimingClock,'248'
19.3481,TimingClock,'248'
19.3691,TimingClock,'248'
19.39,TimingClock,'248'
19.4111,TimingClock,'248'
19.4321,TimingClock,'248'
19.4532,TimingClock,'248'
19.4532,NoteOn Channel: 9,'153'
19.4741,TimingClock,'248'
19.4951,TimingClock,'248'
19.5162,TimingClock,'248'
19.5371,TimingClock,'248'
19.5581,TimingClock,'248'
19.5792,TimingClock,'248'
19.6002,TimingClock,'248'
19.6211,TimingClock,'248'
19.6421,TimingClock,'248'
19.6631,TimingClock,'248'
19.6841,TimingClock,'248'
19.7052,TimingClock,'248'
19.7262,TimingClock,'248'
19.7472,TimingClock,'248'
19.7682,TimingClock,'248'
19.7892,TimingClock,'248'
19.8102,TimingClock,'248'
19.8312,TimingClock,'248'
19.8522,TimingClock,'248'
19.8732,TimingClock,'248'
19.8943,TimingClock,'248'
19.9153,TimingClock,'248'
19.9363,TimingClock,'248'
19.9573,TimingClock,'248'
19.9573,NoteOn Channel: 9,'153'
19.9781,TimingClock,'248'
19.9991,TimingClock,'248'
20.0202,TimingClock,'248'
20.0411,TimingClock,'248'
20.0623,TimingClock,'248'
20.0834,TimingClock,'248'
20.1043,TimingClock,'248'
20.1253,TimingClock,'248'
20.1464,TimingClock,'248'
20.1674,TimingClock,'248'
20.1883,TimingClock,'248'
20.2094,TimingClock,'248'
20.2304,TimingClock,'248'
20.2513,TimingClock,'248'
20.2724,TimingClock,'248'
20.2933,TimingClock,'248'
20.3143,TimingClock,'248'
20.3353,TimingClock,'248'
20.3564,TimingClock,'248'
20.3775,TimingClock,'248'
20.3985,TimingClock,'248'
20.4195,TimingClock,'248'
20.4405,TimingClock,'248'
20.4615,TimingClock,'248'
20.4615,NoteOn Channel: 9,'153'
20.4824,TimingClock,'248'
20.5035,TimingClock,'248'
20.5245,TimingClock,'248'
20.5455,TimingClock,'248'
20.5665,TimingClock,'248'
20.5875,TimingClock,'248'
20.6085,TimingClock,'248'
20.6294,TimingClock,'248'
20.6506,TimingClock,'248'
20.6716,TimingClock,'248'
20.6926,TimingClock,'248'
20.7136,TimingClock,'248'
20.7346,TimingClock,'248'
20.7556,TimingClock,'248'
20.7765,TimingClock,'248'
20.7977,TimingClock,'248'
20.8186,TimingClock,'248'
20.8395,TimingClock,'248'
20.8606,TimingClock,'248'
20.8816,TimingClock,'248'
20.9026,TimingClock,'248'
20.9236,TimingClock,'248'
20.9447,TimingClock,'248'
20.9658,TimingClock,'248'
20.9658,NoteOn Channel: 9,'153'
20.9866,TimingClock,'248'
21.0077,TimingClock,'248'
21.0287,TimingClock,'248'
21.0497,TimingClock,'248'
21.0707,TimingClock,'248'
21.0917,TimingClock,'248'
21.1127,TimingClock,'248'
21.1338,TimingClock,'248'
21.1547,TimingClock,'248'
21.1756,TimingClock,'248'
21.1968,TimingClock,'248'
21.2177,TimingClock,'248'
21.2387,TimingClock,'248'
21.2597,TimingClock,'248'
21.2807,TimingClock,'248'
21.3017,TimingClock,'248'
21.3228,TimingClock,'248'
21.3439,TimingClock,'248'
21.3649,TimingClock,'248'
21.3858,TimingClock,'248'
21.4069,TimingClock,'248'
21.4279,TimingClock,'248'
21.4489,TimingClock,'248'
21.47,TimingClock,'248'
21.47,NoteOn Channel: 9,'153'
21.4909,TimingClock,'248'
21.5119,TimingClock,'248'
21.5328,TimingClock,'248'
21.554,TimingClock,'248'
21.575,TimingClock,'248'
21.596,TimingClock,'248'
21.617,TimingClock,'248'
21.638,TimingClock,'248'
21.6589,TimingClock,'248'
21.6799,TimingClock,'248'
21.701,TimingClock,'248'
21.722,TimingClock,'248'
21.743,TimingClock,'248'
21.764,TimingClock,'248'
21.785,TimingClock,'248'
21.806,TimingClock,'248'
21.827,TimingClock,'248'
21.848,TimingClock,'248'
21.869,TimingClock,'248'
21.89,TimingClock,'248'
21.911,TimingClock,'248'
21.9319,TimingClock,'248'
21.9529,TimingClock,'248'
21.9741,TimingClock,'248'
21.9741,NoteOn Channel: 9,'153'
21.995,TimingClock,'248'
22.016,TimingClock,'248'
22.037,TimingClock,'248'
22.058,TimingClock,'248'
22.079,TimingClock,'248'
22.1001,TimingClock,'248'
22.121,TimingClock,'248'
22.142,TimingClock,'248'
22.1631,TimingClock,'248'
22.1841,TimingClock,'248'
22.205,TimingClock,'248'
22.226,TimingClock,'248'
22.247,TimingClock,'248'
22.2681,TimingClock,'248'
22.2891,TimingClock,'248'
22.3101,TimingClock,'248'
22.3311,TimingClock,'248'
22.3521,TimingClock,'248'
22.3731,TimingClock,'248'
22.3941,TimingClock,'248'
22.4151,TimingClock,'248'
22.4361,TimingClock,'248'
22.4572,TimingClock,'248'
22.4782,TimingClock,'248'
22.4782,NoteOn Channel: 9,'153'
22.4992,TimingClock,'248'
22.5203,TimingClock,'248'
22.5412,TimingClock,'248'
22.5622,TimingClock,'248'
22.5833,TimingClock,'248'
22.6043,TimingClock,'248'
22.6252,TimingClock,'248'
22.6463,TimingClock,'248'
22.6671,TimingClock,'248'
22.6882,TimingClock,'248'
22.7092,TimingClock,'248'
22.7301,TimingClock,'248'
22.7512,TimingClock,'248'
22.7722,TimingClock,'248'
22.7932,TimingClock,'248'
22.8144,TimingClock,'248'
22.8354,TimingClock,'248'
22.8564,TimingClock,'248'
22.8774,TimingClock,'248'
22.8984,TimingClock,'248'
22.9194,TimingClock,'248'
22.9403,TimingClock,'248'
22.9613,TimingClock,'248'
22.9825,TimingClock,'248'
22.9825,NoteOn Channel: 9,'153'
23.0034,TimingClock,'248'
23.0244,TimingClock,'248'
23.0454,TimingClock,'248'
23.0664,TimingClock,'248'
23.0874,TimingClock,'248'
23.1085,TimingClock,'248'
23.1293,TimingClock,'248'
23.1504,TimingClock,'248'
23.1714,TimingClock,'248'
23.1925,TimingClock,'248'
23.2135,TimingClock,'248'
23.2345,TimingClock,'248'
23.2555,TimingClock,'248'
23.2764,TimingClock,'248'
23.2973,TimingClock,'248'
23.3185,TimingClock,'248'
23.3395,TimingClock,'248'
23.3606,TimingClock,'248'
23.3815,TimingClock,'248'
23.4026,TimingClock,'248'
23.4236,TimingClock,'248'
23.4446,TimingClock,'248'
23.4656,TimingClock,'248'
23.4867,TimingClock,'248'
23.4867,NoteOn Channel: 9,'153'
23.5076,TimingClock,'248'
23.5286,TimingClock,'248'
23.5496,TimingClock,'248'
23.5706,TimingClock,'248'
23.5916,TimingClock,'248'
23.6127,TimingClock,'248'
23.6336,TimingClock,'248'
23.6546,TimingClock,'248'
23.6756,TimingClock,'248'
23.6966,TimingClock,'248'
23.7176,TimingClock,'248'
23.7386,TimingClock,'248'
23.7597,TimingClock,'248'
23.7807,TimingClock,'248'
23.8018,TimingClock,'248'
23.8227,TimingClock,'248'
23.8437,TimingClock,'248'
23.8647,TimingClock,'248'
23.8857,TimingClock,'248'
23.9066,TimingClock,'248'
23.9277,TimingClock,'248'
23.9487,TimingClock,'248'
23.9697,TimingClock,'248'
23.991,TimingClock,'248'
23.991,NoteOn Channel: 9,'153'
24.0117,TimingClock,'248'
24.0327,TimingClock,'248'
24.0536,TimingClock,'248'
24.0747,TimingClock,'248'
24.0957,TimingClock,'248'
24.117,TimingClock,'248'
24.1379,TimingClock,'248'
24.1589,TimingClock,'248'
24.1799,TimingClock,'248'
24.2009,TimingClock,'248'
24.2219,TimingClock,'248'
24.2429,TimingClock,'248'
24.2638,TimingClock,'248'
24.285,TimingClock,'248'
24.306,TimingClock,'248'
24.327,TimingClock,'248'
24.3479,TimingClock,'248'
24.369,TimingClock,'248'
24.3899,TimingClock,'248'
24.411,TimingClock,'248'
24.432,TimingClock,'248'
24.453,TimingClock,'248'
24.474,TimingClock,'248'
24.495,TimingClock,'248'
24.495,NoteOn Channel: 9,'153'
24.516,TimingClock,'248'
24.537,TimingClock,'248'
24.558,TimingClock,'248'
24.579,TimingClock,'248'
24.5998,TimingClock,'248'
24.6209,TimingClock,'248'
24.642,TimingClock,'248'
24.6629,TimingClock,'248'
24.684,TimingClock,'248'
24.705,TimingClock,'248'
24.726,TimingClock,'248'
24.747,TimingClock,'248'
24.768,TimingClock,'248'
24.789,TimingClock,'248'
24.8099,TimingClock,'248'
24.831,TimingClock,'248'
24.852,TimingClock,'248'
24.8731,TimingClock,'248'
24.8941,TimingClock,'248'
24.9151,TimingClock,'248'
24.9361,TimingClock,'248'
24.9571,TimingClock,'248'
24.9782,TimingClock,'248'
24.9993,TimingClock,'248'
24.9993,NoteOn Channel: 9,'153'
25.0201,TimingClock,'248'
25.0411,TimingClock,'248'
25.0621,TimingClock,'248'
25.0831,TimingClock,'248'
25.1041,TimingClock,'248'
25.1252,TimingClock,'248'
25.1461,TimingClock,'248'
25.1671,TimingClock,'248'
25.1881,TimingClock,'248'
25.2091,TimingClock,'248'
25.2302,TimingClock,'248'
25.2512,TimingClock,'248'
25.2723,TimingClock,'248'
25.2932,TimingClock,'248'
25.3143,TimingClock,'248'
25.3353,TimingClock,'248'
25.3562,TimingClock,'248'
25.3772,TimingClock,'248'
25.3982,TimingClock,'248'
25.4193,TimingClock,'248'
25.4401,TimingClock,'248'
25.4611,TimingClock,'248'
25.4822,TimingClock,'248'
25.5035,TimingClock,'248'
25.5035,NoteOn Channel: 9,'153'
25.5242,TimingClock,'248'
25.5451,TimingClock,'248'
25.5661,TimingClock,'248'
25.5872,TimingClock,'248'
25.6084,TimingClock,'248'
25.6295,TimingClock,'248'
25.6503,TimingClock,'248'
25.6713,TimingClock,'248'
25.6924,TimingClock,'248'
25.7134,TimingClock,'248'
25.7344,TimingClock,'248'
25.7554,TimingClock,'248'
25.7764,TimingClock,'248'
25.7974,TimingClock,'248'
25.8185,TimingClock,'248'
25.8395,TimingClock,'248'
25.8605,TimingClock,'248'
25.8815,TimingClock,'248'
25.9025,TimingClock,'248'
25.9235,TimingClock,'248'
25.9445,TimingClock,'248'
25.9655,TimingClock,'248'
25.9864,TimingClock,'248'
26.0076,TimingClock,'248'
26.0076,NoteOn Channel: 9,'153'
26.0285,TimingClock,'248'
26.0495,TimingClock,'248'
26.0705,TimingClock,'248'
26.0915,TimingClock,'248'
26.1125,TimingClock,'248'
26.1337,TimingClock,'248'
26.1545,TimingClock,'248'
26.1755,TimingClock,'248'
26.1966,TimingClock,'248'
26.2175,TimingClock,'248'
26.2385,TimingClock,'248'
26.2595,TimingClock,'248'
26.2807,TimingClock,'248'
26.3015,TimingClock,'248'
26.3226,TimingClock,'248'
26.3436,TimingClock,'248'
26.3645,TimingClock,'248'
26.3856,TimingClock,'248'
26.4067,TimingClock,'248'
26.4277,TimingClock,'248'
26.4486,TimingClock,'248'
26.4695,TimingClock,'248'
26.4908,TimingClock,'248'
26.5119,TimingClock,'248'
26.5119,NoteOn Channel: 9,'153'
26.5328,TimingClock,'248'
26.5536,TimingClock,'248'
26.5747,TimingClock,'248'
26.5956,TimingClock,'248'
26.6167,TimingClock,'248'
26.6378,TimingClock,'248'
26.6587,TimingClock,'248'
26.6798,TimingClock,'248'
26.7006,TimingClock,'248'
26.7217,TimingClock,'248'
26.7426,TimingClock,'248'
26.7636,TimingClock,'248'
26.7847,TimingClock,'248'
26.8057,TimingClock,'248'
26.8267,TimingClock,'248'
26.8479,TimingClock,'248'
26.8689,TimingClock,'248'
26.8899,TimingClock,'248'
26.9109,TimingClock,'248'
26.9319,TimingClock,'248'
26.9529,TimingClock,'248'
26.9739,TimingClock,'248'
26.9949,TimingClock,'248'
27.0158,TimingClock,'248'
27.0158,NoteOn Channel: 9,'153'
27.0368,TimingClock,'248'
27.0577,TimingClock,'248'
27.0787,TimingClock,'248'
27.0999,TimingClock,'248'
27.1209,TimingClock,'248'
27.1419,TimingClock,'248'
27.1628,TimingClock,'248'
27.1838,TimingClock,'248'
27.205,TimingClock,'248'
27.226,TimingClock,'248'
27.247,TimingClock,'248'
27.268,TimingClock,'248'
27.289,TimingClock,'248'
27.31,TimingClock,'248'
27.331,TimingClock,'248'
27.352,TimingClock,'248'
27.373,TimingClock,'248'
27.3939,TimingClock,'248'
27.4149,TimingClock,'248'
27.4359,TimingClock,'248'
27.457,TimingClock,'248'
27.4779,TimingClock,'248'
27.499,TimingClock,'248'
27.5201,TimingClock,'248'
27.5201,NoteOn Channel: 9,'153'
27.541,TimingClock,'248'
27.562,TimingClock,'248'
27.583,TimingClock,'248'
27.604,TimingClock,'248'
27.6249,TimingClock,'248'
27.6461,TimingClock,'248'
27.6671,TimingClock,'248'
27.6881,TimingClock,'248'
27.7091,TimingClock,'248'
27.7301,TimingClock,'248'
27.7511,TimingClock,'248'
27.7722,TimingClock,'248'
27.7931,TimingClock,'248'
27.8141,TimingClock,'248'
27.8351,TimingClock,'248'
27.8561,TimingClock,'248'
27.8771,TimingClock,'248'
27.8981,TimingClock,'248'
27.9191,TimingClock,'248'
27.9401,TimingClock,'248'
27.9612,TimingClock,'248'
27.9822,TimingClock,'248'
28.0032,TimingClock,'248'
28.0244,TimingClock,'248'
28.0244,NoteOn Channel: 9,'153'
28.0452,TimingClock,'248'
28.0662,TimingClock,'248'
28.0873,TimingClock,'248'
28.1082,TimingClock,'248'
28.1292,TimingClock,'248'
28.1504,TimingClock,'248'
28.1712,TimingClock,'248'
28.1923,TimingClock,'248'
28.2132,TimingClock,'248'
28.2342,TimingClock,'248'
28.2552,TimingClock,'248'
28.2762,TimingClock,'248'
28.2972,TimingClock,'248'
28.3182,TimingClock,'248'
28.3394,TimingClock,'248'
28.3602,TimingClock,'248'
28.3814,TimingClock,'248'
28.4023,TimingClock,'248'
28.4234,TimingClock,'248'
28.4443,TimingClock,'248'
28.4653,TimingClock,'248'
28.4863,TimingClock,'248'
28.5074,TimingClock,'248'
28.5284,TimingClock,'248'
28.5284,NoteOn Channel: 9,'153'
28.5493,TimingClock,'248'
28.5704,TimingClock,'248'
28.5914,TimingClock,'248'
28.6125,TimingClock,'248'
28.6335,TimingClock,'248'
28.6545,TimingClock,'248'
28.6755,TimingClock,'248'
28.6964,TimingClock,'248'
28.7175,TimingClock,'248'
28.7385,TimingClock,'248'
28.7595,TimingClock,'248'
28.7805,TimingClock,'248'
28.8015,TimingClock,'248'
28.8225,TimingClock,'248'
28.8435,TimingClock,'248'
28.8645,TimingClock,'248'
28.8855,TimingClock,'248'
28.9065,TimingClock,'248'
28.9275,TimingClock,'248'
28.9486,TimingClock,'248'
28.9696,TimingClock,'248'
28.9906,TimingClock,'248'
29.0115,TimingClock,'248'
29.0327,TimingClock,'248'
29.0327,NoteOn Channel: 9,'153'
29.0535,TimingClock,'248'
29.0746,TimingClock,'248'
29.0956,TimingClock,'248'
29.1166,TimingClock,'248'
29.1376,TimingClock,'248'
29.1588,TimingClock,'248'
29.1796,TimingClock,'248'
29.2006,TimingClock,'248'
29.2216,TimingClock,'248'
29.2426,TimingClock,'248'
29.2636,TimingClock,'248'
29.2847,TimingClock,'248'
29.3057,TimingClock,'248'
29.3267,TimingClock,'248'
29.3478,TimingClock,'248'
29.3687,TimingClock,'248'
29.3897,TimingClock,'248'
29.4106,TimingClock,'248'
29.4317,TimingClock,'248'
29.4527,TimingClock,'248'
29.4737,TimingClock,'248'
29.4947,TimingClock,'248'
29.5157,TimingClock,'248'
29.537,TimingClock,'248'
29.537,NoteOn Channel: 9,'153'
29.5578,TimingClock,'248'
29.5788,TimingClock,'248'
29.5997,TimingClock,'248'
29.6207,TimingClock,'248'
29.6418,TimingClock,'248'
29.663,TimingClock,'248'
29.6838,TimingClock,'248'
29.7048,TimingClock,'248'
29.7258,TimingClock,'248'
29.7468,TimingClock,'248'
29.7679,TimingClock,'248'
29.7888,TimingClock,'248'
29.8098,TimingClock,'248'
29.8308,TimingClock,'248'
29.8518,TimingClock,'248'
29.8729,TimingClock,'248'
29.8938,TimingClock,'248'
29.915,TimingClock,'248'
29.936,TimingClock,'248'
29.957,TimingClock,'248'
29.9779,TimingClock,'248'
29.999,TimingClock,'248'
30.02,TimingClock,'248'
30.0409,TimingClock,'248'
30.0409,NoteOn Channel: 9,'153'
30.062,TimingClock,'248'
30.083,TimingClock,'248'
30.104,TimingClock,'248'
30.125,TimingClock,'248'
30.146,TimingClock,'248'
30.167,TimingClock,'248'
30.188,TimingClock,'248'
30.209,TimingClock,'248'
30.2299,TimingClock,'248'
30.251,TimingClock,'248'
30.272,TimingClock,'248'
30.293,TimingClock,'248'
30.314,TimingClock,'248'
30.335,TimingClock,'248'
30.356,TimingClock,'248'
30.377,TimingClock,'248'
30.398,TimingClock,'248'
30.4191,TimingClock,'248'
30.4401,TimingClock,'248'
30.4611,TimingClock,'248'
30.4821,TimingClock,'248'
30.5031,TimingClock,'248'
30.5241,TimingClock,'248'
30.5452,TimingClock,'248'
30.5452,NoteOn Channel: 9,'153'
30.5661,TimingClock,'248'
30.5872,TimingClock,'248'
30.6081,TimingClock,'248'
30.6291,TimingClock,'248'
30.6501,TimingClock,'248'
30.6712,TimingClock,'248'
30.6921,TimingClock,'248'
30.713,TimingClock,'248'
30.7341,TimingClock,'248'
30.7551,TimingClock,'248'
30.776,TimingClock,'248'
30.7971,TimingClock,'248'
30.8183,TimingClock,'248'
30.8392,TimingClock,'248'
30.8602,TimingClock,'248'
30.8812,TimingClock,'248'
30.9022,TimingClock,'248'
30.9232,TimingClock,'248'
30.9443,TimingClock,'248'
30.9652,TimingClock,'248'
30.9862,TimingClock,'248'
31.0072,TimingClock,'248'
31.0282,TimingClock,'248'
31.0495,TimingClock,'248'
31.0495,NoteOn Channel: 9,'153'
31.0702,TimingClock,'248'
31.0913,TimingClock,'248'
31.1124,TimingClock,'248'
31.1333,TimingClock,'248'
31.1544,TimingClock,'248'
31.1755,TimingClock,'248'
31.1964,TimingClock,'248'
31.2173,TimingClock,'248'
31.2383,TimingClock,'248'
31.2594,TimingClock,'248'
31.2804,TimingClock,'248'
31.3014,TimingClock,'248'
31.3224,TimingClock,'248'
31.3434,TimingClock,'248'
31.3645,TimingClock,'248'
31.3855,TimingClock,'248'
31.4063,TimingClock,'248'
31.4275,TimingClock,'248'
31.4485,TimingClock,'248'
31.4695,TimingClock,'248'
31.4905,TimingClock,'248'
31.5114,TimingClock,'248'
31.5325,TimingClock,'248'
31.5536,TimingClock,'248'
31.5536,NoteOn Channel: 9,'153'
31.5745,TimingClock,'248'
31.5954,TimingClock,'248'
31.6164,TimingClock,'248'
31.6374,TimingClock,'248'
31.6585,TimingClock,'248'
31.6795,TimingClock,'248'
31.7004,TimingClock,'248'
31.7217,TimingClock,'248'
31.7426,TimingClock,'248'
31.7636,TimingClock,'248'
31.7846,TimingClock,'248'
31.8055,TimingClock,'248'
31.8266,TimingClock,'248'
31.8476,TimingClock,'248'
31.8686,TimingClock,'248'
31.8896,TimingClock,'248'
31.9106,TimingClock,'248'
31.9316,TimingClock,'248'
31.9526,TimingClock,'248'
31.9735,TimingClock,'248'
31.9946,TimingClock,'248'
32.0157,TimingClock,'248'
32.0367,TimingClock,'248'
32.0577,TimingClock,'248'
32.0577,NoteOn Channel: 9,'153'
32.0787,TimingClock,'248'
32.0998,TimingClock,'248'
32.1206,TimingClock,'248'
32.1417,TimingClock,'248'
32.1627,TimingClock,'248'
32.1838,TimingClock,'248'
32.2046,TimingClock,'248'
32.2258,TimingClock,'248'
32.2467,TimingClock,'248'
32.2676,TimingClock,'248'
32.2886,TimingClock,'248'
32.3096,TimingClock,'248'
32.3307,TimingClock,'248'
32.3517,TimingClock,'248'
32.3728,TimingClock,'248'
32.3937,TimingClock,'248'
32.4147,TimingClock,'248'
32.4358,TimingClock,'248'
32.4567,TimingClock,'248'
32.4779,TimingClock,'248'
32.4989,TimingClock,'248'
32.5198,TimingClock,'248'
32.5409,TimingClock,'248'
32.562,TimingClock,'248'
32.562,NoteOn Channel: 9,'153'
32.5827,TimingClock,'248'
32.6038,TimingClock,'248'
32.6247,TimingClock,'248'
32.6459,TimingClock,'248'
32.6668,TimingClock,'248'
32.6879,TimingClock,'248'
32.7088,TimingClock,'248'
32.7298,TimingClock,'248'
32.751,TimingClock,'248'
32.772,TimingClock,'248'
32.7929,TimingClock,'248'
32.814,TimingClock,'248'
32.835,TimingClock,'248'
32.856,TimingClock,'248'
32.8769,TimingClock,'248'
32.898,TimingClock,'248'
32.919,TimingClock,'248'
32.94,TimingClock,'248'
32.961,TimingClock,'248'
32.982,TimingClock,'248'
33.003,TimingClock,'248'
33.024,TimingClock,'248'
33.045,TimingClock,'248'
33.0661,TimingClock,'248'
33.0661,NoteOn Channel: 9,'153'
33.087,TimingClock,'248'
33.108,TimingClock,'248'
33.129,TimingClock,'248'
33.15,TimingClock,'248'
33.171,TimingClock,'248'
33.192,TimingClock,'248'
33.2131,TimingClock,'248'
33.2341,TimingClock,'248'
33.2551,TimingClock,'248'
33.2762,TimingClock,'248'
33.2972,TimingClock,'248'
33.3181,TimingClock,'248'
33.3391,TimingClock,'248'
33.3602,TimingClock,'248'
33.381,TimingClock,'248'
33.4021,TimingClock,'248'
33.4231,TimingClock,'248'
33.4441,TimingClock,'248'
33.4651,TimingClock,'248'
33.4861,TimingClock,'248'
33.5072,TimingClock,'248'
33.5281,TimingClock,'248'
33.5491,TimingClock,'248'
33.5704,TimingClock,'248'
33.5704,NoteOn Channel: 9,'153'
33.5911,TimingClock,'248'
33.6122,TimingClock,'248'
33.6332,TimingClock,'248'
33.6541,TimingClock,'248'
33.6752,TimingClock,'248'
33.6964,TimingClock,'248'
33.7172,TimingClock,'248'
33.7382,TimingClock,'248'
33.7594,TimingClock,'248'
33.7803,TimingClock,'248'
33.8014,TimingClock,'248'
33.8224,TimingClock,'248'
33.8434,TimingClock,'248'
33.8643,TimingClock,'248'
33.8853,TimingClock,'248'
33.9064,TimingClock,'248'
33.9274,TimingClock,'248'
33.9484,TimingClock,'248'
33.9694,TimingClock,'248'
33.9904,TimingClock,'248'
34.0114,TimingClock,'248'
34.0323,TimingClock,'248'
34.0533,TimingClock,'248'
34.0743,TimingClock,'248'
34.0743,NoteOn Channel: 9,'153'
34.0954,TimingClock,'248'
34.1164,TimingClock,'248'
34.1374,TimingClock,'248'
34.1585,TimingClock,'248'
34.1795,TimingClock,'248'
34.2005,TimingClock,'248'
34.2215,TimingClock,'248'
34.2424,TimingClock,'248'
34.2635,TimingClock,'248'
34.2845,TimingClock,'248'
34.3055,TimingClock,'248'
34.3265,TimingClock,'248'
34.3475,TimingClock,'248'
34.3685,TimingClock,'248'
34.3895,TimingClock,'248'
34.4104,TimingClock,'248'
34.4314,TimingClock,'248'
34.4526,TimingClock,'248'
34.4736,TimingClock,'248'
34.4946,TimingClock,'248'
34.5156,TimingClock,'248'
34.5365,TimingClock,'248'
34.5576,TimingClock,'248'
34.5787,TimingClock,'248'
34.5787,NoteOn Channel: 9,'153'
34.5997,TimingClock,'248'
34.6205,TimingClock,'248'
34.6416,TimingClock,'248'
34.6625,TimingClock,'248'
34.6836,TimingClock,'248'
34.7047,TimingClock,'248'
34.7256,TimingClock,'248'
34.7466,TimingClock,'248'
34.7677,TimingClock,'248'
34.7886,TimingClock,'248'
34.8096,TimingClock,'248'
34.8308,TimingClock,'248'
34.8518,TimingClock,'248'
34.8727,TimingClock,'248'
34.8938,TimingClock,'248'
34.9147,TimingClock,'248'
34.9357,TimingClock,'248'
34.9567,TimingClock,'248'
34.9777,TimingClock,'248'
34.9987,TimingClock,'248'
35.0197,TimingClock,'248'
35.0407,TimingClock,'248'
35.0617,TimingClock,'248'
35.0829,TimingClock,'248'
35.0829,NoteOn Channel: 9,'153'
35.1037,TimingClock,'248'
35.1246,TimingClock,'248'
35.1457,TimingClock,'248'
35.1667,TimingClock,'248'
35.1877,TimingClock,'248'
35.2089,TimingClock,'248'
35.2297,TimingClock,'248'
35.2508,TimingClock,'248'
35.2719,TimingClock,'248'
35.2929,TimingClock,'248'
35.3139,TimingClock,'248'
35.3349,TimingClock,'248'
35.3558,TimingClock,'248'
35.3769,TimingClock,'248'
35.3979,TimingClock,'248'
35.4189,TimingClock,'248'
35.4399,TimingClock,'248'
35.461,TimingClock,'248'
35.482,TimingClock,'248'
35.503,TimingClock,'248'
35.524,TimingClock,'248'
35.545,TimingClock,'248'
35.5659,TimingClock,'248'
35.587,TimingClock,'248'
35.587,NoteOn Channel: 9,'153'
35.6079,TimingClock,'248'
35.629,TimingClock,'248'
35.65,TimingClock,'248'
35.671,TimingClock,'248'
35.692,TimingClock,'248'
35.7129,TimingClock,'248'
35.734,TimingClock,'248'
35.755,TimingClock,'248'
35.776,TimingClock,'248'
35.797,TimingClock,'248'
35.818,TimingClock,'248'
35.839,TimingClock,'248'
35.86,TimingClock,'248'
35.881,TimingClock,'248'
35.902,TimingClock,'248'
35.9229,TimingClock,'248'
35.944,TimingClock,'248'
35.9651,TimingClock,'248'
35.9861,TimingClock,'248'
36.0071,TimingClock,'248'
36.0281,TimingClock,'248'
36.0491,TimingClock,'248'
36.0702,TimingClock,'248'
36.0912,TimingClock,'248'
36.0912,NoteOn Channel: 9,'153'
36.1121,TimingClock,'248'
36.1331,TimingClock,'248'
36.154,TimingClock,'248'
36.1751,TimingClock,'248'
36.1961,TimingClock,'248'
36.2172,TimingClock,'248'
36.2382,TimingClock,'248'
36.2592,TimingClock,'248'
36.28,TimingClock,'248'
36.3012,TimingClock,'248'
36.3222,TimingClock,'248'
36.3433,TimingClock,'248'
36.3642,TimingClock,'248'
36.3852,TimingClock,'248'
36.4062,TimingClock,'248'
36.4271,TimingClock,'248'
36.4481,TimingClock,'248'
36.4693,TimingClock,'248'
36.4904,TimingClock,'248'
36.5113,TimingClock,'248'
36.5323,TimingClock,'248'
36.5534,TimingClock,'248'
36.5742,TimingClock,'248'
36.5954,TimingClock,'248'
36.5954,NoteOn Channel: 9,'153'
36.6164,TimingClock,'248'
36.6372,TimingClock,'248'
36.6583,TimingClock,'248'
36.6794,TimingClock,'248'
36.7004,TimingClock,'248'
36.7215,TimingClock,'248'
36.7424,TimingClock,'248'
36.7634,TimingClock,'248'
36.7842,TimingClock,'248'
36.8053,TimingClock,'248'
36.8263,TimingClock,'248'
36.8474,TimingClock,'248'
36.8684,TimingClock,'248'
36.8895,TimingClock,'248'
36.9105,TimingClock,'248'
36.9315,TimingClock,'248'
36.9524,TimingClock,'248'
36.9735,TimingClock,'248'
36.9945,TimingClock,'248'
37.0155,TimingClock,'248'
37.0365,TimingClock,'248'
37.0575,TimingClock,'248'
37.0784,TimingClock,'248'
37.0996,TimingClock,'248'
37.0996,NoteOn Channel: 9,'153'
37.1205,TimingClock,'248'
37.1415,TimingClock,'248'
37.1625,TimingClock,'248'
37.1835,TimingClock,'248'
37.2045,TimingClock,'248'
37.2256,TimingClock,'248'
37.2465,TimingClock,'248'
37.2676,TimingClock,'248'
37.2886,TimingClock,'248'
37.3096,TimingClock,'248'
37.3306,TimingClock,'248'
37.3515,TimingClock,'248'
37.3726,TimingClock,'248'
37.3935,TimingClock,'248'
37.4146,TimingClock,'248'
37.4356,TimingClock,'248'
37.4566,TimingClock,'248'
37.4776,TimingClock,'248'
37.4985,TimingClock,'248'
37.5196,TimingClock,'248'
37.5406,TimingClock,'248'
37.5616,TimingClock,'248'
37.5826,TimingClock,'248'
37.6038,TimingClock,'248'
37.6038,NoteOn Channel: 9,'153'
37.6246,TimingClock,'248'
37.6456,TimingClock,'248'
37.6666,TimingClock,'248'
37.6876,TimingClock,'248'
37.7088,TimingClock,'248'
37.7297,TimingClock,'248'
37.7508,TimingClock,'248'
37.7717,TimingClock,'248'
37.7927,TimingClock,'248'
37.8137,TimingClock,'248'
37.8348,TimingClock,'248'
37.8557,TimingClock,'248'
37.8767,TimingClock,'248'
37.8977,TimingClock,'248'
37.9187,TimingClock,'248'
37.9398,TimingClock,'248'
37.9607,TimingClock,'248'
37.9818,TimingClock,'248'
38.0027,TimingClock,'248'
38.0238,TimingClock,'248'
38.0447,TimingClock,'248'
38.0659,TimingClock,'248'
38.0869,TimingClock,'248'
38.108,TimingClock,'248'
38.108,NoteOn Channel: 9,'153'
38.1289,TimingClock,'248'
38.1499,TimingClock,'248'
38.1708,TimingClock,'248'
38.1919,TimingClock,'248'
38.2129,TimingClock,'248'
38.234,TimingClock,'248'
38.2548,TimingClock,'248'
38.2758,TimingClock,'248'
38.297,TimingClock,'248'
38.318,TimingClock,'248'
38.339,TimingClock,'248'
38.36,TimingClock,'248'
38.381,TimingClock,'248'
38.402,TimingClock,'248'
38.423,TimingClock,'248'
38.4439,TimingClock,'248'
38.4649,TimingClock,'248'
38.486,TimingClock,'248'
38.507,TimingClock,'248'
38.528,TimingClock,'248'
38.549,TimingClock,'248'
38.57,TimingClock,'248'
38.591,TimingClock,'248'
38.6123,TimingClock,'248'
38.6123,NoteOn Channel: 9,'153'
38.633,TimingClock,'248'
38.654,TimingClock,'248'
38.675,TimingClock,'248'
38.696,TimingClock,'248'
38.717,TimingClock,'248'
38.7382,TimingClock,'248'
38.759,TimingClock,'248'
38.78,TimingClock,'248'
38.801,TimingClock,'248'
38.822,TimingClock,'248'
38.843,TimingClock,'248'
38.864,TimingClock,'248'
38.885,TimingClock,'248'
38.906,TimingClock,'248'
38.9269,TimingClock,'248'
38.9481,TimingClock,'248'
38.9693,TimingClock,'248'
38.9902,TimingClock,'248'
39.0113,TimingClock,'248'
39.0322,TimingClock,'248'
39.0532,TimingClock,'248'
39.0742,TimingClock,'248'
39.0953,TimingClock,'248'
39.1164,TimingClock,'248'
39.1164,NoteOn Channel: 9,'153'
39.1372,TimingClock,'248'
39.1582,TimingClock,'248'
39.1792,TimingClock,'248'
39.2003,TimingClock,'248'
39.2213,TimingClock,'248'
39.2424,TimingClock,'248'
39.2632,TimingClock,'248'
39.2842,TimingClock,'248'
39.3054,TimingClock,'248'
39.3264,TimingClock,'248'
39.3472,TimingClock,'248'
39.3683,TimingClock,'248'
39.3894,TimingClock,'248'
39.4104,TimingClock,'248'
39.4314,TimingClock,'248'
39.4524,TimingClock,'248'
39.4732,TimingClock,'248'
39.4942,TimingClock,'248'
39.5154,TimingClock,'248'
39.5364,TimingClock,'248'
39.5574,TimingClock,'248'
39.5784,TimingClock,'248'
39.5994,TimingClock,'248'
39.6205,TimingClock,'248'
39.6205,NoteOn Channel: 9,'153'
39.6414,TimingClock,'248'
39.6625,TimingClock,'248'
39.6835,TimingClock,'248'
39.7045,TimingClock,'248'
39.7255,TimingClock,'248'
39.7465,TimingClock,'248'
39.7675,TimingClock,'248'
39.7885,TimingClock,'248'
39.8094,TimingClock,'248'
39.8305,TimingClock,'248'
39.8515,TimingClock,'248'
39.8725,TimingClock,'248'
39.8935,TimingClock,'248'
39.9145,TimingClock,'248'
39.9355,TimingClock,'248'
39.9565,TimingClock,'248'
39.9775,TimingClock,'248'
39.9985,TimingClock,'248'
40.0196,TimingClock,'248'
40.0406,TimingClock,'248'
40.0616,TimingClock,'248'
40.0826,TimingClock,'248'
40.1035,TimingClock,'248'
40.1247,TimingClock,'248'
40.1247,NoteOn Channel: 9,'153'
40.1456,TimingClock,'248'
40.1666,TimingClock,'248'
40.1876,TimingClock,'248'
40.2086,TimingClock,'248'
40.2297,TimingClock,'248'
40.2507,TimingClock,'248'
40.2717,TimingClock,'248'
40.2926,TimingClock,'248'
40.3136,TimingClock,'248'
40.3346,TimingClock,'248'
40.3556,TimingClock,'248'
40.3766,TimingClock,'248'
40.3976,TimingClock,'248'
40.4186,TimingClock,'248'
40.4396,TimingClock,'248'
40.4606,TimingClock,'248'
40.4818,TimingClock,'248'
40.5027,TimingClock,'248'
40.5237,TimingClock,'248'
40.5447,TimingClock,'248'
40.5657,TimingClock,'248'
40.5867,TimingClock,'248'
40.6077,TimingClock,'248'
40.6288,TimingClock,'248'
40.6288,NoteOn Channel: 9,'153'
40.6497,TimingClock,'248'
40.6707,TimingClock,'248'
40.6918,TimingClock,'248'
40.7127,TimingClock,'248'
40.7338,TimingClock,'248'
40.7549,TimingClock,'248'
40.7757,TimingClock,'248'
40.7968,TimingClock,'248'
40.8178,TimingClock,'248'
40.8389,TimingClock,'248'
40.8598,TimingClock,'248'
40.8809,TimingClock,'248'
40.9018,TimingClock,'248'
40.9229,TimingClock,'248'
40.9439,TimingClock,'248'
40.9648,TimingClock,'248'
40.9859,TimingClock,'248'
41.007,TimingClock,'248'
41.028,TimingClock,'248'
41.049,TimingClock,'248'
41.07,TimingClock,'248'
41.091,TimingClock,'248'
41.112,TimingClock,'248'
41.133,TimingClock,'248'
41.133,NoteOn Channel: 9,'153'
41.154,TimingClock,'248'
41.175,TimingClock,'248'
41.196,TimingClock,'248'
41.217,TimingClock,'248'
41.238,TimingClock,'248'
41.2592,TimingClock,'248'
41.28,TimingClock,'248'
41.301,TimingClock,'248'
41.322,TimingClock,'248'
41.343,TimingClock,'248'
41.364,TimingClock,'248'
41.385,TimingClock,'248'
41.406,TimingClock,'248'
41.427,TimingClock,'248'
41.448,TimingClock,'248'
41.469,TimingClock,'248'
41.49,TimingClock,'248'
41.5111,TimingClock,'248'
41.5321,TimingClock,'248'
41.5531,TimingClock,'248'
41.5741,TimingClock,'248'
41.5951,TimingClock,'248'
41.6161,TimingClock,'248'
41.6373,TimingClock,'248'
41.6373,NoteOn Channel: 9,'153'
41.6581,TimingClock,'248'
41.6791,TimingClock,'248'
41.7001,TimingClock,'248'
41.7211,TimingClock,'248'
41.7423,TimingClock,'248'
41.7632,TimingClock,'248'
41.7842,TimingClock,'248'
41.8052,TimingClock,'248'
41.8262,TimingClock,'248'
41.8472,TimingClock,'248'
41.8683,TimingClock,'248'
41.8893,TimingClock,'248'
41.9102,TimingClock,'248'
41.9312,TimingClock,'248'
41.9523,TimingClock,'248'
41.9732,TimingClock,'248'
41.9942,TimingClock,'248'
42.0154,TimingClock,'248'
42.0364,TimingClock,'248'
42.0572,TimingClock,'248'
42.0784,TimingClock,'248'
42.0994,TimingClock,'248'
42.1203,TimingClock,'248'
42.1414,TimingClock,'248'
42.1414,NoteOn Channel: 9,'153'
42.1623,TimingClock,'248'
42.1834,TimingClock,'248'
42.2044,TimingClock,'248'
42.2254,TimingClock,'248'
42.2462,TimingClock,'248'
42.2674,TimingClock,'248'
42.2884,TimingClock,'248'
42.3094,TimingClock,'248'
42.3303,TimingClock,'248'
42.3514,TimingClock,'248'
42.3724,TimingClock,'248'
42.3933,TimingClock,'248'
42.4143,TimingClock,'248'
42.4354,TimingClock,'248'
42.4565,TimingClock,'248'
42.4775,TimingClock,'248'
42.4984,TimingClock,'248'
42.5195,TimingClock,'248'
42.5405,TimingClock,'248'
42.5614,TimingClock,'248'
42.5824,TimingClock,'248'
42.6035,TimingClock,'248'
42.6245,TimingClock,'248'
42.6455,TimingClock,'248'
42.6455,NoteOn Channel: 9,'153'
42.6664,TimingClock,'248'
42.6875,TimingClock,'248'
42.7085,TimingClock,'248'
42.7295,TimingClock,'248'
42.7505,TimingClock,'248'
42.7716,TimingClock,'248'
42.7925,TimingClock,'248'
42.8135,TimingClock,'248'
42.8345,TimingClock,'248'
42.8555,TimingClock,'248'
42.8765,TimingClock,'248'
42.8976,TimingClock,'248'
42.9186,TimingClock,'248'
42.9396,TimingClock,'248'
42.9607,TimingClock,'248'
42.9816,TimingClock,'248'
43.0026,TimingClock,'248'
43.0236,TimingClock,'248'
43.0447,TimingClock,'248'
43.0655,TimingClock,'248'
43.0866,TimingClock,'248'
43.1076,TimingClock,'248'
43.1286,TimingClock,'248'
43.1497,TimingClock,'248'
43.1497,NoteOn Channel: 9,'153'
43.1706,TimingClock,'248'
43.1916,TimingClock,'248'
43.2126,TimingClock,'248'
43.2337,TimingClock,'248'
43.2547,TimingClock,'248'
43.2757,TimingClock,'248'
43.2967,TimingClock,'248'
43.3178,TimingClock,'248'
43.3388,TimingClock,'248'
43.3597,TimingClock,'248'
43.3807,TimingClock,'248'
43.4017,TimingClock,'248'
43.4228,TimingClock,'248'
43.4437,TimingClock,'248'
43.4647,TimingClock,'248'
43.4856,TimingClock,'248'
43.5067,TimingClock,'248'
43.5277,TimingClock,'248'
43.5489,TimingClock,'248'
43.57,TimingClock,'248'
43.5908,TimingClock,'248'
43.6119,TimingClock,'248'
43.6329,TimingClock,'248'
43.654,TimingClock,'248'
43.654,NoteOn Channel: 9,'153'
43.6749,TimingClock,'248'
43.6958,TimingClock,'248'
43.7169,TimingClock,'248'
43.7379,TimingClock,'248'
43.7589,TimingClock,'248'
43.7799,TimingClock,'248'
43.8009,TimingClock,'248'
43.822,TimingClock,'248'
43.843,TimingClock,'248'
43.864,TimingClock,'248'
43.885,TimingClock,'248'
43.9059,TimingClock,'248'
43.9269,TimingClock,'248'
43.9479,TimingClock,'248'
43.969,TimingClock,'248'
43.99,TimingClock,'248'
44.011,TimingClock,'248'
44.0318,TimingClock,'248'
44.053,TimingClock,'248'
44.0739,TimingClock,'248'
44.095,TimingClock,'248'
44.116,TimingClock,'248'
44.137,TimingClock,'248'
44.1583,TimingClock,'248'
44.1583,NoteOn Channel: 9,'153'
44.179,TimingClock,'248'
44.2001,TimingClock,'248'
44.2211,TimingClock,'248'
44.2421,TimingClock,'248'
44.2631,TimingClock,'248'
44.2842,TimingClock,'248'
44.305,TimingClock,'248'
44.3261,TimingClock,'248'
44.347,TimingClock,'248'
44.3681,TimingClock,'248'
44.3891,TimingClock,'248'
44.4101,TimingClock,'248'
44.4311,TimingClock,'248'
44.4521,TimingClock,'248'
44.4731,TimingClock,'248'
44.494,TimingClock,'248'
44.5152,TimingClock,'248'
44.5363,TimingClock,'248'
44.5572,TimingClock,'248'
44.5782,TimingClock,'248'
44.5992,TimingClock,'248'
44.6202,TimingClock,'248'
44.6412,TimingClock,'248'
44.6624,TimingClock,'248'
44.6624,NoteOn Channel: 9,'153'
44.6832,TimingClock,'248'
44.7042,TimingClock,'248'
44.7251,TimingClock,'248'
44.7463,TimingClock,'248'
44.7672,TimingClock,'248'
44.7882,TimingClock,'248'
44.8091,TimingClock,'248'
44.8302,TimingClock,'248'
44.8514,TimingClock,'248'
44.8724,TimingClock,'248'
44.8934,TimingClock,'248'
44.9144,TimingClock,'248'
44.9354,TimingClock,'248'
44.9563,TimingClock,'248'
44.9774,TimingClock,'248'
44.9984,TimingClock,'248'
45.0193,TimingClock,'248'
45.0404,TimingClock,'248'
45.0613,TimingClock,'248'
45.0822,TimingClock,'248'
45.1034,TimingClock,'248'
45.1244,TimingClock,'248'
45.1454,TimingClock,'248'
45.1665,TimingClock,'248'
45.1665,NoteOn Channel: 9,'153'
45.1874,TimingClock,'248'
45.2085,TimingClock,'248'
45.2295,TimingClock,'248'
45.2505,TimingClock,'248'
45.2715,TimingClock,'248'
45.2926,TimingClock,'248'
45.3135,TimingClock,'248'
45.3345,TimingClock,'248'
45.3554,TimingClock,'248'
45.3765,TimingClock,'248'
45.3975,TimingClock,'248'
45.4185,TimingClock,'248'
45.4395,TimingClock,'248'
45.4605,TimingClock,'248'
45.4813,TimingClock,'248'
45.5025,TimingClock,'248'
45.5234,TimingClock,'248'
45.5445,TimingClock,'248'
45.5655,TimingClock,'248'
45.5865,TimingClock,'248'
45.6075,TimingClock,'248'
45.6286,TimingClock,'248'
45.6496,TimingClock,'248'
45.6708,TimingClock,'248'
45.6708,NoteOn Channel: 9,'153'
45.6917,TimingClock,'248'
45.7125,TimingClock,'248'
45.7336,TimingClock,'248'
45.7546,TimingClock,'248'
45.7756,TimingClock,'248'
45.7967,TimingClock,'248'
45.8176,TimingClock,'248'
45.8386,TimingClock,'248'
45.8596,TimingClock,'248'
45.8805,TimingClock,'248'
45.9016,TimingClock,'248'
45.9226,TimingClock,'248'
45.9436,TimingClock,'248'
45.9646,TimingClock,'248'
45.9857,TimingClock,'248'
46.0067,TimingClock,'248'
46.0277,TimingClock,'248'
46.0487,TimingClock,'248'
46.0697,TimingClock,'248'
46.0907,TimingClock,'248'
46.1118,TimingClock,'248'
46.1326,TimingClock,'248'
46.1536,TimingClock,'248'
46.1749,TimingClock,'248'
46.1749,NoteOn Channel: 9,'153'
46.1957,TimingClock,'248'
46.2167,TimingClock,'248'
46.2377,TimingClock,'248'
46.2588,TimingClock,'248'
46.2798,TimingClock,'248'
46.3008,TimingClock,'248'
46.3217,TimingClock,'248'
46.3427,TimingClock,'248'
46.3639,TimingClock,'248'
46.3848,TimingClock,'248'
46.4058,TimingClock,'248'
46.4269,TimingClock,'248'
46.4479,TimingClock,'248'
46.4688,TimingClock,'248'
46.4899,TimingClock,'248'
46.5109,TimingClock,'248'
46.532,TimingClock,'248'
46.553,TimingClock,'248'
46.574,TimingClock,'248'
46.595,TimingClock,'248'
46.6159,TimingClock,'248'
46.637,TimingClock,'248'
46.658,TimingClock,'248'
46.6791,TimingClock,'248'
46.6791,NoteOn Channel: 9,'153'
46.6999,TimingClock,'248'
46.7209,TimingClock,'248'
46.7419,TimingClock,'248'
46.763,TimingClock,'248'
46.7839,TimingClock,'248'
46.8051,TimingClock,'248'
46.826,TimingClock,'248'
46.8471,TimingClock,'248'
46.8679,TimingClock,'248'
46.889,TimingClock,'248'
46.91,TimingClock,'248'
46.931,TimingClock,'248'
46.952,TimingClock,'248'
46.9731,TimingClock,'248'
46.994,TimingClock,'248'
47.0151,TimingClock,'248'
47.0361,TimingClock,'248'
47.0571,TimingClock,'248'
47.0781,TimingClock,'248'
47.099,TimingClock,'248'
47.1201,TimingClock,'248'
47.1411,TimingClock,'248'
47.1621,TimingClock,'248'
47.1833,TimingClock,'248'
47.1833,NoteOn Channel: 9,'153'
47.2041,TimingClock,'248'
47.2251,TimingClock,'248'
47.2461,TimingClock,'248'
47.2671,TimingClock,'248'
47.2882,TimingClock,'248'
47.3092,TimingClock,'248'
47.3302,TimingClock,'248'
47.3511,TimingClock,'248'
47.3722,TimingClock,'248'
47.3931,TimingClock,'248'
47.4142,TimingClock,'248'
47.4353,TimingClock,'248'
47.4562,TimingClock,'248'
47.4772,TimingClock,'248'
47.4982,TimingClock,'248'
47.5193,TimingClock,'248'
47.5402,TimingClock,'248'
47.5612,TimingClock,'248'
47.5824,TimingClock,'248'
47.6034,TimingClock,'248'
47.6243,TimingClock,'248'
47.6454,TimingClock,'248'
47.6664,TimingClock,'248'
47.6875,TimingClock,'248'
47.6875,NoteOn Channel: 9,'153'
47.7083,TimingClock,'248'
47.7293,TimingClock,'248'
47.7503,TimingClock,'248'
47.7712,TimingClock,'248'
47.7923,TimingClock,'248'
47.8135,TimingClock,'248'
47.8343,TimingClock,'248'
47.8554,TimingClock,'248'
47.8763,TimingClock,'248'
47.8974,TimingClock,'248'
47.9184,TimingClock,'248'
47.9394,TimingClock,'248'
47.9605,TimingClock,'248'
47.9815,TimingClock,'248'
48.0024,TimingClock,'248'
48.0235,TimingClock,'248'
48.0443,TimingClock,'248'
48.0654,TimingClock,'248'
48.0864,TimingClock,'248'
48.1075,TimingClock,'248'
48.1285,TimingClock,'248'
48.1495,TimingClock,'248'
48.1705,TimingClock,'248'
48.1916,TimingClock,'248'
48.1916,NoteOn Channel: 9,'153'
48.2125,TimingClock,'248'
48.2334,TimingClock,'248'
48.2544,TimingClock,'248'
48.2755,TimingClock,'248'
48.2965,TimingClock,'248'
48.3176,TimingClock,'248'
48.3385,TimingClock,'248'
48.3595,TimingClock,'248'
48.3805,TimingClock,'248'
48.4015,TimingClock,'248'
48.4226,TimingClock,'248'
48.4435,TimingClock,'248'
48.4645,TimingClock,'248'
48.4856,TimingClock,'248'
48.5066,TimingClock,'248'
48.5276,TimingClock,'248'
48.5486,TimingClock,'248'
48.5695,TimingClock,'248'
48.5906,TimingClock,'248'
48.6117,TimingClock,'248'
48.6325,TimingClock,'248'
48.6536,TimingClock,'248'
48.6746,TimingClock,'248'
48.6957,TimingClock,'248'
48.6957,NoteOn Channel: 9,'153'
48.7166,TimingClock,'248'
48.7376,TimingClock,'248'
48.7586,TimingClock,'248'
48.7796,TimingClock,'248'
48.8007,TimingClock,'248'
48.8217,TimingClock,'248'
48.8428,TimingClock,'248'
48.8638,TimingClock,'248'
48.8847,TimingClock,'248'
48.9056,TimingClock,'248'
48.9267,TimingClock,'248'
48.9478,TimingClock,'248'
48.9687,TimingClock,'248'
48.9898,TimingClock,'248'
49.0107,TimingClock,'248'
49.0316,TimingClock,'248'
49.0528,TimingClock,'248'
49.0739,TimingClock,'248'
49.0948,TimingClock,'248'
49.1159,TimingClock,'248'
49.1368,TimingClock,'248'
49.1579,TimingClock,'248'
49.1789,TimingClock,'248'
49.2,TimingClock,'248'
49.2,NoteOn Channel: 9,'153'
49.2207,TimingClock,'248'
49.2419,TimingClock,'248'
49.2628,TimingClock,'248'
49.2839,TimingClock,'248'
49.3049,TimingClock,'248'
49.326,TimingClock,'248'
49.347,TimingClock,'248'
49.368,TimingClock,'248'
49.3889,TimingClock,'248'
49.41,TimingClock,'248'
49.431,TimingClock,'248'
49.4519,TimingClock,'248'
49.4729,TimingClock,'248'
49.494,TimingClock,'248'
49.515,TimingClock,'248'
49.536,TimingClock,'248'
49.557,TimingClock,'248'
49.578,TimingClock,'248'
49.599,TimingClock,'248'
49.62,TimingClock,'248'
49.6409,TimingClock,'248'
49.662,TimingClock,'248'
49.6831,TimingClock,'248'
49.7042,TimingClock,'248'
49.7042,NoteOn Channel: 9,'153'
49.725,TimingClock,'248'
49.7461,TimingClock,'248'
49.7671,TimingClock,'248'
49.7881,TimingClock,'248'
49.8091,TimingClock,'248'
49.8302,TimingClock,'248'
49.8511,TimingClock,'248'
49.8721,TimingClock,'248'
49.8931,TimingClock,'248'
49.9141,TimingClock,'248'
49.935,TimingClock,'248'
49.9562,TimingClock,'248'
49.9771,TimingClock,'248'
49.9981,TimingClock,'248'
50.0192,TimingClock,'248'
50.0402,TimingClock,'248'
50.0612,TimingClock,'248'
50.0822,TimingClock,'248'
50.1032,TimingClock,'248'
50.1242,TimingClock,'248'
50.1452,TimingClock,'248'
50.1662,TimingClock,'248'
50.1873,TimingClock,'248'
50.2083,TimingClock,'248'
50.2083,NoteOn Channel: 9,'153'
50.2293,TimingClock,'248'
50.2502,TimingClock,'248'
50.2712,TimingClock,'248'
50.2921,TimingClock,'248'
50.3132,TimingClock,'248'
50.3343,TimingClock,'248'
50.3552,TimingClock,'248'
50.3764,TimingClock,'248'
50.3973,TimingClock,'248'
50.4183,TimingClock,'248'
50.4394,TimingClock,'248'
50.4603,TimingClock,'248'
50.4814,TimingClock,'248'
50.5024,TimingClock,'248'
50.5234,TimingClock,'248'
50.5443,TimingClock,'248'
50.5654,TimingClock,'248'
50.5864,TimingClock,'248'
50.6073,TimingClock,'248'
50.6284,TimingClock,'248'
50.6494,TimingClock,'248'
50.6703,TimingClock,'248'
50.6914,TimingClock,'248'
50.7125,TimingClock,'248'
50.7125,NoteOn Channel: 9,'153'
50.7335,TimingClock,'248'
50.7544,TimingClock,'248'
50.7754,TimingClock,'248'
50.7964,TimingClock,'248'
50.8174,TimingClock,'248'
50.8385,TimingClock,'248'
50.8595,TimingClock,'248'
50.8805,TimingClock,'248'
50.9014,TimingClock,'248'
50.9226,TimingClock,'248'
50.9435,TimingClock,'248'
50.9645,TimingClock,'248'
50.9856,TimingClock,'248'
51.0065,TimingClock,'248'
51.0275,TimingClock,'248'
51.0485,TimingClock,'248'
51.0695,TimingClock,'248'
51.0905,TimingClock,'248'
51.1115,TimingClock,'248'
51.1324,TimingClock,'248'
51.1536,TimingClock,'248'
51.1746,TimingClock,'248'
51.1955,TimingClock,'248'
51.2166,TimingClock,'248'
51.2166,NoteOn Channel: 9,'153'
51.2376,TimingClock,'248'
51.2586,TimingClock,'248'
51.2796,TimingClock,'248'
51.3006,TimingClock,'248'
51.3215,TimingClock,'248'
51.3428,TimingClock,'248'
51.3636,TimingClock,'248'
51.3847,TimingClock,'248'
51.4056,TimingClock,'248'
51.4266,TimingClock,'248'
51.4476,TimingClock,'248'
51.4686,TimingClock,'248'
51.4896,TimingClock,'248'
51.5105,TimingClock,'248'
51.5317,TimingClock,'248'
51.5528,TimingClock,'248'
51.5737,TimingClock,'248'
51.5947,TimingClock,'248'
51.6157,TimingClock,'248'
51.6367,TimingClock,'248'
51.6577,TimingClock,'248'
51.6787,TimingClock,'248'
51.6998,TimingClock,'248'
51.7207,TimingClock,'248'
51.7207,NoteOn Channel: 9,'153'
51.7417,TimingClock,'248'
51.7627,TimingClock,'248'
51.7837,TimingClock,'248'
51.8048,TimingClock,'248'
51.8257,TimingClock,'248'
51.847,TimingClock,'248'
51.8677,TimingClock,'248'
51.8887,TimingClock,'248'
51.9099,TimingClock,'248'
51.9309,TimingClock,'248'
51.9519,TimingClock,'248'
51.9729,TimingClock,'248'
51.9939,TimingClock,'248'
52.0148,TimingClock,'248'
52.0358,TimingClock,'248'
52.057,TimingClock,'248'
52.078,TimingClock,'248'
52.0989,TimingClock,'248'
52.12,TimingClock,'248'
52.1409,TimingClock,'248'
52.162,TimingClock,'248'
52.183,TimingClock,'248'
52.204,TimingClock,'248'
52.2251,TimingClock,'248'
52.2251,NoteOn Channel: 9,'153'
52.246,TimingClock,'248'
52.267,TimingClock,'248'
52.288,TimingClock,'248'
52.3089,TimingClock,'248'
52.3299,TimingClock,'248'
52.3511,TimingClock,'248'
52.372,TimingClock,'248'
52.393,TimingClock,'248'
52.414,TimingClock,'248'
52.435,TimingClock,'248'
52.4561,TimingClock,'248'
52.4771,TimingClock,'248'
52.4981,TimingClock,'248'
52.5191,TimingClock,'248'
52.5401,TimingClock,'248'
52.5611,TimingClock,'248'
52.5822,TimingClock,'248'
52.6031,TimingClock,'248'
52.6242,TimingClock,'248'
52.6452,TimingClock,'248'
52.6661,TimingClock,'248'
52.687,TimingClock,'248'
52.708,TimingClock,'248'
52.7292,TimingClock,'248'
52.7292,NoteOn Channel: 9,'153'
52.7501,TimingClock,'248'
52.771,TimingClock,'248'
52.7921,TimingClock,'248'
52.8131,TimingClock,'248'
52.8342,TimingClock,'248'
52.8552,TimingClock,'248'
52.8762,TimingClock,'248'
52.8972,TimingClock,'248'
52.9182,TimingClock,'248'
52.9392,TimingClock,'248'
52.9602,TimingClock,'248'
52.9812,TimingClock,'248'
53.0022,TimingClock,'248'
53.0232,TimingClock,'248'
53.0442,TimingClock,'248'
53.0652,TimingClock,'248'
53.0861,TimingClock,'248'
53.1074,TimingClock,'248'
53.1284,TimingClock,'248'
53.1494,TimingClock,'248'
53.1704,TimingClock,'248'
53.1914,TimingClock,'248'
53.2124,TimingClock,'248'
53.2335,TimingClock,'248'
53.2335,NoteOn Channel: 9,'153'
53.2544,TimingClock,'248'
53.2753,TimingClock,'248'
53.2964,TimingClock,'248'
53.3173,TimingClock,'248'
53.3384,TimingClock,'248'
53.3595,TimingClock,'248'
53.3803,TimingClock,'248'
53.4012,TimingClock,'248'
53.4224,TimingClock,'248'
53.4433,TimingClock,'248'
53.4643,TimingClock,'248'
53.4853,TimingClock,'248'
53.5063,TimingClock,'248'
53.5274,TimingClock,'248'
53.5484,TimingClock,'248'
53.5694,TimingClock,'248'
53.5904,TimingClock,'248'
53.6114,TimingClock,'248'
53.6325,TimingClock,'248'
53.6533,TimingClock,'248'
53.6745,TimingClock,'248'
53.6955,TimingClock,'248'
53.7164,TimingClock,'248'
53.7376,TimingClock,'248'
53.7376,NoteOn Channel: 9,'153'
53.7586,TimingClock,'248'
53.7795,TimingClock,'248'
53.8005,TimingClock,'248'
53.8215,TimingClock,'248'
53.8424,TimingClock,'248'
53.8636,TimingClock,'248'
53.8845,TimingClock,'248'
53.9055,TimingClock,'248'
53.9265,TimingClock,'248'
53.9475,TimingClock,'248'
53.9687,TimingClock,'248'
53.9896,TimingClock,'248'
54.0105,TimingClock,'248'
54.0315,TimingClock,'248'
54.0526,TimingClock,'248'
54.0736,TimingClock,'248'
54.0946,TimingClock,'248'
54.1155,TimingClock,'248'
54.1366,TimingClock,'248'
54.1576,TimingClock,'248'
54.1786,TimingClock,'248'
54.1995,TimingClock,'248'
54.2206,TimingClock,'248'
54.2417,TimingClock,'248'
54.2417,NoteOn Channel: 9,'153'
54.2626,TimingClock,'248'
54.2836,TimingClock,'248'
54.3046,TimingClock,'248'
54.3257,TimingClock,'248'
54.3468,TimingClock,'248'
54.3677,TimingClock,'248'
54.3887,TimingClock,'248'
54.4097,TimingClock,'248'
54.4306,TimingClock,'248'
54.4517,TimingClock,'248'
54.4727,TimingClock,'248'
54.4937,TimingClock,'248'
54.5147,TimingClock,'248'
54.5357,TimingClock,'248'
54.5567,TimingClock,'248'
54.5778,TimingClock,'248'
54.5987,TimingClock,'248'
54.6199,TimingClock,'248'
54.6408,TimingClock,'248'
54.6619,TimingClock,'248'
54.6829,TimingClock,'248'
54.704,TimingClock,'248'
54.725,TimingClock,'248'
54.746,TimingClock,'248'
54.746,NoteOn Channel: 9,'153'
54.767,TimingClock,'248'
54.788,TimingClock,'248'
54.809,TimingClock,'248'
54.83,TimingClock,'248'
54.851,TimingClock,'248'
54.8719,TimingClock,'248'
54.893,TimingClock,'248'
54.9138,TimingClock,'248'
54.9349,TimingClock,'248'
54.9558,TimingClock,'248'
54.977,TimingClock,'248'
54.998,TimingClock,'248'
55.019,TimingClock,'248'
55.0399,TimingClock,'248'
55.061,TimingClock,'248'
55.082,TimingClock,'248'
55.103,TimingClock,'248'
55.124,TimingClock,'248'
55.145,TimingClock,'248'
55.166,TimingClock,'248'
55.1872,TimingClock,'248'
55.2081,TimingClock,'248'
55.229,TimingClock,'248'
55.2502,TimingClock,'248'
55.2502,NoteOn Channel: 9,'153'
55.2711,TimingClock,'248'
55.2921,TimingClock,'248'
55.3131,TimingClock,'248'
55.3341,TimingClock,'248'
55.355,TimingClock,'248'
55.3761,TimingClock,'248'
55.3971,TimingClock,'248'
55.4181,TimingClock,'248'
55.4391,TimingClock,'248'
55.4601,TimingClock,'248'
55.481,TimingClock,'248'
55.5021,TimingClock,'248'
55.523,TimingClock,'248'
55.5442,TimingClock,'248'
55.5652,TimingClock,'248'
55.5863,TimingClock,'248'
55.6072,TimingClock,'248'
55.6281,TimingClock,'248'
55.6492,TimingClock,'248'
55.6702,TimingClock,'248'
55.6912,TimingClock,'248'
55.7123,TimingClock,'248'
55.7331,TimingClock,'248'
55.7544,TimingClock,'248'
55.7544,NoteOn Channel: 9,'153'
55.7752,TimingClock,'248'
55.7962,TimingClock,'248'
55.8172,TimingClock,'248'
55.8382,TimingClock,'248'
55.8592,TimingClock,'248'
55.8804,TimingClock,'248'
55.9012,TimingClock,'248'
55.9222,TimingClock,'248'
55.9432,TimingClock,'248'
55.9642,TimingClock,'248'
55.9852,TimingClock,'248'
56.0064,TimingClock,'248'
56.0274,TimingClock,'248'
56.0483,TimingClock,'248'
56.0694,TimingClock,'248'
56.0904,TimingClock,'248'
56.1114,TimingClock,'248'
56.1324,TimingClock,'248'
56.1534,TimingClock,'248'
56.1743,TimingClock,'248'
56.1953,TimingClock,'248'
56.2164,TimingClock,'248'
56.2373,TimingClock,'248'
56.2585,TimingClock,'248'
56.2585,NoteOn Channel: 9,'153'
56.2793,TimingClock,'248'
56.3003,TimingClock,'248'
56.3213,TimingClock,'248'
56.3424,TimingClock,'248'
56.3634,TimingClock,'248'
56.3845,TimingClock,'248'
56.4055,TimingClock,'248'
56.4265,TimingClock,'248'
56.4475,TimingClock,'248'
56.4685,TimingClock,'248'
56.4895,TimingClock,'248'
56.5105,TimingClock,'248'
56.5315,TimingClock,'248'
56.5525,TimingClock,'248'
56.5735,TimingClock,'248'
56.5945,TimingClock,'248'
56.6155,TimingClock,'248'
56.6365,TimingClock,'248'
56.6575,TimingClock,'248'
56.6785,TimingClock,'248'
56.6996,TimingClock,'248'
56.7206,TimingClock,'248'
56.7416,TimingClock,'248'
56.7627,TimingClock,'248'
56.7627,NoteOn Channel: 9,'153'
56.7837,TimingClock,'248'
56.8046,TimingClock,'248'
56.8256,TimingClock,'248'
56.8466,TimingClock,'248'
56.8676,TimingClock,'248'
56.8887,TimingClock,'248'
56.9096,TimingClock,'248'
56.9306,TimingClock,'248'
56.9516,TimingClock,'248'
56.9727,TimingClock,'248'
56.9936,TimingClock,'248'
57.0146,TimingClock,'248'
57.0356,TimingClock,'248'
57.0566,TimingClock,'248'
57.0777,TimingClock,'248'
57.0987,TimingClock,'248'
57.1197,TimingClock,'248'
57.1408,TimingClock,'248'
57.1616,TimingClock,'248'
57.1827,TimingClock,'248'
57.2037,TimingClock,'248'
57.2247,TimingClock,'248'
57.2457,TimingClock,'248'
57.267,TimingClock,'248'
57.267,NoteOn Channel: 9,'153'
57.2878,TimingClock,'248'
57.3086,TimingClock,'248'
57.3299,TimingClock,'248'
57.3509,TimingClock,'248'
57.3719,TimingClock,'248'
57.393,TimingClock,'248'
57.4139,TimingClock,'248'
57.4349,TimingClock,'248'
57.4558,TimingClock,'248'
57.4769,TimingClock,'248'
57.4979,TimingClock,'248'
57.5189,TimingClock,'248'
57.54,TimingClock,'248'
57.561,TimingClock,'248'
57.582,TimingClock,'248'
57.603,TimingClock,'248'
57.6239,TimingClock,'248'
57.645,TimingClock,'248'
57.666,TimingClock,'248'
57.687,TimingClock,'248'
57.708,TimingClock,'248'
57.7289,TimingClock,'248'
57.75,TimingClock,'248'
57.7711,TimingClock,'248'
57.7711,NoteOn Channel: 9,'153'
57.792,TimingClock,'248'
57.813,TimingClock,'248'
57.8338,TimingClock,'248'
57.855,TimingClock,'248'
57.876,TimingClock,'248'
57.8971,TimingClock,'248'
57.918,TimingClock,'248'
57.939,TimingClock,'248'
57.96,TimingClock,'248'
57.9811,TimingClock,'248'
58.0021,TimingClock,'248'
58.0231,TimingClock,'248'
58.0441,TimingClock,'248'
58.0651,TimingClock,'248'
58.0861,TimingClock,'248'
58.1071,TimingClock,'248'
58.1281,TimingClock,'248'
58.1491,TimingClock,'248'
58.1701,TimingClock,'248'
58.1911,TimingClock,'248'
58.2121,TimingClock,'248'
58.2331,TimingClock,'248'
58.2541,TimingClock,'248'
58.2752,TimingClock,'248'
58.2752,NoteOn Channel: 9,'153'
58.2961,TimingClock,'248'
58.3172,TimingClock,'248'
58.3381,TimingClock,'248'
58.3592,TimingClock,'248'
58.3802,TimingClock,'248'
58.4012,TimingClock,'248'
58.4222,TimingClock,'248'
58.4432,TimingClock,'248'
58.4643,TimingClock,'248'
58.4853,TimingClock,'248'
58.5062,TimingClock,'248'
58.5273,TimingClock,'248'
58.5481,TimingClock,'248'
58.5693,TimingClock,'248'
58.5903,TimingClock,'248'
58.6111,TimingClock,'248'
58.6322,TimingClock,'248'
58.6532,TimingClock,'248'
58.6742,TimingClock,'248'
58.6952,TimingClock,'248'
58.7162,TimingClock,'248'
58.7371,TimingClock,'248'
58.7584,TimingClock,'248'
58.7794,TimingClock,'248'
58.7794,NoteOn Channel: 9,'153'
58.8003,TimingClock,'248'
58.8214,TimingClock,'248'
58.8424,TimingClock,'248'
58.8634,TimingClock,'248'
58.8844,TimingClock,'248'
58.9055,TimingClock,'248'
58.9264,TimingClock,'248'
58.9473,TimingClock,'248'
58.9684,TimingClock,'248'
58.9894,TimingClock,'248'
59.0104,TimingClock,'248'
59.0314,TimingClock,'248'
59.0523,TimingClock,'248'
59.0734,TimingClock,'248'
59.0944,TimingClock,'248'
59.1154,TimingClock,'248'
59.1365,TimingClock,'248'
59.1574,TimingClock,'248'
59.1785,TimingClock,'248'
59.1995,TimingClock,'248'
59.2205,TimingClock,'248'
59.2415,TimingClock,'248'
59.2625,TimingClock,'248'
59.2836,TimingClock,'248'
59.2836,NoteOn Channel: 9,'153'
59.3045,TimingClock,'248'
59.3255,TimingClock,'248'
59.3465,TimingClock,'248'
59.3674,TimingClock,'248'
59.3885,TimingClock,'248'
59.4097,TimingClock,'248'
59.4304,TimingClock,'248'
59.4515,TimingClock,'248'
59.4725,TimingClock,'248'
59.4935,TimingClock,'248'
59.5147,TimingClock,'248'
59.5356,TimingClock,'248'
59.5565,TimingClock,'248'
59.5776,TimingClock,'248'
59.5986,TimingClock,'248'
59.6196,TimingClock,'248'
59.6406,TimingClock,'248'
59.6616,TimingClock,'248'
59.6826,TimingClock,'248'
59.7036,TimingClock,'248'
59.7247,TimingClock,'248'
59.7456,TimingClock,'248'
59.7666,TimingClock,'248'
59.7879,TimingClock,'248'
59.7879,NoteOn Channel: 9,'153'
59.8086,TimingClock,'248'
59.8296,TimingClock,'248'
59.8508,TimingClock,'248'
59.8718,TimingClock,'248'
59.8928,TimingClock,'248'
59.9139,TimingClock,'248'
59.9347,TimingClock,'248'
59.9558,TimingClock,'248'
59.9767,TimingClock,'248'
59.9977,TimingClock,'248'
60.0187,TimingClock,'248'
