0,TimingClock,'248'
0.020493,TimingClock,'248'
0.0410187,TimingClock,'248'
0.0614103,TimingClock,'248'
0.0820975,TimingClock,'248'
0.102488,TimingClock,'248'
0.123005,TimingClock,'248'
0.143381,TimingClock,'248'
0.163943,TimingClock,'248'
0.18421,TimingClock,'248'
0.20502,TimingClock,'248'
0.225304,TimingClock,'248'
0.245984,TimingClock,'248'
0.26637,TimingClock,'248'
0.286872,TimingClock,'248'
0.307383,TimingClock,'248'
0.327756,TimingClock,'248'
0.348146,TimingClock,'248'
0.368888,TimingClock,'248'
0.389232,TimingClock,'248'
0.410005,TimingClock,'248'
0.410005,NoteOn Channel: 9,'153'
0.430277,TimingClock,'248'
0.450746,TimingClock,'248'
0.471114,TimingClock,'248'
0.491753,TimingClock,'248'
0.512121,TimingClock,'248'
0.53262,TimingClock,'248'
0.553007,TimingClock,'248'
0.573643,TimingClock,'248'
0.594141,TimingClock,'248'
0.614522,TimingClock,'248'
0.635029,TimingClock,'248'
0.65564,TimingClock,'248'
0.676124,TimingClock,'248'
0.696495,TimingClock,'248'
0.716991,TimingClock,'248'
0.737627,TimingClock,'248'
0.757997,TimingClock,'248'
0.778519,TimingClock,'248'
0.798874,TimingClock,'248'
0.819459,TimingClock,'248'
0.839998,TimingClock,'248'
0.860556,TimingClock,'248'
0.88105,TimingClock,'248'
0.901682,TimingClock,'248'
0.901682,NoteOn Channel: 9,'153'
0.921986,TimingClock,'248'
0.942507,TimingClock,'248'
0.963086,TimingClock,'248'
0.983433,TimingClock,'248'
1.0039,TimingClock,'248'
1.02451,TimingClock,'248'
1.04494,TimingClock,'248'
1.06542,TimingClock,'248'
1.08588,TimingClock,'248'
1.1064,TimingClock,'248'
1.1269,TimingClock,'248'
1.14726,TimingClock,'248'
1.16775,TimingClock,'248'
1.18815,TimingClock,'248'
1.20876,TimingClock,'248'
1.22927,TimingClock,'248'
1.2497,TimingClock,'248'
1.27022,TimingClock,'248'
1.29067,TimingClock,'248'
1.31112,TimingClock,'248'
1.33169,TimingClock,'248'
1.35218,TimingClock,'248'
1.37275,TimingClock,'248'
1.3933,TimingClock,'248'
1.3933,NoteOn Channel: 9,'153'
1.41366,TimingClock,'248'
1.43409,TimingClock,'248'
1.45462,TimingClock,'248'
1.47501,TimingClock,'248'
1.49558,TimingClock,'248'
1.51612,TimingClock,'248'
1.53663,TimingClock,'248'
1.557,TimingClock,'248'
1.57763,TimingClock,'248'
1.59804,TimingClock,'248'
1.6185,TimingClock,'248'
1.63901,TimingClock,'248'
1.65952,TimingClock,'248'
1.67997,TimingClock,'248'
1.70057,TimingClock,'248'
1.721,TimingClock,'248'
1.74151,TimingClock,'248'
1.76203,TimingClock,'248'
1.7825,TimingClock,'248'
1.8029,TimingClock,'248'
1.82351,TimingClock,'248'
1.84401,TimingClock,'248'
1.86437,TimingClock,'248'
1.88506,TimingClock,'248'
1.88506,NoteOn Channel: 9,'153'
1.90538,TimingClock,'248'
1.92587,TimingClock,'248'
1.94629,TimingClock,'248'
1.96682,TimingClock,'248'
1.98726,TimingClock,'248'
2.00798,TimingClock,'248'
2.02827,TimingClock,'248'
2.04865,TimingClock,'248'
2.06926,TimingClock,'248'
2.08976,TimingClock,'248'
2.1102,TimingClock,'248'
2.13077,TimingClock,'248'
2.15126,TimingClock,'248'
2.1717,TimingClock,'248'
2.19212,TimingClock,'248'
2.21281,TimingClock,'248'
2.23314,TimingClock,'248'
2.25352,TimingClock,'248'
2.27415,TimingClock,'248'
2.29462,TimingClock,'248'
2.31514,TimingClock,'248'
2.33565,TimingClock,'248'
2.35616,TimingClock,'248'
2.37677,TimingClock,'248'
2.37677,NoteOn Channel: 9,'153'
2.39701,TimingClock,'248'
2.41751,TimingClock,'248'
2.43801,TimingClock,'248'
2.45838,TimingClock,'248'
2.47888,TimingClock,'248'
2.49958,TimingClock,'248'
2.52005,TimingClock,'248'
2.54056,TimingClock,'248'
2.56101,TimingClock,'248'
2.58151,TimingClock,'248'
2.60206,TimingClock,'248'
2.6225,TimingClock,'248'
2.64301,TimingClock,'248'
2.6634,TimingClock,'248'
2.68389,TimingClock,'248'
2.70427,TimingClock,'248'
2.72488,TimingClock,'248'
2.74538,TimingClock,'248'
2.76588,TimingClock,'248'
2.78627,TimingClock,'248'
2.80685,TimingClock,'248'
2.82725,TimingClock,'248'
2.84787,TimingClock,'248'
2.86838,TimingClock,'248'
2.86838,NoteOn Channel: 9,'153'
2.88875,TimingClock,'248'
2.90919,TimingClock,'248'
2.92965,TimingClock,'248'
2.95026,TimingClock,'248'
2.97076,TimingClock,'248'
2.99116,TimingClock,'248'
3.01179,TimingClock,'248'
3.03198,TimingClock,'248'
3.05256,TimingClock,'248'
3.07312,TimingClock,'248'
3.09361,TimingClock,'248'
3.11405,TimingClock,'248'
3.13464,TimingClock,'248'
3.15512,TimingClock,'248'
3.17563,TimingClock,'248'
3.19602,TimingClock,'248'
3.21662,TimingClock,'248'
3.23701,TimingClock,'248'
3.25763,TimingClock,'248'
3.27798,TimingClock,'248'
3.29857,TimingClock,'248'
3.31901,TimingClock,'248'
3.3395,TimingClock,'248'
3.36014,TimingClock,'248'
3.36014,NoteOn Channel: 9,'153'
3.3805,TimingClock,'248'
3.40104,TimingClock,'248'
3.42155,TimingClock,'248'
3.44203,TimingClock,'248'
3.4624,TimingClock,'248'
3.48306,TimingClock,'248'
3.50339,TimingClock,'248'
3.52389,TimingClock,'248'
3.54437,TimingClock,'248'
3.56485,TimingClock,'248'
3.58536,TimingClock,'248'
3.60583,TimingClock,'248'
3.62623,TimingClock,'248'
3.6469,TimingClock,'248'
3.66718,TimingClock,'248'
3.6879,TimingClock,'248'
3.70825,TimingClock,'248'
3.72875,TimingClock,'248'
3.74926,TimingClock,'248'
3.76973,TimingClock,'248'
3.79017,TimingClock,'248'
3.81075,TimingClock,'248'
3.83113,TimingClock,'248'
3.85181,TimingClock,'248'
3.85181,NoteOn Channel: 9,'153'
3.87214,TimingClock,'248'
3.89262,TimingClock,'248'
3.91312,TimingClock,'248'
3.93359,TimingClock,'248'
3.95412,TimingClock,'248'
3.97475,TimingClock,'248'
3.99514,TimingClock,'248'
4.01564,TimingClock,'248'
4.03601,TimingClock,'248'
4.05664,TimingClock,'248'
4.07701,TimingClock,'248'
4.09741,TimingClock,'248'
4.11798,TimingClock,'248'
4.13858,TimingClock,'248'
4.15906,TimingClock,'248'
4.17951,TimingClock,'248'
4.20003,TimingClock,'248'
4.22036,TimingClock,'248'
4.24101,TimingClock,'248'
4.26151,TimingClock,'248'
4.28201,TimingClock,'248'
4.30251,TimingClock,'248'
4.32289,TimingClock,'248'
4.34351,TimingClock,'248'
4.34351,NoteOn Channel: 9,'153'
4.36389,TimingClock,'248'
4.3844,TimingClock,'248'
4.40488,TimingClock,'248'
4.42526,TimingClock,'248'
4.44588,TimingClock,'248'
4.4664,TimingClock,'248'
4.48675,TimingClock,'248'
4.50728,TimingClock,'248'
4.52775,TimingClock,'248'
4.54812,TimingClock,'248'
4.56881,TimingClock,'248'
4.58925,TimingClock,'248'
4.60976,TimingClock,'248'
4.63027,TimingClock,'248'
4.65077,TimingClock,'248'
4.67117,TimingClock,'248'
4.69176,TimingClock,'248'
4.71215,TimingClock,'248'
4.73264,TimingClock,'248'
4.75317,TimingClock,'248'
4.77367,TimingClock,'248'
4.79415,TimingClock,'248'
4.81463,TimingClock,'248'
4.83513,TimingClock,'248'
4.83513,NoteOn Channel: 9,'153'
4.8557,TimingClock,'248'
4.876,TimingClock,'248'
4.89652,TimingClock,'248'
4.91699,TimingClock,'248'
4.93749,TimingClock,'248'
4.95815,TimingClock,'248'
4.97853,TimingClock,'248'
4.99905,TimingClock,'248'
5.0194,TimingClock,'248'
5.04,TimingClock,'248'
5.06052,TimingClock,'248'
5.08102,TimingClock,'248'
5.10151,TimingClock,'248'
5.122,TimingClock,'248'
5.14239,TimingClock,'248'
5.16287,TimingClock,'248'
5.18337,TimingClock,'248'
5.20388,TimingClock,'248'
5.22437,TimingClock,'248'
5.24486,TimingClock,'248'
5.26536,TimingClock,'248'
5.28586,TimingClock,'248'
5.30624,TimingClock,'248'
5.32702,TimingClock,'248'
5.32702,NoteOn Channel: 9,'153'
5.34725,TimingClock,'248'
5.36776,TimingClock,'248'
5.38827,TimingClock,'248'
5.4088,TimingClock,'248'
5.42926,TimingClock,'248'
5.44982,TimingClock,'248'
5.47019,TimingClock,'248'
5.49075,TimingClock,'248'
5.51099,TimingClock,'248'
5.53166,TimingClock,'248'
5.55219,TimingClock,'248'
5.57263,TimingClock,'248'
5.59299,TimingClock,'248'
5.61363,TimingClock,'248'
5.63413,TimingClock,'248'
5.65462,TimingClock,'248'
5.67508,TimingClock,'248'
5.69563,TimingClock,'248'
5.71599,TimingClock,'248'
5.73663,TimingClock,'248'
5.75703,TimingClock,'248'
5.77752,TimingClock,'248'
5.798,TimingClock,'248'
5.81864,TimingClock,'248'
5.81864,NoteOn Channel: 9,'153'
5.839,TimingClock,'248'
5.85951,TimingClock,'248'
5.88005,TimingClock,'248'
5.90056,TimingClock,'248'
5.92099,TimingClock,'248'
5.94152,TimingClock,'248'
5.96189,TimingClock,'248'
5.98238,TimingClock,'248'
6.0029,TimingClock,'248'
6.02339,TimingClock,'248'
6.04388,TimingClock,'248'
6.06434,TimingClock,'248'
6.08465,TimingClock,'248'
6.10538,TimingClock,'248'
6.12579,TimingClock,'248'
6.14627,TimingClock,'248'
6.16675,TimingClock,'248'
6.18726,TimingClock,'248'
6.20775,TimingClock,'248'
6.22811,TimingClock,'248'
6.24863,TimingClock,'248'
6.26926,TimingClock,'248'
6.28975,TimingClock,'248'
6.31038,TimingClock,'248'
6.31038,NoteOn Channel: 9,'153'
6.33066,TimingClock,'248'
6.35101,TimingClock,'248'
6.37149,TimingClock,'248'
6.39213,TimingClock,'248'
6.41264,TimingClock,'248'
6.43315,TimingClock,'248'
6.45349,TimingClock,'248'
6.47413,TimingClock,'248'
6.49452,TimingClock,'248'
6.51494,TimingClock,'248'
6.53558,TimingClock,'248'
6.55602,TimingClock,'248'
6.57651,TimingClock,'248'
6.597,TimingClock,'248'
6.61738,TimingClock,'248'
6.63795,TimingClock,'248'
6.65851,TimingClock,'248'
6.679,TimingClock,'248'
6.69953,TimingClock,'248'
6.72008,TimingClock,'248'
6.74056,TimingClock,'248'
6.761,TimingClock,'248'
6.78152,TimingClock,'248'
6.80202,TimingClock,'248'
6.80202,NoteOn Channel: 9,'153'
6.82238,TimingClock,'248'
6.84288,TimingClock,'248'
6.8633,TimingClock,'248'
6.8839,TimingClock,'248'
6.90438,TimingClock,'248'
6.92488,TimingClock,'248'
6.94541,TimingClock,'248'
6.96575,TimingClock,'248'
6.98614,TimingClock,'248'
7.00676,TimingClock,'248'
7.02723,TimingClock,'248'
7.04785,TimingClock,'248'
7.06815,TimingClock,'248'
7.08865,TimingClock,'248'
7.10931,TimingClock,'248'
7.12976,TimingClock,'248'
7.15013,TimingClock,'248'
7.17076,TimingClock,'248'
7.19114,TimingClock,'248'
7.21163,TimingClock,'248'
7.23213,TimingClock,'248'
7.25268,TimingClock,'248'
7.27312,TimingClock,'248'
7.29361,TimingClock,'248'
7.29361,NoteOn Channel: 9,'153'
7.31403,TimingClock,'248'
7.33467,TimingClock,'248'
7.355,TimingClock,'248'
7.37562,TimingClock,'248'
7.39599,TimingClock,'248'
7.41664,TimingClock,'248'
7.43702,TimingClock,'248'
7.45752,TimingClock,'248'
7.478,TimingClock,'248'
7.49854,TimingClock,'248'
7.519,TimingClock,'248'
7.5395,TimingClock,'248'
7.55993,TimingClock,'248'
7.58051,TimingClock,'248'
7.60083,TimingClock,'248'
7.6214,TimingClock,'248'
7.64188,TimingClock,'248'
7.66234,TimingClock,'248'
7.68288,TimingClock,'248'
7.70338,TimingClock,'248'
7.72374,TimingClock,'248'
7.74439,TimingClock,'248'
7.76475,TimingClock,'248'
7.78551,TimingClock,'248'
7.78551,NoteOn Channel: 9,'153'
7.80576,TimingClock,'248'
7.82625,TimingClock,'248'
7.84675,TimingClock,'248'
7.86714,TimingClock,'248'
7.8877,TimingClock,'248'
7.90844,TimingClock,'248'
7.92882,TimingClock,'248'
7.94914,TimingClock,'248'
7.96964,TimingClock,'248'
7.99014,TimingClock,'248'
8.01063,TimingClock,'248'
8.03112,TimingClock,'248'
8.05163,TimingClock,'248'
8.07209,TimingClock,'248'
8.09271,TimingClock,'248'
8.11313,TimingClock,'248'
8.13349,TimingClock,'248'
8.15417,TimingClock,'248'
8.17463,TimingClock,'248'
8.19506,TimingClock,'248'
8.21564,TimingClock,'248'
8.23593,TimingClock,'248'
8.25652,TimingClock,'248'
8.27721,TimingClock,'248'
8.27721,NoteOn Channel: 9,'153'
8.2975,TimingClock,'248'
8.31797,TimingClock,'248'
8.3385,TimingClock,'248'
8.359,TimingClock,'248'
8.37943,TimingClock,'248'
8.39999,TimingClock,'248'
8.42034,TimingClock,'248'
8.44078,TimingClock,'248'
8.46133,TimingClock,'248'
8.48185,TimingClock,'248'
8.50237,TimingClock,'248'
8.5228,TimingClock,'248'
8.54337,TimingClock,'248'
8.56377,TimingClock,'248'
8.58428,TimingClock,'248'
8.60472,TimingClock,'248'
8.62527,TimingClock,'248'
8.64563,TimingClock,'248'
8.66626,TimingClock,'248'
8.68674,TimingClock,'248'
8.70725,TimingClock,'248'
8.72775,TimingClock,'248'
8.74813,TimingClock,'248'
8.76892,TimingClock,'248'
8.76892,NoteOn Channel: 9,'153'
8.78912,TimingClock,'248'
8.80976,TimingClock,'248'
8.83014,TimingClock,'248'
8.85058,TimingClock,'248'
8.87103,TimingClock,'248'
8.89184,TimingClock,'248'
8.91214,TimingClock,'248'
8.93264,TimingClock,'248'
8.95302,TimingClock,'248'
8.97366,TimingClock,'248'
8.99406,TimingClock,'248'
9.01464,TimingClock,'248'
9.03499,TimingClock,'248'
9.05552,TimingClock,'248'
9.07602,TimingClock,'248'
9.09638,TimingClock,'248'
9.11702,TimingClock,'248'
9.13748,TimingClock,'248'
9.15792,TimingClock,'248'
9.17838,TimingClock,'248'
9.19892,TimingClock,'248'
9.21944,TimingClock,'248'
9.23993,TimingClock,'248'
9.26052,TimingClock,'248'
9.26052,NoteOn Channel: 9,'153'
9.2809,TimingClock,'248'
9.30139,TimingClock,'248'
9.32186,TimingClock,'248'
9.34237,TimingClock,'248'
9.36288,TimingClock,'248'
9.38351,TimingClock,'248'
9.40375,TimingClock,'248'
9.42427,TimingClock,'248'
9.44475,TimingClock,'248'
9.46536,TimingClock,'248'
9.48583,TimingClock,'248'
9.50626,TimingClock,'248'
9.52681,TimingClock,'248'
9.54719,TimingClock,'248'
9.56767,TimingClock,'248'
9.58816,TimingClock,'248'
9.60871,TimingClock,'248'
9.62908,TimingClock,'248'
9.64977,TimingClock,'248'
9.67005,TimingClock,'248'
9.69064,TimingClock,'248'
9.71113,TimingClock,'248'
9.73163,TimingClock,'248'
9.75228,TimingClock,'248'
9.75228,NoteOn Channel: 9,'153'
9.77265,TimingClock,'248'
9.79292,TimingClock,'248'
9.81365,TimingClock,'248'
9.83401,TimingClock,'248'
9.85462,TimingClock,'248'
9.87506,TimingClock,'248'
9.89548,TimingClock,'248'
9.91601,TimingClock,'248'
9.93651,TimingClock,'248'
9.957,TimingClock,'248'
9.9775,TimingClock,'248'
9.99805,TimingClock,'248'
10.0185,TimingClock,'248'
10.039,TimingClock,'248'
10.0595,TimingClock,'248'
10.08,TimingClock,'248'
10.1004,TimingClock,'248'
10.1209,TimingClock,'248'
10.1414,TimingClock,'248'
10.1619,TimingClock,'248'
10.1824,TimingClock,'248'
10.2029,TimingClock,'248'
10.2234,TimingClock,'248'
10.244,TimingClock,'248'
10.244,NoteOn Channel: 9,'153'
10.2644,TimingClock,'248'
10.2848,TimingClock,'248'
10.3053,TimingClock,'248'
10.3258,TimingClock,'248'
10.3462,TimingClock,'248'
10.3668,TimingClock,'248'
10.3872,TimingClock,'248'
10.4078,TimingClock,'248'
10.4281,TimingClock,'248'
10.4488,TimingClock,'248'
10.4691,TimingClock,'248'
10.4897,TimingClock,'248'
10.5102,TimingClock,'248'
10.5306,TimingClock,'248'
10.5512,TimingClock,'248'
10.5717,TimingClock,'248'
10.592,TimingClock,'248'
10.6126,TimingClock,'248'
10.6331,TimingClock,'248'
10.6536,TimingClock,'248'
10.674,TimingClock,'248'
10.6945,TimingClock,'248'
10.715,TimingClock,'248'
10.7356,TimingClock,'248'
10.7356,NoteOn Channel: 9,'153'
10.756,TimingClock,'248'
10.7764,TimingClock,'248'
10.797,TimingClock,'248'
10.8175,TimingClock,'248'
10.838,TimingClock,'248'
10.8584,TimingClock,'248'
10.8789,TimingClock,'248'
10.8995,TimingClock,'248'
10.9199,TimingClock,'248'
10.9404,TimingClock,'248'
10.9609,TimingClock,'248'
10.9814,TimingClock,'248'
11.002,TimingClock,'248'
11.0224,TimingClock,'248'
11.0428,TimingClock,'248'
11.0634,TimingClock,'248'
11.0837,TimingClock,'248'
11.1044,TimingClock,'248'
11.1248,TimingClock,'248'
11.1452,TimingClock,'248'
11.1658,TimingClock,'248'
11.1863,TimingClock,'248'
11.2066,TimingClock,'248'
11.2273,TimingClock,'248'
11.2273,NoteOn Channel: 9,'153'
11.2476,TimingClock,'248'
11.2681,TimingClock,'248'
11.2887,TimingClock,'248'
11.3091,TimingClock,'248'
11.3296,TimingClock,'248'
11.3503,TimingClock,'248'
11.3706,TimingClock,'248'
11.391,TimingClock,'248'
11.4116,TimingClock,'248'
11.4321,TimingClock,'248'
11.4526,TimingClock,'248'
11.473,TimingClock,'248'
11.4937,TimingClock,'248'
11.5139,TimingClock,'248'
11.5345,TimingClock,'248'
11.555,TimingClock,'248'
11.5755,TimingClock,'248'
11.596,TimingClock,'248'
11.6165,TimingClock,'248'
11.637,TimingClock,'248'
11.6575,TimingClock,'248'
11.678,TimingClock,'248'
11.6986,TimingClock,'248'
11.719,TimingClock,'248'
11.719,NoteOn Channel: 9,'153'
11.7394,TimingClock,'248'
11.7599,TimingClock,'248'
11.7803,TimingClock,'248'
11.801,TimingClock,'248'
11.8213,TimingClock,'248'
11.842,TimingClock,'248'
11.8622,TimingClock,'248'
11.8827,TimingClock,'248'
11.9034,TimingClock,'248'
11.9238,TimingClock,'248'
11.9442,TimingClock,'248'
11.9647,TimingClock,'248'
11.9853,TimingClock,'248'
12.0058,TimingClock,'248'
12.0263,TimingClock,'248'
12.0468,TimingClock,'248'
12.0671,TimingClock,'248'
12.0878,TimingClock,'248'
12.1083,TimingClock,'248'
12.1287,TimingClock,'248'
12.1492,TimingClock,'248'
12.1695,TimingClock,'248'
12.1901,TimingClock,'248'
12.2106,TimingClock,'248'
12.2106,NoteOn Channel: 9,'153'
12.2311,TimingClock,'248'
12.2516,TimingClock,'248'
12.2721,TimingClock,'248'
12.2926,TimingClock,'248'
12.313,TimingClock,'248'
12.3337,TimingClock,'248'
12.3541,TimingClock,'248'
12.3745,TimingClock,'248'
12.395,TimingClock,'248'
12.4155,TimingClock,'248'
12.4359,TimingClock,'248'
12.4565,TimingClock,'248'
12.477,TimingClock,'248'
12.4975,TimingClock,'248'
12.518,TimingClock,'248'
12.5385,TimingClock,'248'
12.559,TimingClock,'248'
12.5793,TimingClock,'248'
12.5998,TimingClock,'248'
12.6204,TimingClock,'248'
12.6409,TimingClock,'248'
12.6614,TimingClock,'248'
12.6819,TimingClock,'248'
12.7025,TimingClock,'248'
12.7025,NoteOn Channel: 9,'153'
12.7228,TimingClock,'248'
12.7434,TimingClock,'248'
12.7638,TimingClock,'248'
12.7843,TimingClock,'248'
12.8047,TimingClock,'248'
12.8252,TimingClock,'248'
12.8457,TimingClock,'248'
12.8662,TimingClock,'248'
12.8868,TimingClock,'248'
12.9072,TimingClock,'248'
12.9276,TimingClock,'248'
12.9483,TimingClock,'248'
12.9686,TimingClock,'248'
12.989,TimingClock,'248'
13.0096,TimingClock,'248'
13.0301,TimingClock,'248'
13.0507,TimingClock,'248'
13.0712,TimingClock,'248'
13.0916,TimingClock,'248'
13.1121,TimingClock,'248'
13.1326,TimingClock,'248'
13.153,TimingClock,'248'
13.1736,TimingClock,'248'
13.1941,TimingClock,'248'
13.1941,NoteOn Channel: 9,'153'
13.2145,TimingClock,'248'
13.235,TimingClock,'248'
13.2555,TimingClock,'248'
13.276,TimingClock,'248'
13.2965,TimingClock,'248'
13.317,TimingClock,'248'
13.3375,TimingClock,'248'
13.358,TimingClock,'248'
13.3784,TimingClock,'248'
13.3989,TimingClock,'248'
13.4195,TimingClock,'248'
13.4399,TimingClock,'248'
13.4604,TimingClock,'248'
13.4809,TimingClock,'248'
13.5014,TimingClock,'248'
13.5217,TimingClock,'248'
13.5424,TimingClock,'248'
13.5627,TimingClock,'248'
13.5834,TimingClock,'248'
13.6038,TimingClock,'248'
13.6243,TimingClock,'248'
13.6447,TimingClock,'248'
13.6653,TimingClock,'248'
13.6859,TimingClock,'248'
13.6859,NoteOn Channel: 9,'153'
13.7063,TimingClock,'248'
13.7266,TimingClock,'248'
13.7473,TimingClock,'248'
13.7677,TimingClock,'248'
13.788,TimingClock,'248'
13.8088,TimingClock,'248'
13.8291,TimingClock,'248'
13.8496,TimingClock,'248'
13.8701,TimingClock,'248'
13.8907,TimingClock,'248'
13.911,TimingClock,'248'
13.9317,TimingClock,'248'
13.952,TimingClock,'248'
13.9726,TimingClock,'248'
13.993,TimingClock,'248'
14.0135,TimingClock,'248'
14.034,TimingClock,'248'
14.0545,TimingClock,'248'
14.075,TimingClock,'248'
14.0956,TimingClock,'248'
14.116,TimingClock,'248'
14.1365,TimingClock,'248'
14.157,TimingClock,'248'
14.1776,TimingClock,'248'
14.1776,NoteOn Channel: 9,'153'
14.1979,TimingClock,'248'
14.2183,TimingClock,'248'
14.2389,TimingClock,'248'
14.2594,TimingClock,'248'
14.2799,TimingClock,'248'
14.3005,TimingClock,'248'
14.3207,TimingClock,'248'
14.3414,TimingClock,'248'
14.3618,TimingClock,'248'
14.3824,TimingClock,'248'
14.4028,TimingClock,'248'
14.4234,TimingClock,'248'
14.4437,TimingClock,'248'
14.4643,TimingClock,'248'
14.4846,TimingClock,'248'
14.5053,TimingClock,'248'
14.5257,TimingClock,'248'
14.5463,TimingClock,'248'
14.5667,TimingClock,'248'
14.5872,TimingClock,'248'
14.6076,TimingClock,'248'
14.6282,TimingClock,'248'
14.6487,TimingClock,'248'
14.6693,TimingClock,'248'
14.6693,NoteOn Channel: 9,'153'
14.6896,TimingClock,'248'
14.7102,TimingClock,'248'
14.7306,TimingClock,'248'
14.751,TimingClock,'248'
14.7716,TimingClock,'248'
14.7922,TimingClock,'248'
14.8126,TimingClock,'248'
14.833,TimingClock,'248'
14.8535,TimingClock,'248'
14.8739,TimingClock,'248'
14.8945,TimingClock,'248'
14.915,TimingClock,'248'
14.9354,TimingClock,'248'
14.956,TimingClock,'248'
14.9765,TimingClock,'248'
14.9971,TimingClock,'248'
15.0175,TimingClock,'248'
15.038,TimingClock,'248'
15.0584,TimingClock,'248'
15.0789,TimingClock,'248'
15.0994,TimingClock,'248'
15.1199,TimingClock,'248'
15.1403,TimingClock,'248'
15.1611,TimingClock,'248'
15.1611,NoteOn Channel: 9,'153'
15.1814,TimingClock,'248'
15.2018,TimingClock,'248'
15.2224,TimingClock,'248'
15.2427,TimingClock,'248'
15.2632,TimingClock,'248'
15.2839,TimingClock,'248'
15.3043,TimingClock,'248'
15.3247,TimingClock,'248'
15.3451,TimingClock,'248'
15.3655,TimingClock,'248'
15.3861,TimingClock,'248'
15.4065,TimingClock,'248'
15.4272,TimingClock,'248'
15.4475,TimingClock,'248'
15.468,TimingClock,'248'
15.4886,TimingClock,'248'
15.5091,TimingClock,'248'
15.5295,TimingClock,'248'
15.5501,TimingClock,'248'
15.5706,TimingClock,'248'
15.5911,TimingClock,'248'
15.6115,TimingClock,'248'
15.6319,TimingClock,'248'
15.6525,TimingClock,'248'
15.6525,NoteOn Channel: 9,'153'
15.6729,TimingClock,'248'
15.6934,TimingClock,'248'
15.714,TimingClock,'248'
15.7345,TimingClock,'248'
15.755,TimingClock,'248'
15.7756,TimingClock,'248'
15.796,TimingClock,'248'
15.8165,TimingClock,'248'
15.837,TimingClock,'248'
15.8575,TimingClock,'248'
15.8779,TimingClock,'248'
15.8984,TimingClock,'248'
15.9189,TimingClock,'248'
15.9394,TimingClock,'248'
15.9599,TimingClock,'248'
15.9804,TimingClock,'248'
16.0008,TimingClock,'248'
16.0214,TimingClock,'248'
16.0418,TimingClock,'248'
16.0624,TimingClock,'248'
16.0827,TimingClock,'248'
16.1033,TimingClock,'248'
16.1238,TimingClock,'248'
16.1444,TimingClock,'248'
16.1444,NoteOn Channel: 9,'153'
16.1646,TimingClock,'248'
16.1853,TimingClock,'248'
16.2056,TimingClock,'248'
16.2262,TimingClock,'248'
16.2466,TimingClock,'248'
16.2673,TimingClock,'248'
16.2876,TimingClock,'248'
16.3081,TimingClock,'248'
16.3285,TimingClock,'248'
16.3492,TimingClock,'248'
16.3696,TimingClock,'248'
16.3901,TimingClock,'248'
16.4106,TimingClock,'248'
16.431,TimingClock,'248'
16.4516,TimingClock,'248'
16.472,TimingClock,'248'
16.4925,TimingClock,'248'
16.513,TimingClock,'248'
16.5335,TimingClock,'248'
16.554,TimingClock,'248'
16.5745,TimingClock,'248'
16.595,TimingClock,'248'
16.6155,TimingClock,'248'
16.636,TimingClock,'248'
16.636,NoteOn Channel: 9,'153'
16.6565,TimingClock,'248'
16.677,TimingClock,'248'
16.6974,TimingClock,'248'
16.7179,TimingClock,'248'
16.7382,TimingClock,'248'
16.7589,TimingClock,'248'
16.7794,TimingClock,'248'
16.7999,TimingClock,'248'
16.8204,TimingClock,'248'
16.8407,TimingClock,'248'
16.8614,TimingClock,'248'
16.8818,TimingClock,'248'
16.9023,TimingClock,'248'
16.9227,TimingClock,'248'
16.9433,TimingClock,'248'
16.9638,TimingClock,'248'
16.9841,TimingClock,'248'
17.0048,TimingClock,'248'
17.0253,TimingClock,'248'
17.0456,TimingClock,'248'
17.0663,TimingClock,'248'
17.0866,TimingClock,'248'
17.1073,TimingClock,'248'
17.1276,TimingClock,'248'
17.1276,NoteOn Channel: 9,'153'
17.1481,TimingClock,'248'
17.1687,TimingClock,'248'
17.1891,TimingClock,'248'
17.2096,TimingClock,'248'
17.23,TimingClock,'248'
17.2505,TimingClock,'248'
17.2709,TimingClock,'248'
17.2915,TimingClock,'248'
17.312,TimingClock,'248'
17.3325,TimingClock,'248'
17.3529,TimingClock,'248'
17.3734,TimingClock,'248'
17.3941,TimingClock,'248'
17.4145,TimingClock,'248'
17.4349,TimingClock,'248'
17.4555,TimingClock,'248'
17.476,TimingClock,'248'
17.4965,TimingClock,'248'
17.517,TimingClock,'248'
17.5374,TimingClock,'248'
17.5579,TimingClock,'248'
17.5784,TimingClock,'248'
17.5989,TimingClock,'248'
17.6194,TimingClock,'248'
17.6194,NoteOn Channel: 9,'153'
17.6398,TimingClock,'248'
17.6604,TimingClock,'248'
17.6808,TimingClock,'248'
17.7014,TimingClock,'248'
17.7218,TimingClock,'248'
17.7424,TimingClock,'248'
17.7628,TimingClock,'248'
17.7833,TimingClock,'248'
17.8038,TimingClock,'248'
17.8243,TimingClock,'248'
17.8447,TimingClock,'248'
17.8653,TimingClock,'248'
17.8857,TimingClock,'248'
17.9063,TimingClock,'248'
17.9267,TimingClock,'248'
17.9471,TimingClock,'248'
17.9676,TimingClock,'248'
17.9881,TimingClock,'248'
18.0087,TimingClock,'248'
18.0291,TimingClock,'248'
18.0495,TimingClock,'248'
18.0701,TimingClock,'248'
18.0904,TimingClock,'248'
18.1112,TimingClock,'248'
18.1112,NoteOn Channel: 9,'153'
18.1315,TimingClock,'248'
18.1519,TimingClock,'248'
18.1725,TimingClock,'248'
18.193,TimingClock,'248'
18.2135,TimingClock,'248'
18.2341,TimingClock,'248'
18.2544,TimingClock,'248'
18.275,TimingClock,'248'
18.2955,TimingClock,'248'
18.316,TimingClock,'248'
18.3365,TimingClock,'248'
18.3568,TimingClock,'248'
18.3774,TimingClock,'248'
18.3978,TimingClock,'248'
18.4184,TimingClock,'248'
18.4389,TimingClock,'248'
18.4594,TimingClock,'248'
18.4798,TimingClock,'248'
18.5004,TimingClock,'248'
18.5207,TimingClock,'248'
18.5414,TimingClock,'248'
18.5618,TimingClock,'248'
18.5821,TimingClock,'248'
18.6029,TimingClock,'248'
18.6029,NoteOn Channel: 9,'153'
18.6233,TimingClock,'248'
18.6437,TimingClock,'248'
18.6643,TimingClock,'248'
18.6847,TimingClock,'248'
18.7053,TimingClock,'248'
18.7258,TimingClock,'248'
18.7461,TimingClock,'248'
18.7667,TimingClock,'248'
18.7871,TimingClock,'248'
18.8076,TimingClock,'248'
18.8281,TimingClock,'248'
18.8486,TimingClock,'248'
18.8691,TimingClock,'248'
18.8895,TimingClock,'248'
18.91,TimingClock,'248'
18.9305,TimingClock,'248'
18.951,TimingClock,'248'
18.9715,TimingClock,'248'
18.992,TimingClock,'248'
19.0125,TimingClock,'248'
19.033,TimingClock,'248'
19.0535,TimingClock,'248'
19.074,TimingClock,'248'
19.0946,TimingClock,'248'
19.0946,NoteOn Channel: 9,'153'
19.115,TimingClock,'248'
19.1356,TimingClock,'248'
19.156,TimingClock,'248'
19.1764,TimingClock,'248'
19.1968,TimingClock,'248'
19.2175,TimingClock,'248'
19.2379,TimingClock,'248'
19.2584,TimingClock,'248'
19.2789,TimingClock,'248'
19.2994,TimingClock,'248'
19.3196,TimingClock,'248'
19.3404,TimingClock,'248'
19.3608,TimingClock,'248'
19.3813,TimingClock,'248'
19.4018,TimingClock,'248'
19.4222,TimingClock,'248'
19.4427,TimingClock,'248'
19.4633,TimingClock,'248'
19.4838,TimingClock,'248'
19.5043,TimingClock,'248'
19.5246,TimingClock,'248'
19.5453,TimingClock,'248'
19.5656,TimingClock,'248'
19.5861,TimingClock,'248'
19.5861,NoteOn Channel: 9,'153'
19.6066,TimingClock,'248'
19.6271,TimingClock,'248'
19.6476,TimingClock,'248'
19.6681,TimingClock,'248'
19.6886,TimingClock,'248'
19.7093,TimingClock,'248'
19.7295,TimingClock,'248'
19.7501,TimingClock,'248'
19.7705,TimingClock,'248'
19.791,TimingClock,'248'
19.8115,TimingClock,'248'
19.832,TimingClock,'248'
19.8526,TimingClock,'248'
19.873,TimingClock,'248'
19.8935,TimingClock,'248'
19.914,TimingClock,'248'
19.9346,TimingClock,'248'
19.955,TimingClock,'248'
19.9754,TimingClock,'248'
19.996,TimingClock,'248'
20.0164,TimingClock,'248'
20.0369,TimingClock,'248'
20.0574,TimingClock,'248'
20.078,TimingClock,'248'
20.078,NoteOn Channel: 9,'153'
20.0984,TimingClock,'248'
20.1188,TimingClock,'248'
20.1394,TimingClock,'248'
20.1597,TimingClock,'248'
20.1804,TimingClock,'248'
20.2008,TimingClock,'248'
20.2213,TimingClock,'248'
20.2418,TimingClock,'248'
20.2623,TimingClock,'248'
20.2828,TimingClock,'248'
20.3032,TimingClock,'248'
20.3237,TimingClock,'248'
20.3443,TimingClock,'248'
20.3646,TimingClock,'248'
20.3853,TimingClock,'248'
20.4056,TimingClock,'248'
20.4261,TimingClock,'248'
20.4466,TimingClock,'248'
20.4671,TimingClock,'248'
20.4876,TimingClock,'248'
20.5082,TimingClock,'248'
20.5287,TimingClock,'248'
20.5491,TimingClock,'248'
20.5696,TimingClock,'248'
20.5696,NoteOn Channel: 9,'153'
20.5901,TimingClock,'248'
20.6105,TimingClock,'248'
20.631,TimingClock,'248'
20.6515,TimingClock,'248'
20.672,TimingClock,'248'
20.6927,TimingClock,'248'
20.713,TimingClock,'248'
20.7335,TimingClock,'248'
20.754,TimingClock,'248'
20.7745,TimingClock,'248'
20.795,TimingClock,'248'
20.8155,TimingClock,'248'
20.8357,TimingClock,'248'
20.8563,TimingClock,'248'
20.8769,TimingClock,'248'
20.8974,TimingClock,'248'
20.9179,TimingClock,'248'
20.9384,TimingClock,'248'
20.9589,TimingClock,'248'
20.9794,TimingClock,'248'
20.9997,TimingClock,'248'
21.0204,TimingClock,'248'
21.0408,TimingClock,'248'
21.0614,TimingClock,'248'
21.0614,NoteOn Channel: 9,'153'
21.0818,TimingClock,'248'
21.1023,TimingClock,'248'
21.1228,TimingClock,'248'
21.1433,TimingClock,'248'
21.1637,TimingClock,'248'
21.1843,TimingClock,'248'
21.2046,TimingClock,'248'
21.2253,TimingClock,'248'
21.2456,TimingClock,'248'
21.2661,TimingClock,'248'
21.2866,TimingClock,'248'
21.3071,TimingClock,'248'
21.3275,TimingClock,'248'
21.3482,TimingClock,'248'
21.3686,TimingClock,'248'
21.3891,TimingClock,'248'
21.4094,TimingClock,'248'
21.4302,TimingClock,'248'
21.4506,TimingClock,'248'
21.471,TimingClock,'248'
21.4916,TimingClock,'248'
21.512,TimingClock,'248'
21.5325,TimingClock,'248'
21.553,TimingClock,'248'
21.553,NoteOn Channel: 9,'153'
21.5735,TimingClock,'248'
21.594,TimingClock,'248'
21.6145,TimingClock,'248'
21.635,TimingClock,'248'
21.6554,TimingClock,'248'
21.676,TimingClock,'248'
21.6963,TimingClock,'248'
21.7169,TimingClock,'248'
21.7374,TimingClock,'248'
21.7579,TimingClock,'248'
21.7783,TimingClock,'248'
21.7988,TimingClock,'248'
21.8194,TimingClock,'248'
21.8398,TimingClock,'248'
21.8604,TimingClock,'248'
21.8806,TimingClock,'248'
21.9013,TimingClock,'248'
21.9217,TimingClock,'248'
21.9423,TimingClock,'248'
21.9628,TimingClock,'248'
21.9833,TimingClock,'248'
22.0036,TimingClock,'248'
22.0243,TimingClock,'248'
22.0448,TimingClock,'248'
22.0448,NoteOn Channel: 9,'153'
22.0651,TimingClock,'248'
22.0856,TimingClock,'248'
22.1061,TimingClock,'248'
22.1267,TimingClock,'248'
22.1471,TimingClock,'248'
22.1676,TimingClock,'248'
22.1881,TimingClock,'248'
22.2085,TimingClock,'248'
22.229,TimingClock,'248'
22.2494,TimingClock,'248'
22.27,TimingClock,'248'
22.2906,TimingClock,'248'
22.311,TimingClock,'248'
22.3315,TimingClock,'248'
22.352,TimingClock,'248'
22.3726,TimingClock,'248'
22.393,TimingClock,'248'
22.4135,TimingClock,'248'
22.434,TimingClock,'248'
22.4545,TimingClock,'248'
22.475,TimingClock,'248'
22.4954,TimingClock,'248'
22.5159,TimingClock,'248'
22.5365,TimingClock,'248'
22.5365,NoteOn Channel: 9,'153'
22.5569,TimingClock,'248'
22.5774,TimingClock,'248'
22.5977,TimingClock,'248'
22.6182,TimingClock,'248'
22.6388,TimingClock,'248'
22.6594,TimingClock,'248'
22.6798,TimingClock,'248'
22.7003,TimingClock,'248'
22.7208,TimingClock,'248'
22.7413,TimingClock,'248'
22.7618,TimingClock,'248'
22.7823,TimingClock,'248'
22.8028,TimingClock,'248'
22.8233,TimingClock,'248'
22.8436,TimingClock,'248'
22.8643,TimingClock,'248'
22.8847,TimingClock,'248'
22.9054,TimingClock,'248'
22.9257,TimingClock,'248'
22.9461,TimingClock,'248'
22.9666,TimingClock,'248'
22.9872,TimingClock,'248'
23.0076,TimingClock,'248'
23.0283,TimingClock,'248'
23.0283,NoteOn Channel: 9,'153'
23.0485,TimingClock,'248'
23.0691,TimingClock,'248'
23.0894,TimingClock,'248'
23.11,TimingClock,'248'
23.1305,TimingClock,'248'
23.1511,TimingClock,'248'
23.1715,TimingClock,'248'
23.1921,TimingClock,'248'
23.2125,TimingClock,'248'
23.233,TimingClock,'248'
23.2535,TimingClock,'248'
23.274,TimingClock,'248'
23.2944,TimingClock,'248'
23.3149,TimingClock,'248'
23.3353,TimingClock,'248'
23.3559,TimingClock,'248'
23.3764,TimingClock,'248'
23.3969,TimingClock,'248'
23.4174,TimingClock,'248'
23.4379,TimingClock,'248'
23.4584,TimingClock,'248'
23.4788,TimingClock,'248'
23.4994,TimingClock,'248'
23.5199,TimingClock,'248'
23.5199,NoteOn Channel: 9,'153'
23.5402,TimingClock,'248'
23.5608,TimingClock,'248'
23.5813,TimingClock,'248'
23.6018,TimingClock,'248'
23.6223,TimingClock,'248'
23.6428,TimingClock,'248'
23.6633,TimingClock,'248'
23.6836,TimingClock,'248'
23.7043,TimingClock,'248'
23.7246,TimingClock,'248'
23.7451,TimingClock,'248'
23.7657,TimingClock,'248'
23.7862,TimingClock,'248'
23.8066,TimingClock,'248'
23.8271,TimingClock,'248'
23.8475,TimingClock,'248'
23.8681,TimingClock,'248'
23.8885,TimingClock,'248'
23.9091,TimingClock,'248'
23.9295,TimingClock,'248'
23.95,TimingClock,'248'
23.9705,TimingClock,'248'
23.991,TimingClock,'248'
24.0115,TimingClock,'248'
24.0115,NoteOn Channel: 9,'153'
24.032,TimingClock,'248'
24.0524,TimingClock,'248'
24.073,TimingClock,'248'
24.0935,TimingClock,'248'
24.114,TimingClock,'248'
24.1345,TimingClock,'248'
24.1549,TimingClock,'248'
24.1754,TimingClock,'248'
24.1959,TimingClock,'248'
24.2164,TimingClock,'248'
24.2369,TimingClock,'248'
24.2574,TimingClock,'248'
24.2778,TimingClock,'248'
24.2984,TimingClock,'248'
24.3188,TimingClock,'248'
24.3394,TimingClock,'248'
24.3597,TimingClock,'248'
24.3803,TimingClock,'248'
24.4008,TimingClock,'248'
24.4213,TimingClock,'248'
24.4418,TimingClock,'248'
24.4623,TimingClock,'248'
24.4828,TimingClock,'248'
24.5034,TimingClock,'248'
24.5034,NoteOn Channel: 9,'153'
24.5236,TimingClock,'248'
24.5441,TimingClock,'248'
24.5646,TimingClock,'248'
24.5851,TimingClock,'248'
24.6057,TimingClock,'248'
24.6263,TimingClock,'248'
24.6466,TimingClock,'248'
24.6671,TimingClock,'248'
24.6875,TimingClock,'248'
24.7081,TimingClock,'248'
24.7285,TimingClock,'248'
24.7492,TimingClock,'248'
24.7695,TimingClock,'248'
24.79,TimingClock,'248'
24.8105,TimingClock,'248'
24.831,TimingClock,'248'
24.8515,TimingClock,'248'
24.872,TimingClock,'248'
24.8926,TimingClock,'248'
24.913,TimingClock,'248'
24.9335,TimingClock,'248'
24.9539,TimingClock,'248'
24.9744,TimingClock,'248'
24.995,TimingClock,'248'
24.995,NoteOn Channel: 9,'153'
25.0153,TimingClock,'248'
25.0359,TimingClock,'248'
25.0564,TimingClock,'248'
25.0768,TimingClock,'248'
25.0974,TimingClock,'248'
25.1179,TimingClock,'248'
25.1384,TimingClock,'248'
25.1588,TimingClock,'248'
25.1793,TimingClock,'248'
25.1998,TimingClock,'248'
25.2203,TimingClock,'248'
25.2408,TimingClock,'248'
25.2613,TimingClock,'248'
25.2816,TimingClock,'248'
25.3023,TimingClock,'248'
25.3226,TimingClock,'248'
25.3433,TimingClock,'248'
25.3636,TimingClock,'248'
25.3843,TimingClock,'248'
25.4046,TimingClock,'248'
25.4251,TimingClock,'248'
25.4455,TimingClock,'248'
25.4661,TimingClock,'248'
25.4867,TimingClock,'248'
25.4867,NoteOn Channel: 9,'153'
25.5071,TimingClock,'248'
25.5274,TimingClock,'248'
25.548,TimingClock,'248'
25.5685,TimingClock,'248'
25.589,TimingClock,'248'
25.6097,TimingClock,'248'
25.63,TimingClock,'248'
25.6505,TimingClock,'248'
25.671,TimingClock,'248'
25.6914,TimingClock,'248'
25.7121,TimingClock,'248'
25.7324,TimingClock,'248'
25.7529,TimingClock,'248'
25.7733,TimingClock,'248'
25.794,TimingClock,'248'
25.8144,TimingClock,'248'
25.8349,TimingClock,'248'
25.8554,TimingClock,'248'
25.8759,TimingClock,'248'
25.8964,TimingClock,'248'
25.9169,TimingClock,'248'
25.9374,TimingClock,'248'
25.9577,TimingClock,'248'
25.9785,TimingClock,'248'
25.9785,NoteOn Channel: 9,'153'
25.9988,TimingClock,'248'
26.0193,TimingClock,'248'
26.0398,TimingClock,'248'
26.0603,TimingClock,'248'
26.0808,TimingClock,'248'
26.1014,TimingClock,'248'
26.1216,TimingClock,'248'
26.1422,TimingClock,'248'
26.1626,TimingClock,'248'
26.1833,TimingClock,'248'
26.2036,TimingClock,'248'
26.224,TimingClock,'248'
26.2447,TimingClock,'248'
26.2651,TimingClock,'248'
26.2857,TimingClock,'248'
26.3061,TimingClock,'248'
26.3265,TimingClock,'248'
26.3471,TimingClock,'248'
26.3675,TimingClock,'248'
26.3881,TimingClock,'248'
26.4084,TimingClock,'248'
26.429,TimingClock,'248'
26.4496,TimingClock,'248'
26.4701,TimingClock,'248'
26.4701,NoteOn Channel: 9,'153'
26.4905,TimingClock,'248'
26.511,TimingClock,'248'
26.5314,TimingClock,'248'
26.552,TimingClock,'248'
26.5723,TimingClock,'248'
26.593,TimingClock,'248'
26.6134,TimingClock,'248'
26.6339,TimingClock,'248'
26.6544,TimingClock,'248'
26.6749,TimingClock,'248'
26.6954,TimingClock,'248'
26.7159,TimingClock,'248'
26.7364,TimingClock,'248'
26.7567,TimingClock,'248'
26.7774,TimingClock,'248'
26.7978,TimingClock,'248'
26.8183,TimingClock,'248'
26.8388,TimingClock,'248'
26.8593,TimingClock,'248'
26.8798,TimingClock,'248'
26.9003,TimingClock,'248'
26.9208,TimingClock,'248'
26.9413,TimingClock,'248'
26.9618,TimingClock,'248'
26.9618,NoteOn Channel: 9,'153'
26.9823,TimingClock,'248'
27.0026,TimingClock,'248'
27.0231,TimingClock,'248'
27.0436,TimingClock,'248'
27.0641,TimingClock,'248'
27.0847,TimingClock,'248'
27.1051,TimingClock,'248'
27.1255,TimingClock,'248'
27.1461,TimingClock,'248'
27.1665,TimingClock,'248'
27.187,TimingClock,'248'
27.2075,TimingClock,'248'
27.228,TimingClock,'248'
27.2485,TimingClock,'248'
27.269,TimingClock,'248'
27.2894,TimingClock,'248'
27.3099,TimingClock,'248'
27.3305,TimingClock,'248'
27.3509,TimingClock,'248'
27.3712,TimingClock,'248'
27.392,TimingClock,'248'
27.4124,TimingClock,'248'
27.433,TimingClock,'248'
27.4535,TimingClock,'248'
27.4535,NoteOn Channel: 9,'153'
27.4739,TimingClock,'248'
27.4944,TimingClock,'248'
27.5148,TimingClock,'248'
27.5354,TimingClock,'248'
27.5558,TimingClock,'248'
27.5764,TimingClock,'248'
27.5968,TimingClock,'248'
27.6174,TimingClock,'248'
27.6378,TimingClock,'248'
27.6582,TimingClock,'248'
27.6788,TimingClock,'248'
27.6993,TimingClock,'248'
27.7198,TimingClock,'248'
27.7403,TimingClock,'248'
27.7608,TimingClock,'248'
27.7813,TimingClock,'248'
27.8016,TimingClock,'248'
27.8221,TimingClock,'248'
27.8426,TimingClock,'248'
27.8633,TimingClock,'248'
27.8836,TimingClock,'248'
27.9041,TimingClock,'248'
27.9246,TimingClock,'248'
27.9452,TimingClock,'248'
27.9452,NoteOn Channel: 9,'153'
27.9654,TimingClock,'248'
27.9861,TimingClock,'248'
28.0065,TimingClock,'248'
28.027,TimingClock,'248'
28.0475,TimingClock,'248'
28.0682,TimingClock,'248'
28.0885,TimingClock,'248'
28.109,TimingClock,'248'
28.1295,TimingClock,'248'
28.1499,TimingClock,'248'
28.1705,TimingClock,'248'
28.191,TimingClock,'248'
28.2113,TimingClock,'248'
28.232,TimingClock,'248'
28.2524,TimingClock,'248'
28.273,TimingClock,'248'
28.2933,TimingClock,'248'
28.314,TimingClock,'248'
28.3344,TimingClock,'248'
28.3549,TimingClock,'248'
28.3754,TimingClock,'248'
28.3959,TimingClock,'248'
28.4164,TimingClock,'248'
28.437,TimingClock,'248'
28.437,NoteOn Channel: 9,'153'
28.4573,TimingClock,'248'
28.4778,TimingClock,'248'
28.4983,TimingClock,'248'
28.5188,TimingClock,'248'
28.5393,TimingClock,'248'
28.5598,TimingClock,'248'
28.5803,TimingClock,'248'
28.6006,TimingClock,'248'
28.6212,TimingClock,'248'
28.6416,TimingClock,'248'
28.6623,TimingClock,'248'
28.6826,TimingClock,'248'
28.7031,TimingClock,'248'
28.7235,TimingClock,'248'
28.7441,TimingClock,'248'
28.7646,TimingClock,'248'
28.7852,TimingClock,'248'
28.8057,TimingClock,'248'
28.826,TimingClock,'248'
28.8465,TimingClock,'248'
28.8671,TimingClock,'248'
28.8875,TimingClock,'248'
28.908,TimingClock,'248'
28.9286,TimingClock,'248'
28.9286,NoteOn Channel: 9,'153'
28.949,TimingClock,'248'
28.9695,TimingClock,'248'
28.99,TimingClock,'248'
29.0104,TimingClock,'248'
29.0311,TimingClock,'248'
29.0515,TimingClock,'248'
29.072,TimingClock,'248'
29.0923,TimingClock,'248'
29.1129,TimingClock,'248'
29.1334,TimingClock,'248'
29.1539,TimingClock,'248'
29.1744,TimingClock,'248'
29.1949,TimingClock,'248'
29.2154,TimingClock,'248'
29.2358,TimingClock,'248'
29.2564,TimingClock,'248'
29.2766,TimingClock,'248'
29.2973,TimingClock,'248'
29.3178,TimingClock,'248'
29.3382,TimingClock,'248'
29.3588,TimingClock,'248'
29.3793,TimingClock,'248'
29.3998,TimingClock,'248'
29.4204,TimingClock,'248'
29.4204,NoteOn Channel: 9,'153'
29.4407,TimingClock,'248'
29.4611,TimingClock,'248'
29.4816,TimingClock,'248'
29.5021,TimingClock,'248'
29.5226,TimingClock,'248'
29.5433,TimingClock,'248'
29.5636,TimingClock,'248'
29.5842,TimingClock,'248'
29.6046,TimingClock,'248'
29.6251,TimingClock,'248'
29.6454,TimingClock,'248'
29.666,TimingClock,'248'
29.6865,TimingClock,'248'
29.707,TimingClock,'248'
29.7275,TimingClock,'248'
29.7479,TimingClock,'248'
29.7685,TimingClock,'248'
29.7891,TimingClock,'248'
29.8096,TimingClock,'248'
29.83,TimingClock,'248'
29.8505,TimingClock,'248'
29.871,TimingClock,'248'
29.8915,TimingClock,'248'
29.9121,TimingClock,'248'
29.9121,NoteOn Channel: 9,'153'
29.9324,TimingClock,'248'
29.9529,TimingClock,'248'
29.9734,TimingClock,'248'
29.9939,TimingClock,'248'
30.0143,TimingClock,'248'
30.035,TimingClock,'248'
30.0554,TimingClock,'248'
30.0757,TimingClock,'248'
30.0963,TimingClock,'248'
30.1168,TimingClock,'248'
30.1373,TimingClock,'248'
30.1578,TimingClock,'248'
30.1783,TimingClock,'248'
30.1988,TimingClock,'248'
30.2193,TimingClock,'248'
30.2398,TimingClock,'248'
30.2603,TimingClock,'248'
30.2806,TimingClock,'248'
30.3013,TimingClock,'248'
30.3216,TimingClock,'248'
30.3423,TimingClock,'248'
30.3626,TimingClock,'248'
30.3832,TimingClock,'248'
30.4038,TimingClock,'248'
30.4038,NoteOn Channel: 9,'153'
30.4241,TimingClock,'248'
30.4444,TimingClock,'248'
30.4651,TimingClock,'248'
30.4855,TimingClock,'248'
30.506,TimingClock,'248'
30.5266,TimingClock,'248'
30.5471,TimingClock,'248'
30.5675,TimingClock,'248'
30.588,TimingClock,'248'
30.6084,TimingClock,'248'
30.629,TimingClock,'248'
30.6495,TimingClock,'248'
30.67,TimingClock,'248'
30.6904,TimingClock,'248'
30.711,TimingClock,'248'
30.7314,TimingClock,'248'
30.752,TimingClock,'248'
30.7724,TimingClock,'248'
30.793,TimingClock,'248'
30.8134,TimingClock,'248'
30.8339,TimingClock,'248'
30.8544,TimingClock,'248'
30.8748,TimingClock,'248'
30.8955,TimingClock,'248'
30.8955,NoteOn Channel: 9,'153'
30.9158,TimingClock,'248'
30.9363,TimingClock,'248'
30.9567,TimingClock,'248'
30.9773,TimingClock,'248'
30.9977,TimingClock,'248'
31.0184,TimingClock,'248'
31.0388,TimingClock,'248'
31.0593,TimingClock,'248'
31.0797,TimingClock,'248'
31.1003,TimingClock,'248'
31.1206,TimingClock,'248'
31.1413,TimingClock,'248'
31.1616,TimingClock,'248'
31.182,TimingClock,'248'
31.2027,TimingClock,'248'
31.2231,TimingClock,'248'
31.2436,TimingClock,'248'
31.2641,TimingClock,'248'
31.2845,TimingClock,'248'
31.3051,TimingClock,'248'
31.3255,TimingClock,'248'
31.3462,TimingClock,'248'
31.3665,TimingClock,'248'
31.387,TimingClock,'248'
31.387,NoteOn Channel: 9,'153'
31.4075,TimingClock,'248'
31.428,TimingClock,'248'
31.4485,TimingClock,'248'
31.469,TimingClock,'248'
31.4893,TimingClock,'248'
31.51,TimingClock,'248'
31.5304,TimingClock,'248'
31.551,TimingClock,'248'
31.5713,TimingClock,'248'
31.592,TimingClock,'248'
31.6124,TimingClock,'248'
31.633,TimingClock,'248'
31.6533,TimingClock,'248'
31.6739,TimingClock,'248'
31.6943,TimingClock,'248'
31.7149,TimingClock,'248'
31.7353,TimingClock,'248'
31.7557,TimingClock,'248'
31.7762,TimingClock,'248'
31.7967,TimingClock,'248'
31.8173,TimingClock,'248'
31.8378,TimingClock,'248'
31.8583,TimingClock,'248'
31.8789,TimingClock,'248'
31.8789,NoteOn Channel: 9,'153'
31.8992,TimingClock,'248'
31.9196,TimingClock,'248'
31.9402,TimingClock,'248'
31.9607,TimingClock,'248'
31.9811,TimingClock,'248'
32.0018,TimingClock,'248'
32.022,TimingClock,'248'
32.0426,TimingClock,'248'
32.0632,TimingClock,'248'
32.0836,TimingClock,'248'
32.1041,TimingClock,'248'
32.1245,TimingClock,'248'
32.1451,TimingClock,'248'
32.1655,TimingClock,'248'
32.1861,TimingClock,'248'
32.2065,TimingClock,'248'
32.227,TimingClock,'248'
32.2476,TimingClock,'248'
32.268,TimingClock,'248'
32.2884,TimingClock,'248'
32.309,TimingClock,'248'
32.3294,TimingClock,'248'
32.35,TimingClock,'248'
32.3705,TimingClock,'248'
32.3705,NoteOn Channel: 9,'153'
32.3909,TimingClock,'248'
32.4114,TimingClock,'248'
32.432,TimingClock,'248'
32.4524,TimingClock,'248'
32.4729,TimingClock,'248'
32.4933,TimingClock,'248'
32.5139,TimingClock,'248'
32.5343,TimingClock,'248'
32.5549,TimingClock,'248'
32.5752,TimingClock,'248'
32.5958,TimingClock,'248'
32.6162,TimingClock,'248'
32.6368,TimingClock,'248'
32.6573,TimingClock,'248'
32.6778,TimingClock,'248'
32.6983,TimingClock,'248'
32.7187,TimingClock,'248'
32.7393,TimingClock,'248'
32.7596,TimingClock,'248'
32.7803,TimingClock,'248'
32.8006,TimingClock,'248'
32.8212,TimingClock,'248'
32.8415,TimingClock,'248'
32.8623,TimingClock,'248'
32.8623,NoteOn Channel: 9,'153'
32.8826,TimingClock,'248'
32.9031,TimingClock,'248'
32.9235,TimingClock,'248'
32.9441,TimingClock,'248'
32.9645,TimingClock,'248'
32.9851,TimingClock,'248'
33.0054,TimingClock,'248'
33.026,TimingClock,'248'
33.0465,TimingClock,'248'
33.067,TimingClock,'248'
33.0875,TimingClock,'248'
33.1081,TimingClock,'248'
33.1285,TimingClock,'248'
33.149,TimingClock,'248'
33.1694,TimingClock,'248'
33.19,TimingClock,'248'
33.2104,TimingClock,'248'
33.231,TimingClock,'248'
33.2514,TimingClock,'248'
33.272,TimingClock,'248'
33.2924,TimingClock,'248'
33.313,TimingClock,'248'
33.3334,TimingClock,'248'
33.354,TimingClock,'248'
33.354,NoteOn Channel: 9,'153'
33.3741,TimingClock,'248'
33.395,TimingClock,'248'
33.4153,TimingClock,'248'
33.4358,TimingClock,'248'
33.4561,TimingClock,'248'
33.4769,TimingClock,'248'
33.4973,TimingClock,'248'
33.5178,TimingClock,'248'
33.5383,TimingClock,'248'
33.5585,TimingClock,'248'
33.5793,TimingClock,'248'
33.5996,TimingClock,'248'
33.6203,TimingClock,'248'
33.6406,TimingClock,'248'
33.6611,TimingClock,'248'
33.6816,TimingClock,'248'
33.7022,TimingClock,'248'
33.7226,TimingClock,'248'
33.7431,TimingClock,'248'
33.7636,TimingClock,'248'
33.784,TimingClock,'248'
33.8045,TimingClock,'248'
33.8252,TimingClock,'248'
33.8456,TimingClock,'248'
33.8456,NoteOn Channel: 9,'153'
33.8659,TimingClock,'248'
33.8865,TimingClock,'248'
33.9071,TimingClock,'248'
33.9275,TimingClock,'248'
33.948,TimingClock,'248'
33.9685,TimingClock,'248'
33.989,TimingClock,'248'
34.0094,TimingClock,'248'
34.0301,TimingClock,'248'
34.0504,TimingClock,'248'
34.071,TimingClock,'248'
34.0914,TimingClock,'248'
34.112,TimingClock,'248'
34.1323,TimingClock,'248'
34.1527,TimingClock,'248'
34.1734,TimingClock,'248'
34.1939,TimingClock,'248'
34.2143,TimingClock,'248'
34.2349,TimingClock,'248'
34.2553,TimingClock,'248'
34.2756,TimingClock,'248'
34.2963,TimingClock,'248'
34.3168,TimingClock,'248'
34.3374,TimingClock,'248'
34.3374,NoteOn Channel: 9,'153'
34.3577,TimingClock,'248'
34.3783,TimingClock,'248'
34.3985,TimingClock,'248'
34.4193,TimingClock,'248'
34.4396,TimingClock,'248'
34.4603,TimingClock,'248'
34.4806,TimingClock,'248'
34.5011,TimingClock,'248'
34.5216,TimingClock,'248'
34.5421,TimingClock,'248'
34.5626,TimingClock,'248'
34.5831,TimingClock,'248'
34.6035,TimingClock,'248'
34.6241,TimingClock,'248'
34.6445,TimingClock,'248'
34.6651,TimingClock,'248'
34.6855,TimingClock,'248'
34.706,TimingClock,'248'
34.7265,TimingClock,'248'
34.747,TimingClock,'248'
34.7675,TimingClock,'248'
34.788,TimingClock,'248'
34.8085,TimingClock,'248'
34.8292,TimingClock,'248'
34.8292,NoteOn Channel: 9,'153'
34.8494,TimingClock,'248'
34.8699,TimingClock,'248'
34.8904,TimingClock,'248'
34.911,TimingClock,'248'
34.9314,TimingClock,'248'
34.9519,TimingClock,'248'
34.9724,TimingClock,'248'
34.9929,TimingClock,'248'
35.0132,TimingClock,'248'
35.0339,TimingClock,'248'
35.0543,TimingClock,'248'
35.0748,TimingClock,'248'
35.0952,TimingClock,'248'
35.1157,TimingClock,'248'
35.1363,TimingClock,'248'
35.1568,TimingClock,'248'
35.1773,TimingClock,'248'
35.1978,TimingClock,'248'
35.2182,TimingClock,'248'
35.2386,TimingClock,'248'
35.2593,TimingClock,'248'
35.2796,TimingClock,'248'
35.3003,TimingClock,'248'
35.3208,TimingClock,'248'
35.3208,NoteOn Channel: 9,'153'
35.3411,TimingClock,'248'
35.3616,TimingClock,'248'
35.3821,TimingClock,'248'
35.4026,TimingClock,'248'
35.4231,TimingClock,'248'
35.4436,TimingClock,'248'
35.4641,TimingClock,'248'
35.4845,TimingClock,'248'
35.505,TimingClock,'248'
35.5254,TimingClock,'248'
35.546,TimingClock,'248'
35.5665,TimingClock,'248'
35.5869,TimingClock,'248'
35.6075,TimingClock,'248'
35.628,TimingClock,'248'
35.6484,TimingClock,'248'
35.669,TimingClock,'248'
35.6894,TimingClock,'248'
35.71,TimingClock,'248'
35.7304,TimingClock,'248'
35.751,TimingClock,'248'
35.7714,TimingClock,'248'
35.792,TimingClock,'248'
35.8125,TimingClock,'248'
35.8125,NoteOn Channel: 9,'153'
35.8329,TimingClock,'248'
35.8532,TimingClock,'248'
35.8738,TimingClock,'248'
35.8943,TimingClock,'248'
35.9147,TimingClock,'248'
35.9354,TimingClock,'248'
35.9558,TimingClock,'248'
35.9763,TimingClock,'248'
35.9967,TimingClock,'248'
36.0173,TimingClock,'248'
36.0376,TimingClock,'248'
36.0583,TimingClock,'248'
36.0787,TimingClock,'248'
36.0992,TimingClock,'248'
36.1196,TimingClock,'248'
36.1401,TimingClock,'248'
36.1606,TimingClock,'248'
36.1811,TimingClock,'248'
36.2015,TimingClock,'248'
36.222,TimingClock,'248'
36.2426,TimingClock,'248'
36.2631,TimingClock,'248'
36.2835,TimingClock,'248'
36.3042,TimingClock,'248'
36.3042,NoteOn Channel: 9,'153'
36.3245,TimingClock,'248'
36.345,TimingClock,'248'
36.3655,TimingClock,'248'
36.386,TimingClock,'248'
36.4065,TimingClock,'248'
36.4271,TimingClock,'248'
36.4474,TimingClock,'248'
36.468,TimingClock,'248'
36.4884,TimingClock,'248'
36.509,TimingClock,'248'
36.5293,TimingClock,'248'
36.55,TimingClock,'248'
36.5704,TimingClock,'248'
36.5909,TimingClock,'248'
36.6114,TimingClock,'248'
36.6317,TimingClock,'248'
36.6524,TimingClock,'248'
36.6729,TimingClock,'248'
36.6933,TimingClock,'248'
36.7139,TimingClock,'248'
36.7343,TimingClock,'248'
36.7548,TimingClock,'248'
36.7753,TimingClock,'248'
36.796,TimingClock,'248'
36.796,NoteOn Channel: 9,'153'
36.8163,TimingClock,'248'
36.8367,TimingClock,'248'
36.8573,TimingClock,'248'
36.8776,TimingClock,'248'
36.8981,TimingClock,'248'
36.9188,TimingClock,'248'
36.939,TimingClock,'248'
36.9596,TimingClock,'248'
36.9801,TimingClock,'248'
37.0005,TimingClock,'248'
37.0211,TimingClock,'248'
37.0416,TimingClock,'248'
37.0621,TimingClock,'248'
37.0825,TimingClock,'248'
37.1031,TimingClock,'248'
37.1235,TimingClock,'248'
37.1441,TimingClock,'248'
37.1645,TimingClock,'248'
37.1849,TimingClock,'248'
37.2055,TimingClock,'248'
37.226,TimingClock,'248'
37.2465,TimingClock,'248'
37.267,TimingClock,'248'
37.2875,TimingClock,'248'
37.2875,NoteOn Channel: 9,'153'
37.308,TimingClock,'248'
37.3284,TimingClock,'248'
37.349,TimingClock,'248'
37.3694,TimingClock,'248'
37.39,TimingClock,'248'
37.4104,TimingClock,'248'
37.4309,TimingClock,'248'
37.4514,TimingClock,'248'
37.4719,TimingClock,'248'
37.4922,TimingClock,'248'
37.5129,TimingClock,'248'
37.5332,TimingClock,'248'
37.5538,TimingClock,'248'
37.5743,TimingClock,'248'
37.5947,TimingClock,'248'
37.6153,TimingClock,'248'
37.6358,TimingClock,'248'
37.6562,TimingClock,'248'
37.6768,TimingClock,'248'
37.6973,TimingClock,'248'
37.7177,TimingClock,'248'
37.7381,TimingClock,'248'
37.7586,TimingClock,'248'
37.7793,TimingClock,'248'
37.7793,NoteOn Channel: 9,'153'
37.7997,TimingClock,'248'
37.8201,TimingClock,'248'
37.8407,TimingClock,'248'
37.8611,TimingClock,'248'
37.8815,TimingClock,'248'
37.9023,TimingClock,'248'
37.9225,TimingClock,'248'
37.9431,TimingClock,'248'
37.9635,TimingClock,'248'
37.984,TimingClock,'248'
38.0046,TimingClock,'248'
38.025,TimingClock,'248'
38.0455,TimingClock,'248'
38.0661,TimingClock,'248'
38.0865,TimingClock,'248'
38.107,TimingClock,'248'
38.1273,TimingClock,'248'
38.148,TimingClock,'248'
38.1684,TimingClock,'248'
38.189,TimingClock,'248'
38.2092,TimingClock,'248'
38.23,TimingClock,'248'
38.2504,TimingClock,'248'
38.271,TimingClock,'248'
38.271,NoteOn Channel: 9,'153'
38.2913,TimingClock,'248'
38.3119,TimingClock,'248'
38.3322,TimingClock,'248'
38.3529,TimingClock,'248'
38.3732,TimingClock,'248'
38.394,TimingClock,'248'
38.4143,TimingClock,'248'
38.4348,TimingClock,'248'
38.4553,TimingClock,'248'
38.4757,TimingClock,'248'
38.4963,TimingClock,'248'
38.5168,TimingClock,'248'
38.5371,TimingClock,'248'
38.5575,TimingClock,'248'
38.5781,TimingClock,'248'
38.5986,TimingClock,'248'
38.619,TimingClock,'248'
38.6396,TimingClock,'248'
38.6602,TimingClock,'248'
38.6806,TimingClock,'248'
38.7011,TimingClock,'248'
38.7216,TimingClock,'248'
38.7421,TimingClock,'248'
38.7626,TimingClock,'248'
38.7626,NoteOn Channel: 9,'153'
38.7831,TimingClock,'248'
38.8035,TimingClock,'248'
38.824,TimingClock,'248'
38.8445,TimingClock,'248'
38.865,TimingClock,'248'
38.8855,TimingClock,'248'
38.906,TimingClock,'248'
38.9264,TimingClock,'248'
38.9471,TimingClock,'248'
38.9674,TimingClock,'248'
38.988,TimingClock,'248'
39.0084,TimingClock,'248'
39.0291,TimingClock,'248'
39.0494,TimingClock,'248'
39.0699,TimingClock,'248'
39.0904,TimingClock,'248'
39.1109,TimingClock,'248'
39.1314,TimingClock,'248'
39.1519,TimingClock,'248'
39.1723,TimingClock,'248'
39.1929,TimingClock,'248'
39.2133,TimingClock,'248'
39.2338,TimingClock,'248'
39.2544,TimingClock,'248'
39.2544,NoteOn Channel: 9,'153'
39.2747,TimingClock,'248'
39.2952,TimingClock,'248'
39.3158,TimingClock,'248'
39.3361,TimingClock,'248'
39.3568,TimingClock,'248'
39.3772,TimingClock,'248'
39.3976,TimingClock,'248'
39.4181,TimingClock,'248'
39.4386,TimingClock,'248'
39.4591,TimingClock,'248'
39.4796,TimingClock,'248'
39.5001,TimingClock,'248'
39.5206,TimingClock,'248'
39.5411,TimingClock,'248'
39.5616,TimingClock,'248'
39.5821,TimingClock,'248'
39.6024,TimingClock,'248'
39.6231,TimingClock,'248'
39.6435,TimingClock,'248'
39.664,TimingClock,'248'
39.6844,TimingClock,'248'
39.705,TimingClock,'248'
39.7255,TimingClock,'248'
39.7462,TimingClock,'248'
39.7462,NoteOn Channel: 9,'153'
39.7664,TimingClock,'248'
39.7869,TimingClock,'248'
39.8074,TimingClock,'248'
39.828,TimingClock,'248'
39.8484,TimingClock,'248'
39.869,TimingClock,'248'
39.8894,TimingClock,'248'
39.9099,TimingClock,'248'
39.9304,TimingClock,'248'
39.9509,TimingClock,'248'
39.9713,TimingClock,'248'
39.9918,TimingClock,'248'
40.0122,TimingClock,'248'
40.0329,TimingClock,'248'
40.0531,TimingClock,'248'
40.0737,TimingClock,'248'
40.0942,TimingClock,'248'
40.1148,TimingClock,'248'
40.1353,TimingClock,'248'
40.1558,TimingClock,'248'
40.1763,TimingClock,'248'
40.1966,TimingClock,'248'
40.217,TimingClock,'248'
40.2377,TimingClock,'248'
40.2377,NoteOn Channel: 9,'153'
40.2581,TimingClock,'248'
40.2786,TimingClock,'248'
40.299,TimingClock,'248'
40.3195,TimingClock,'248'
40.34,TimingClock,'248'
40.3607,TimingClock,'248'
40.3811,TimingClock,'248'
40.4014,TimingClock,'248'
40.4221,TimingClock,'248'
40.4425,TimingClock,'248'
40.463,TimingClock,'248'
40.4835,TimingClock,'248'
40.504,TimingClock,'248'
40.5245,TimingClock,'248'
40.545,TimingClock,'248'
40.5655,TimingClock,'248'
40.586,TimingClock,'248'
40.6065,TimingClock,'248'
40.6269,TimingClock,'248'
40.6474,TimingClock,'248'
40.6679,TimingClock,'248'
40.6884,TimingClock,'248'
40.709,TimingClock,'248'
40.7294,TimingClock,'248'
40.7294,NoteOn Channel: 9,'153'
40.7499,TimingClock,'248'
40.7702,TimingClock,'248'
40.7909,TimingClock,'248'
40.8112,TimingClock,'248'
40.8319,TimingClock,'248'
40.8524,TimingClock,'248'
40.8727,TimingClock,'248'
40.8932,TimingClock,'248'
40.9137,TimingClock,'248'
40.9343,TimingClock,'248'
40.9548,TimingClock,'248'
40.9753,TimingClock,'248'
40.9957,TimingClock,'248'
41.0161,TimingClock,'248'
41.0367,TimingClock,'248'
41.0572,TimingClock,'248'
41.0776,TimingClock,'248'
41.0981,TimingClock,'248'
41.1185,TimingClock,'248'
41.1391,TimingClock,'248'
41.1596,TimingClock,'248'
41.18,TimingClock,'248'
41.2007,TimingClock,'248'
41.2212,TimingClock,'248'
41.2212,NoteOn Channel: 9,'153'
41.2416,TimingClock,'248'
41.262,TimingClock,'248'
41.2826,TimingClock,'248'
41.3031,TimingClock,'248'
41.3235,TimingClock,'248'
41.3441,TimingClock,'248'
41.3644,TimingClock,'248'
41.385,TimingClock,'248'
41.4054,TimingClock,'248'
41.4259,TimingClock,'248'
41.4464,TimingClock,'248'
41.467,TimingClock,'248'
41.4872,TimingClock,'248'
41.508,TimingClock,'248'
41.5283,TimingClock,'248'
41.549,TimingClock,'248'
41.5694,TimingClock,'248'
41.5899,TimingClock,'248'
41.6104,TimingClock,'248'
41.6309,TimingClock,'248'
41.6513,TimingClock,'248'
41.6719,TimingClock,'248'
41.6922,TimingClock,'248'
41.713,TimingClock,'248'
41.713,NoteOn Channel: 9,'153'
41.7332,TimingClock,'248'
41.7537,TimingClock,'248'
41.7743,TimingClock,'248'
41.7946,TimingClock,'248'
41.8151,TimingClock,'248'
41.8357,TimingClock,'248'
41.8561,TimingClock,'248'
41.8767,TimingClock,'248'
41.8971,TimingClock,'248'
41.9176,TimingClock,'248'
41.9381,TimingClock,'248'
41.9587,TimingClock,'248'
41.9792,TimingClock,'248'
41.9996,TimingClock,'248'
42.0201,TimingClock,'248'
42.0404,TimingClock,'248'
42.0611,TimingClock,'248'
42.0815,TimingClock,'248'
42.1021,TimingClock,'248'
42.1225,TimingClock,'248'
42.143,TimingClock,'248'
42.1635,TimingClock,'248'
42.184,TimingClock,'248'
42.2046,TimingClock,'248'
42.2046,NoteOn Channel: 9,'153'
42.225,TimingClock,'248'
42.2452,TimingClock,'248'
42.266,TimingClock,'248'
42.2864,TimingClock,'248'
42.307,TimingClock,'248'
42.3275,TimingClock,'248'
42.3479,TimingClock,'248'
42.3684,TimingClock,'248'
42.3889,TimingClock,'248'
42.4092,TimingClock,'248'
42.4299,TimingClock,'248'
42.4504,TimingClock,'248'
42.4709,TimingClock,'248'
42.4913,TimingClock,'248'
42.5119,TimingClock,'248'
42.5322,TimingClock,'248'
42.5528,TimingClock,'248'
42.5733,TimingClock,'248'
42.5938,TimingClock,'248'
42.6143,TimingClock,'248'
42.6347,TimingClock,'248'
42.6552,TimingClock,'248'
42.6758,TimingClock,'248'
42.6963,TimingClock,'248'
42.6963,NoteOn Channel: 9,'153'
42.7166,TimingClock,'248'
42.7372,TimingClock,'248'
42.7575,TimingClock,'248'
42.7781,TimingClock,'248'
42.7986,TimingClock,'248'
42.8192,TimingClock,'248'
42.8395,TimingClock,'248'
42.86,TimingClock,'248'
42.8804,TimingClock,'248'
42.9011,TimingClock,'248'
42.9215,TimingClock,'248'
42.942,TimingClock,'248'
42.9625,TimingClock,'248'
42.983,TimingClock,'248'
43.0035,TimingClock,'248'
43.0239,TimingClock,'248'
43.0445,TimingClock,'248'
43.065,TimingClock,'248'
43.0854,TimingClock,'248'
43.106,TimingClock,'248'
43.1264,TimingClock,'248'
43.147,TimingClock,'248'
43.1673,TimingClock,'248'
43.188,TimingClock,'248'
43.188,NoteOn Channel: 9,'153'
43.2082,TimingClock,'248'
43.2289,TimingClock,'248'
43.2493,TimingClock,'248'
43.2698,TimingClock,'248'
43.2902,TimingClock,'248'
43.311,TimingClock,'248'
43.3313,TimingClock,'248'
43.3517,TimingClock,'248'
43.3721,TimingClock,'248'
43.3928,TimingClock,'248'
43.4133,TimingClock,'248'
43.4337,TimingClock,'248'
43.4541,TimingClock,'248'
43.4747,TimingClock,'248'
43.4952,TimingClock,'248'
43.5157,TimingClock,'248'
43.5362,TimingClock,'248'
43.5568,TimingClock,'248'
43.5771,TimingClock,'248'
43.5976,TimingClock,'248'
43.6181,TimingClock,'248'
43.6386,TimingClock,'248'
43.6591,TimingClock,'248'
43.6797,TimingClock,'248'
43.6797,NoteOn Channel: 9,'153'
43.7001,TimingClock,'248'
43.7205,TimingClock,'248'
43.741,TimingClock,'248'
43.7615,TimingClock,'248'
43.782,TimingClock,'248'
43.8026,TimingClock,'248'
43.8231,TimingClock,'248'
43.8434,TimingClock,'248'
43.864,TimingClock,'248'
43.8843,TimingClock,'248'
43.905,TimingClock,'248'
43.9253,TimingClock,'248'
43.9461,TimingClock,'248'
43.9664,TimingClock,'248'
43.987,TimingClock,'248'
44.0074,TimingClock,'248'
44.028,TimingClock,'248'
44.0484,TimingClock,'248'
44.0689,TimingClock,'248'
44.0893,TimingClock,'248'
44.1098,TimingClock,'248'
44.1303,TimingClock,'248'
44.1509,TimingClock,'248'
44.1714,TimingClock,'248'
44.1714,NoteOn Channel: 9,'153'
44.1917,TimingClock,'248'
44.2122,TimingClock,'248'
44.2328,TimingClock,'248'
44.2533,TimingClock,'248'
44.2738,TimingClock,'248'
44.2943,TimingClock,'248'
44.3148,TimingClock,'248'
44.3351,TimingClock,'248'
44.3557,TimingClock,'248'
44.3762,TimingClock,'248'
44.3966,TimingClock,'248'
44.4171,TimingClock,'248'
44.4376,TimingClock,'248'
44.4582,TimingClock,'248'
44.4786,TimingClock,'248'
44.4991,TimingClock,'248'
44.5197,TimingClock,'248'
44.54,TimingClock,'248'
44.5605,TimingClock,'248'
44.581,TimingClock,'248'
44.6014,TimingClock,'248'
44.622,TimingClock,'248'
44.6425,TimingClock,'248'
44.6631,TimingClock,'248'
44.6631,NoteOn Channel: 9,'153'
44.6835,TimingClock,'248'
44.704,TimingClock,'248'
44.7244,TimingClock,'248'
44.7449,TimingClock,'248'
44.7654,TimingClock,'248'
44.7861,TimingClock,'248'
44.8064,TimingClock,'248'
44.8269,TimingClock,'248'
44.8474,TimingClock,'248'
44.8679,TimingClock,'248'
44.8883,TimingClock,'248'
44.9089,TimingClock,'248'
44.9293,TimingClock,'248'
44.9499,TimingClock,'248'
44.9703,TimingClock,'248'
44.9909,TimingClock,'248'
45.0113,TimingClock,'248'
45.0318,TimingClock,'248'
45.0522,TimingClock,'248'
45.0728,TimingClock,'248'
45.0933,TimingClock,'248'
45.1137,TimingClock,'248'
45.1342,TimingClock,'248'
45.155,TimingClock,'248'
45.155,NoteOn Channel: 9,'153'
45.1751,TimingClock,'248'
45.1957,TimingClock,'248'
45.2161,TimingClock,'248'
45.2365,TimingClock,'248'
45.2571,TimingClock,'248'
45.2778,TimingClock,'248'
45.2982,TimingClock,'248'
45.3186,TimingClock,'248'
45.339,TimingClock,'248'
45.3595,TimingClock,'248'
45.38,TimingClock,'248'
45.4004,TimingClock,'248'
45.4209,TimingClock,'248'
45.4414,TimingClock,'248'
45.4621,TimingClock,'248'
45.4825,TimingClock,'248'
45.503,TimingClock,'248'
45.5235,TimingClock,'248'
45.5439,TimingClock,'248'
45.5644,TimingClock,'248'
45.585,TimingClock,'248'
45.6054,TimingClock,'248'
45.626,TimingClock,'248'
45.6465,TimingClock,'248'
45.6465,NoteOn Channel: 9,'153'
45.6669,TimingClock,'248'
45.6874,TimingClock,'248'
45.7079,TimingClock,'248'
45.7284,TimingClock,'248'
45.7489,TimingClock,'248'
45.7694,TimingClock,'248'
45.7899,TimingClock,'248'
45.8101,TimingClock,'248'
45.8308,TimingClock,'248'
45.8512,TimingClock,'248'
45.8718,TimingClock,'248'
45.8923,TimingClock,'248'
45.9128,TimingClock,'248'
45.9332,TimingClock,'248'
45.9537,TimingClock,'248'
45.9741,TimingClock,'248'
45.9948,TimingClock,'248'
46.0151,TimingClock,'248'
46.0358,TimingClock,'248'
46.0562,TimingClock,'248'
46.0767,TimingClock,'248'
46.0971,TimingClock,'248'
46.1176,TimingClock,'248'
46.1382,TimingClock,'248'
46.1382,NoteOn Channel: 9,'153'
46.1586,TimingClock,'248'
46.179,TimingClock,'248'
46.1996,TimingClock,'248'
46.22,TimingClock,'248'
46.2406,TimingClock,'248'
46.2611,TimingClock,'248'
46.2815,TimingClock,'248'
46.302,TimingClock,'248'
46.3225,TimingClock,'248'
46.343,TimingClock,'248'
46.3634,TimingClock,'248'
46.3841,TimingClock,'248'
46.4044,TimingClock,'248'
46.4251,TimingClock,'248'
46.4455,TimingClock,'248'
46.466,TimingClock,'248'
46.4864,TimingClock,'248'
46.507,TimingClock,'248'
46.5274,TimingClock,'248'
46.5479,TimingClock,'248'
46.5684,TimingClock,'248'
46.5889,TimingClock,'248'
46.6092,TimingClock,'248'
46.6299,TimingClock,'248'
46.6299,NoteOn Channel: 9,'153'
46.6502,TimingClock,'248'
46.6708,TimingClock,'248'
46.6913,TimingClock,'248'
46.7118,TimingClock,'248'
46.7322,TimingClock,'248'
46.7528,TimingClock,'248'
46.7731,TimingClock,'248'
46.7938,TimingClock,'248'
46.8141,TimingClock,'248'
46.8345,TimingClock,'248'
46.8552,TimingClock,'248'
46.8756,TimingClock,'248'
46.8961,TimingClock,'248'
46.9167,TimingClock,'248'
46.9371,TimingClock,'248'
46.9576,TimingClock,'248'
46.9781,TimingClock,'248'
46.9986,TimingClock,'248'
47.0191,TimingClock,'248'
47.0397,TimingClock,'248'
47.06,TimingClock,'248'
47.0805,TimingClock,'248'
47.101,TimingClock,'248'
47.1216,TimingClock,'248'
47.1216,NoteOn Channel: 9,'153'
47.142,TimingClock,'248'
47.1624,TimingClock,'248'
47.1829,TimingClock,'248'
47.2034,TimingClock,'248'
47.224,TimingClock,'248'
47.2445,TimingClock,'248'
47.2649,TimingClock,'248'
47.2854,TimingClock,'248'
47.306,TimingClock,'248'
47.3264,TimingClock,'248'
47.3469,TimingClock,'248'
47.3674,TimingClock,'248'
47.3879,TimingClock,'248'
47.4083,TimingClock,'248'
47.4289,TimingClock,'248'
47.4493,TimingClock,'248'
47.4699,TimingClock,'248'
47.4903,TimingClock,'248'
47.5108,TimingClock,'248'
47.5313,TimingClock,'248'
47.5518,TimingClock,'248'
47.5723,TimingClock,'248'
47.5928,TimingClock,'248'
47.6132,TimingClock,'248'
47.6132,NoteOn Channel: 9,'153'
47.6337,TimingClock,'248'
47.6541,TimingClock,'248'
47.6747,TimingClock,'248'
47.6951,TimingClock,'248'
47.7156,TimingClock,'248'
47.7363,TimingClock,'248'
47.7566,TimingClock,'248'
47.7771,TimingClock,'248'
47.7977,TimingClock,'248'
47.8181,TimingClock,'248'
47.8385,TimingClock,'248'
47.859,TimingClock,'248'
47.8796,TimingClock,'248'
47.9,TimingClock,'248'
47.9205,TimingClock,'248'
47.941,TimingClock,'248'
47.9615,TimingClock,'248'
47.982,TimingClock,'248'
48.0025,TimingClock,'248'
48.023,TimingClock,'248'
48.0434,TimingClock,'248'
48.064,TimingClock,'248'
48.0843,TimingClock,'248'
48.1049,TimingClock,'248'
48.1049,NoteOn Channel: 9,'153'
48.1254,TimingClock,'248'
48.1459,TimingClock,'248'
48.1664,TimingClock,'248'
48.1869,TimingClock,'248'
48.2074,TimingClock,'248'
48.228,TimingClock,'248'
48.2482,TimingClock,'248'
48.2688,TimingClock,'248'
48.2893,TimingClock,'248'
48.3097,TimingClock,'248'
48.3302,TimingClock,'248'
48.3506,TimingClock,'248'
48.3712,TimingClock,'248'
48.3918,TimingClock,'248'
48.4122,TimingClock,'248'
48.4327,TimingClock,'248'
48.4531,TimingClock,'248'
48.4737,TimingClock,'248'
48.4941,TimingClock,'248'
48.5147,TimingClock,'248'
48.5351,TimingClock,'248'
48.5556,TimingClock,'248'
48.5761,TimingClock,'248'
48.5967,TimingClock,'248'
48.5967,NoteOn Channel: 9,'153'
48.6171,TimingClock,'248'
48.6376,TimingClock,'248'
48.658,TimingClock,'248'
48.6786,TimingClock,'248'
48.699,TimingClock,'248'
48.7196,TimingClock,'248'
48.74,TimingClock,'248'
48.7604,TimingClock,'248'
48.781,TimingClock,'248'
48.8015,TimingClock,'248'
48.822,TimingClock,'248'
48.8426,TimingClock,'248'
48.863,TimingClock,'248'
48.8834,TimingClock,'248'
48.904,TimingClock,'248'
48.9244,TimingClock,'248'
48.945,TimingClock,'248'
48.9654,TimingClock,'248'
48.9861,TimingClock,'248'
49.0064,TimingClock,'248'
49.0269,TimingClock,'248'
49.0474,TimingClock,'248'
49.0677,TimingClock,'248'
49.0884,TimingClock,'248'
49.0884,NoteOn Channel: 9,'153'
49.1088,TimingClock,'248'
49.1293,TimingClock,'248'
49.1498,TimingClock,'248'
49.1703,TimingClock,'248'
49.1908,TimingClock,'248'
49.2113,TimingClock,'248'
49.2318,TimingClock,'248'
49.2521,TimingClock,'248'
49.2728,TimingClock,'248'
49.2931,TimingClock,'248'
49.3138,TimingClock,'248'
49.3341,TimingClock,'248'
49.3546,TimingClock,'248'
49.3751,TimingClock,'248'
49.3957,TimingClock,'248'
49.4161,TimingClock,'248'
49.4366,TimingClock,'248'
49.4571,TimingClock,'248'
49.4777,TimingClock,'248'
49.498,TimingClock,'248'
49.5185,TimingClock,'248'
49.539,TimingClock,'248'
49.5595,TimingClock,'248'
49.5801,TimingClock,'248'
49.5801,NoteOn Channel: 9,'153'
49.6005,TimingClock,'248'
49.621,TimingClock,'248'
49.6415,TimingClock,'248'
49.662,TimingClock,'248'
49.6822,TimingClock,'248'
49.7029,TimingClock,'248'
49.7234,TimingClock,'248'
49.744,TimingClock,'248'
49.7644,TimingClock,'248'
49.785,TimingClock,'248'
49.8053,TimingClock,'248'
49.8259,TimingClock,'248'
49.8464,TimingClock,'248'
49.8669,TimingClock,'248'
49.8873,TimingClock,'248'
49.9079,TimingClock,'248'
49.9282,TimingClock,'248'
49.9489,TimingClock,'248'
49.9693,TimingClock,'248'
49.9897,TimingClock,'248'
50.0103,TimingClock,'248'
50.0306,TimingClock,'248'
50.0513,TimingClock,'248'
50.0719,TimingClock,'248'
50.0719,NoteOn Channel: 9,'153'
50.0922,TimingClock,'248'
50.1126,TimingClock,'248'
50.1332,TimingClock,'248'
50.1536,TimingClock,'248'
50.1741,TimingClock,'248'
50.1947,TimingClock,'248'
50.215,TimingClock,'248'
50.2356,TimingClock,'248'
50.2561,TimingClock,'248'
50.2766,TimingClock,'248'
50.297,TimingClock,'248'
50.3176,TimingClock,'248'
50.3379,TimingClock,'248'
50.3585,TimingClock,'248'
50.379,TimingClock,'248'
50.3995,TimingClock,'248'
50.42,TimingClock,'248'
50.4405,TimingClock,'248'
50.461,TimingClock,'248'
50.4815,TimingClock,'248'
50.502,TimingClock,'248'
50.5225,TimingClock,'248'
50.543,TimingClock,'248'
50.5636,TimingClock,'248'
50.5636,NoteOn Channel: 9,'153'
50.584,TimingClock,'248'
50.6043,TimingClock,'248'
50.625,TimingClock,'248'
50.6454,TimingClock,'248'
50.6659,TimingClock,'248'
50.6864,TimingClock,'248'
50.7068,TimingClock,'248'
50.7273,TimingClock,'248'
50.7479,TimingClock,'248'
50.7683,TimingClock,'248'
50.7888,TimingClock,'248'
50.8093,TimingClock,'248'
50.8298,TimingClock,'248'
50.8502,TimingClock,'248'
50.8708,TimingClock,'248'
50.8913,TimingClock,'248'
50.9117,TimingClock,'248'
50.9323,TimingClock,'248'
50.9526,TimingClock,'248'
50.9731,TimingClock,'248'
50.9936,TimingClock,'248'
51.0141,TimingClock,'248'
51.0346,TimingClock,'248'
51.0553,TimingClock,'248'
51.0553,NoteOn Channel: 9,'153'
51.0756,TimingClock,'248'
51.0961,TimingClock,'248'
51.1166,TimingClock,'248'
51.137,TimingClock,'248'
51.1575,TimingClock,'248'
51.1781,TimingClock,'248'
51.1985,TimingClock,'248'
51.2189,TimingClock,'248'
51.2395,TimingClock,'248'
51.26,TimingClock,'248'
51.2805,TimingClock,'248'
51.301,TimingClock,'248'
51.3216,TimingClock,'248'
51.342,TimingClock,'248'
51.3625,TimingClock,'248'
51.383,TimingClock,'248'
51.4034,TimingClock,'248'
51.424,TimingClock,'248'
51.4444,TimingClock,'248'
51.465,TimingClock,'248'
51.4852,TimingClock,'248'
51.5057,TimingClock,'248'
51.5264,TimingClock,'248'
51.547,TimingClock,'248'
51.547,NoteOn Channel: 9,'153'
51.5673,TimingClock,'248'
51.5878,TimingClock,'248'
51.6083,TimingClock,'248'
51.6288,TimingClock,'248'
51.6493,TimingClock,'248'
51.6699,TimingClock,'248'
51.6902,TimingClock,'248'
51.7108,TimingClock,'248'
51.7313,TimingClock,'248'
51.7518,TimingClock,'248'
51.7721,TimingClock,'248'
51.7927,TimingClock,'248'
51.8131,TimingClock,'248'
51.8336,TimingClock,'248'
51.8541,TimingClock,'248'
51.8746,TimingClock,'248'
51.8951,TimingClock,'248'
51.9156,TimingClock,'248'
51.9361,TimingClock,'248'
51.9566,TimingClock,'248'
51.977,TimingClock,'248'
51.9976,TimingClock,'248'
52.0179,TimingClock,'248'
52.0386,TimingClock,'248'
52.0386,NoteOn Channel: 9,'153'
52.059,TimingClock,'248'
52.0795,TimingClock,'248'
52.1,TimingClock,'248'
52.1205,TimingClock,'248'
52.141,TimingClock,'248'
52.1615,TimingClock,'248'
52.182,TimingClock,'248'
52.2025,TimingClock,'248'
52.223,TimingClock,'248'
52.2434,TimingClock,'248'
52.264,TimingClock,'248'
52.2844,TimingClock,'248'
52.3049,TimingClock,'248'
52.3254,TimingClock,'248'
52.3459,TimingClock,'248'
52.3664,TimingClock,'248'
52.3869,TimingClock,'248'
52.4072,TimingClock,'248'
52.4279,TimingClock,'248'
52.4482,TimingClock,'248'
52.4688,TimingClock,'248'
52.4893,TimingClock,'248'
52.5098,TimingClock,'248'
52.5304,TimingClock,'248'
52.5304,NoteOn Channel: 9,'153'
52.5507,TimingClock,'248'
52.5711,TimingClock,'248'
52.5917,TimingClock,'248'
52.6122,TimingClock,'248'
52.6327,TimingClock,'248'
52.6532,TimingClock,'248'
52.6737,TimingClock,'248'
52.6941,TimingClock,'248'
52.7146,TimingClock,'248'
52.7351,TimingClock,'248'
52.7557,TimingClock,'248'
52.7761,TimingClock,'248'
52.7966,TimingClock,'248'
52.817,TimingClock,'248'
52.8376,TimingClock,'248'
52.8581,TimingClock,'248'
52.8785,TimingClock,'248'
52.899,TimingClock,'248'
52.9194,TimingClock,'248'
52.94,TimingClock,'248'
52.9605,TimingClock,'248'
52.981,TimingClock,'248'
53.0015,TimingClock,'248'
53.022,TimingClock,'248'
53.022,NoteOn Channel: 9,'153'
53.0424,TimingClock,'248'
53.0628,TimingClock,'248'
53.0833,TimingClock,'248'
53.1039,TimingClock,'248'
53.1244,TimingClock,'248'
53.145,TimingClock,'248'
53.1654,TimingClock,'248'
53.1859,TimingClock,'248'
53.2061,TimingClock,'248'
53.2269,TimingClock,'248'
53.2473,TimingClock,'248'
53.2678,TimingClock,'248'
53.2883,TimingClock,'248'
53.3087,TimingClock,'248'
53.3293,TimingClock,'248'
53.3497,TimingClock,'248'
53.3702,TimingClock,'248'
53.3908,TimingClock,'248'
53.4111,TimingClock,'248'
53.4318,TimingClock,'248'
53.4521,TimingClock,'248'
53.4728,TimingClock,'248'
53.4931,TimingClock,'248'
53.5137,TimingClock,'248'
53.5137,NoteOn Channel: 9,'153'
53.5341,TimingClock,'248'
53.5547,TimingClock,'248'
53.5751,TimingClock,'248'
53.5956,TimingClock,'248'
53.6161,TimingClock,'248'
53.6366,TimingClock,'248'
53.657,TimingClock,'248'
53.6775,TimingClock,'248'
53.698,TimingClock,'248'
53.7184,TimingClock,'248'
53.739,TimingClock,'248'
53.7595,TimingClock,'248'
53.78,TimingClock,'248'
53.8005,TimingClock,'248'
53.821,TimingClock,'248'
53.8415,TimingClock,'248'
53.8619,TimingClock,'248'
53.8825,TimingClock,'248'
53.9029,TimingClock,'248'
53.9233,TimingClock,'248'
53.9438,TimingClock,'248'
53.9644,TimingClock,'248'
53.9849,TimingClock,'248'
54.0055,TimingClock,'248'
54.0055,NoteOn Channel: 9,'153'
54.0259,TimingClock,'248'
54.0463,TimingClock,'248'
54.0669,TimingClock,'248'
54.0872,TimingClock,'248'
54.1078,TimingClock,'248'
54.1284,TimingClock,'248'
54.1488,TimingClock,'248'
54.1693,TimingClock,'248'
54.1897,TimingClock,'248'
54.2102,TimingClock,'248'
54.2307,TimingClock,'248'
54.2512,TimingClock,'248'
54.2718,TimingClock,'248'
54.2922,TimingClock,'248'
54.3127,TimingClock,'248'
54.3331,TimingClock,'248'
54.3536,TimingClock,'248'
54.3741,TimingClock,'248'
54.3946,TimingClock,'248'
54.4151,TimingClock,'248'
54.4356,TimingClock,'248'
54.456,TimingClock,'248'
54.4766,TimingClock,'248'
54.4971,TimingClock,'248'
54.4971,NoteOn Channel: 9,'153'
54.5175,TimingClock,'248'
54.538,TimingClock,'248'
54.5585,TimingClock,'248'
54.579,TimingClock,'248'
54.5995,TimingClock,'248'
54.6199,TimingClock,'248'
54.6405,TimingClock,'248'
54.661,TimingClock,'248'
54.6814,TimingClock,'248'
54.702,TimingClock,'248'
54.7224,TimingClock,'248'
54.7429,TimingClock,'248'
54.7634,TimingClock,'248'
54.7839,TimingClock,'248'
54.8044,TimingClock,'248'
54.8249,TimingClock,'248'
54.8453,TimingClock,'248'
54.866,TimingClock,'248'
54.8862,TimingClock,'248'
54.9069,TimingClock,'248'
54.9273,TimingClock,'248'
54.9478,TimingClock,'248'
54.9683,TimingClock,'248'
54.9889,TimingClock,'248'
54.9889,NoteOn Channel: 9,'153'
55.0093,TimingClock,'248'
55.0298,TimingClock,'248'
55.0501,TimingClock,'248'
55.0708,TimingClock,'248'
55.0911,TimingClock,'248'
55.1117,TimingClock,'248'
55.1321,TimingClock,'248'
55.1526,TimingClock,'248'
55.1731,TimingClock,'248'
55.1936,TimingClock,'248'
55.2141,TimingClock,'248'
55.2346,TimingClock,'248'
55.2549,TimingClock,'248'
55.2756,TimingClock,'248'
55.296,TimingClock,'248'
55.3166,TimingClock,'248'
55.337,TimingClock,'248'
55.3575,TimingClock,'248'
55.378,TimingClock,'248'
55.3985,TimingClock,'248'
55.4191,TimingClock,'248'
55.4395,TimingClock,'248'
55.46,TimingClock,'248'
55.4806,TimingClock,'248'
55.4806,NoteOn Channel: 9,'153'
55.501,TimingClock,'248'
55.5214,TimingClock,'248'
55.5419,TimingClock,'248'
55.5622,TimingClock,'248'
55.5829,TimingClock,'248'
55.6035,TimingClock,'248'
55.6239,TimingClock,'248'
55.6443,TimingClock,'248'
55.6649,TimingClock,'248'
55.6853,TimingClock,'248'
55.7059,TimingClock,'248'
55.7262,TimingClock,'248'
55.7468,TimingClock,'248'
55.7673,TimingClock,'248'
55.7877,TimingClock,'248'
55.8082,TimingClock,'248'
55.8288,TimingClock,'248'
55.8493,TimingClock,'248'
55.8699,TimingClock,'248'
55.8902,TimingClock,'248'
55.9108,TimingClock,'248'
55.9312,TimingClock,'248'
55.9518,TimingClock,'248'
55.9723,TimingClock,'248'
55.9723,NoteOn Channel: 9,'153'
55.9926,TimingClock,'248'
56.0132,TimingClock,'248'
56.0336,TimingClock,'248'
56.0541,TimingClock,'248'
56.0746,TimingClock,'248'
56.0951,TimingClock,'248'
56.1157,TimingClock,'248'
56.136,TimingClock,'248'
56.1565,TimingClock,'248'
56.177,TimingClock,'248'
56.1975,TimingClock,'248'
56.2179,TimingClock,'248'
56.2385,TimingClock,'248'
56.259,TimingClock,'248'
56.2795,TimingClock,'248'
56.3,TimingClock,'248'
56.3205,TimingClock,'248'
56.341,TimingClock,'248'
56.3614,TimingClock,'248'
56.3819,TimingClock,'248'
56.4023,TimingClock,'248'
56.423,TimingClock,'248'
56.4434,TimingClock,'248'
56.464,TimingClock,'248'
56.464,NoteOn Channel: 9,'153'
56.4843,TimingClock,'248'
56.5048,TimingClock,'248'
56.5252,TimingClock,'248'
56.5458,TimingClock,'248'
56.5663,TimingClock,'248'
56.5869,TimingClock,'248'
56.6071,TimingClock,'248'
56.6278,TimingClock,'248'
56.6483,TimingClock,'248'
56.6688,TimingClock,'248'
56.6893,TimingClock,'248'
56.7098,TimingClock,'248'
56.7301,TimingClock,'248'
56.7508,TimingClock,'248'
56.7711,TimingClock,'248'
56.7917,TimingClock,'248'
56.8122,TimingClock,'248'
56.8326,TimingClock,'248'
56.853,TimingClock,'248'
56.8736,TimingClock,'248'
56.8942,TimingClock,'248'
56.9146,TimingClock,'248'
56.935,TimingClock,'248'
56.9558,TimingClock,'248'
56.9558,NoteOn Channel: 9,'153'
56.976,TimingClock,'248'
56.9965,TimingClock,'248'
57.017,TimingClock,'248'
57.0375,TimingClock,'248'
57.0579,TimingClock,'248'
57.0786,TimingClock,'248'
57.099,TimingClock,'248'
57.1195,TimingClock,'248'
57.14,TimingClock,'248'
57.1605,TimingClock,'248'
57.181,TimingClock,'248'
57.2014,TimingClock,'248'
57.2219,TimingClock,'248'
57.2423,TimingClock,'248'
57.2629,TimingClock,'248'
57.2834,TimingClock,'248'
57.3039,TimingClock,'248'
57.3244,TimingClock,'248'
57.3448,TimingClock,'248'
57.3652,TimingClock,'248'
57.3858,TimingClock,'248'
57.4063,TimingClock,'248'
57.4268,TimingClock,'248'
57.4474,TimingClock,'248'
57.4474,NoteOn Channel: 9,'153'
57.4677,TimingClock,'248'
57.4883,TimingClock,'248'
57.5087,TimingClock,'248'
57.5291,TimingClock,'248'
57.5498,TimingClock,'248'
57.5703,TimingClock,'248'
57.5906,TimingClock,'248'
57.6111,TimingClock,'248'
57.6316,TimingClock,'248'
57.6521,TimingClock,'248'
57.6725,TimingClock,'248'
57.6931,TimingClock,'248'
57.7136,TimingClock,'248'
57.734,TimingClock,'248'
57.7546,TimingClock,'248'
57.775,TimingClock,'248'
57.7956,TimingClock,'248'
57.816,TimingClock,'248'
57.8365,TimingClock,'248'
57.857,TimingClock,'248'
57.8774,TimingClock,'248'
57.898,TimingClock,'248'
57.9186,TimingClock,'248'
57.939,TimingClock,'248'
57.939,NoteOn Channel: 9,'153'
57.9595,TimingClock,'248'
57.98,TimingClock,'248'
58.0004,TimingClock,'248'
58.0208,TimingClock,'248'
58.0414,TimingClock,'248'
58.062,TimingClock,'248'
58.0824,TimingClock,'248'
58.1028,TimingClock,'248'
58.1234,TimingClock,'248'
58.1437,TimingClock,'248'
58.1643,TimingClock,'248'
58.1847,TimingClock,'248'
58.2052,TimingClock,'248'
58.2258,TimingClock,'248'
58.2463,TimingClock,'248'
58.2668,TimingClock,'248'
58.2873,TimingClock,'248'
58.3078,TimingClock,'248'
58.3282,TimingClock,'248'
58.3488,TimingClock,'248'
58.3691,TimingClock,'248'
58.3897,TimingClock,'248'
58.4101,TimingClock,'248'
58.4308,TimingClock,'248'
58.4308,NoteOn Channel: 9,'153'
58.4511,TimingClock,'248'
58.4716,TimingClock,'248'
58.4921,TimingClock,'248'
58.5126,TimingClock,'248'
58.5331,TimingClock,'248'
58.5537,TimingClock,'248'
58.574,TimingClock,'248'
58.5946,TimingClock,'248'
58.615,TimingClock,'248'
58.6355,TimingClock,'248'
58.656,TimingClock,'248'
58.6765,TimingClock,'248'
58.697,TimingClock,'248'
58.7176,TimingClock,'248'
58.738,TimingClock,'248'
58.7585,TimingClock,'248'
58.779,TimingClock,'248'
58.7995,TimingClock,'248'
58.82,TimingClock,'248'
58.8404,TimingClock,'248'
58.8607,TimingClock,'248'
58.8814,TimingClock,'248'
58.9019,TimingClock,'248'
58.9225,TimingClock,'248'
58.9225,NoteOn Channel: 9,'153'
58.9428,TimingClock,'248'
58.9634,TimingClock,'248'
58.9838,TimingClock,'248'
59.0044,TimingClock,'248'
59.0248,TimingClock,'248'
59.0454,TimingClock,'248'
59.0657,TimingClock,'248'
59.0862,TimingClock,'248'
59.1068,TimingClock,'248'
59.1273,TimingClock,'248'
59.1478,TimingClock,'248'
59.1683,TimingClock,'248'
59.1886,TimingClock,'248'
59.2091,TimingClock,'248'
59.2298,TimingClock,'248'
59.2502,TimingClock,'248'
59.2705,TimingClock,'248'
59.2911,TimingClock,'248'
59.3116,TimingClock,'248'
59.3321,TimingClock,'248'
59.3527,TimingClock,'248'
59.3732,TimingClock,'248'
59.3936,TimingClock,'248'
59.4141,TimingClock,'248'
59.4141,NoteOn Channel: 9,'153'
59.4344,TimingClock,'248'
59.455,TimingClock,'248'
59.4756,TimingClock,'248'
59.496,TimingClock,'248'
59.5164,TimingClock,'248'
59.537,TimingClock,'248'
59.5575,TimingClock,'248'
59.578,TimingClock,'248'
59.5985,TimingClock,'248'
59.619,TimingClock,'248'
59.6395,TimingClock,'248'
59.6601,TimingClock,'248'
59.6804,TimingClock,'248'
59.7009,TimingClock,'248'
59.7214,TimingClock,'248'
59.7419,TimingClock,'248'
59.7624,TimingClock,'248'
59.7828,TimingClock,'248'
59.8034,TimingClock,'248'
59.8237,TimingClock,'248'
59.8444,TimingClock,'248'
59.8648,TimingClock,'248'
59.8854,TimingClock,'248'
59.9059,TimingClock,'248'
59.9059,NoteOn Channel: 9,'153'
59.9263,TimingClock,'248'
59.9468,TimingClock,'248'
59.9673,TimingClock,'248'
59.9877,TimingClock,'248'
60.0081,TimingClock,'248'
