0,TimingClock,'248'
0.0195229,TimingClock,'248'
0.0390689,TimingClock,'248'
0.0585333,TimingClock,'248'
0.0781607,TimingClock,'248'
0.0976683,TimingClock,'248'
0.117201,TimingClock,'248'
0.136661,TimingClock,'248'
0.156026,TimingClock,'248'
0.175796,TimingClock,'248'
0.195299,TimingClock,'248'
0.214934,TimingClock,'248'
0.234266,TimingClock,'248'
0.253821,TimingClock,'248'
0.27329,TimingClock,'248'
0.292929,TimingClock,'248'
0.312502,TimingClock,'248'
0.312502,NoteOn Channel: 9,'153'
0.331967,TimingClock,'248'
0.351522,TimingClock,'248'
0.370895,TimingClock,'248'
0.390609,TimingClock,'248'
0.410184,TimingClock,'248'
0.42956,TimingClock,'248'
0.449044,TimingClock,'248'
0.468644,TimingClock,'248'
0.48815,TimingClock,'248'
0.507765,TimingClock,'248'
0.527286,TimingClock,'248'
0.546939,TimingClock,'248'
0.566311,TimingClock,'248'
0.585897,TimingClock,'248'
0.605392,TimingClock,'248'
0.624934,TimingClock,'248'
0.644344,TimingClock,'248'
0.66396,TimingClock,'248'
0.68336,TimingClock,'248'
0.703038,TimingClock,'248'
0.722481,TimingClock,'248'
0.742175,TimingClock,'248'
0.761486,TimingClock,'248'
0.781301,TimingClock,'248'
0.781301,NoteOn Channel: 9,'153'
0.800659,TimingClock,'248'
0.820186,TimingClock,'248'
0.83958,TimingClock,'248'
0.859102,TimingClock,'248'
0.878792,TimingClock,'248'
0.898395,TimingClock,'248'
0.917822,TimingClock,'248'
0.937264,TimingClock,'248'
0.956909,TimingClock,'248'
0.976488,TimingClock,'248'
0.995937,TimingClock,'248'
1.01541,TimingClock,'248'
1.03497,TimingClock,'248'
1.05457,TimingClock,'248'
1.07391,TimingClock,'248'
1.09351,TimingClock,'248'
1.11318,TimingClock,'248'
1.1327,TimingClock,'248'
1.15218,TimingClock,'248'
1.17167,TimingClock,'248'
1.19116,TimingClock,'248'
1.2108,TimingClock,'248'
1.23031,TimingClock,'248'
1.24993,TimingClock,'248'
1.24993,NoteOn Channel: 9,'153'
1.26927,TimingClock,'248'
1.28891,TimingClock,'248'
1.30829,TimingClock,'248'
1.32792,TimingClock,'248'
1.34735,TimingClock,'248'
1.36704,TimingClock,'248'
1.38641,TimingClock,'248'
1.406,TimingClock,'248'
1.42549,TimingClock,'248'
1.44507,TimingClock,'248'
1.46442,TimingClock,'248'
1.48416,TimingClock,'248'
1.50366,TimingClock,'248'
1.52318,TimingClock,'248'
1.54271,TimingClock,'248'
1.56209,TimingClock,'248'
1.58173,TimingClock,'248'
1.60131,TimingClock,'248'
1.62094,TimingClock,'248'
1.64022,TimingClock,'248'
1.65985,TimingClock,'248'
1.67941,TimingClock,'248'
1.69893,TimingClock,'248'
1.71854,TimingClock,'248'
1.71854,NoteOn Channel: 9,'153'
1.73806,TimingClock,'248'
1.75743,TimingClock,'248'
1.77705,TimingClock,'248'
1.79654,TimingClock,'248'
1.81604,TimingClock,'248'
1.8357,TimingClock,'248'
1.85514,TimingClock,'248'
1.87464,TimingClock,'248'
1.89407,TimingClock,'248'
1.91376,TimingClock,'248'
1.93315,TimingClock,'248'
1.95281,TimingClock,'248'
1.97221,TimingClock,'248'
1.99191,TimingClock,'248'
2.01121,TimingClock,'248'
2.03096,TimingClock,'248'
2.05042,TimingClock,'248'
2.07,TimingClock,'248'
2.08948,TimingClock,'248'
2.10904,TimingClock,'248'
2.12853,TimingClock,'248'
2.14807,TimingClock,'248'
2.16753,TimingClock,'248'
2.1873,TimingClock,'248'
2.1873,NoteOn Channel: 9,'153'
2.20666,TimingClock,'248'
2.22607,TimingClock,'248'
2.24567,TimingClock,'248'
2.26516,TimingClock,'248'
2.28467,TimingClock,'248'
2.30415,TimingClock,'248'
2.32388,TimingClock,'248'
2.34329,TimingClock,'248'
2.36281,TimingClock,'248'
2.38245,TimingClock,'248'
2.40193,TimingClock,'248'
2.42142,TimingClock,'248'
2.44106,TimingClock,'248'
2.46051,TimingClock,'248'
2.48006,TimingClock,'248'
2.49956,TimingClock,'248'
2.51906,TimingClock,'248'
2.5384,TimingClock,'248'
2.55816,TimingClock,'248'
2.57768,TimingClock,'248'
2.59719,TimingClock,'248'
2.61684,TimingClock,'248'
2.63627,TimingClock,'248'
2.6558,TimingClock,'248'
2.6558,NoteOn Channel: 9,'153'
2.67531,TimingClock,'248'
2.69494,TimingClock,'248'
2.71429,TimingClock,'248'
2.7339,TimingClock,'248'
2.75346,TimingClock,'248'
2.77293,TimingClock,'248'
2.79244,TimingClock,'248'
2.81194,TimingClock,'248'
2.83155,TimingClock,'248'
2.85105,TimingClock,'248'
2.87054,TimingClock,'248'
2.89017,TimingClock,'248'
2.90964,TimingClock,'248'
2.92917,TimingClock,'248'
2.94858,TimingClock,'248'
2.96806,TimingClock,'248'
2.98771,TimingClock,'248'
3.00724,TimingClock,'248'
3.02692,TimingClock,'248'
3.04631,TimingClock,'248'
3.06591,TimingClock,'248'
3.08549,TimingClock,'248'
3.10496,TimingClock,'248'
3.12455,TimingClock,'248'
3.12455,NoteOn Channel: 9,'153'
3.14393,TimingClock,'248'
3.16349,TimingClock,'248'
3.18305,TimingClock,'248'
3.20254,TimingClock,'248'
3.22205,TimingClock,'248'
3.24167,TimingClock,'248'
3.26117,TimingClock,'248'
3.28069,TimingClock,'248'
3.30002,TimingClock,'248'
3.31968,TimingClock,'248'
3.3393,TimingClock,'248'
3.35883,TimingClock,'248'
3.37825,TimingClock,'248'
3.39798,TimingClock,'248'
3.41728,TimingClock,'248'
3.43692,TimingClock,'248'
3.45641,TimingClock,'248'
3.47604,TimingClock,'248'
3.4954,TimingClock,'248'
3.51493,TimingClock,'248'
3.5344,TimingClock,'248'
3.55406,TimingClock,'248'
3.57355,TimingClock,'248'
3.59332,TimingClock,'248'
3.59332,NoteOn Channel: 9,'153'
3.61255,TimingClock,'248'
3.63217,TimingClock,'248'
3.65166,TimingClock,'248'
3.67124,TimingClock,'248'
3.69071,TimingClock,'248'
3.71036,TimingClock,'248'
3.72991,TimingClock,'248'
3.74938,TimingClock,'248'
3.76884,TimingClock,'248'
3.78831,TimingClock,'248'
3.80794,TimingClock,'248'
3.82743,TimingClock,'248'
3.84706,TimingClock,'248'
3.86639,TimingClock,'248'
3.88605,TimingClock,'248'
3.90555,TimingClock,'248'
3.92517,TimingClock,'248'
3.94455,TimingClock,'248'
3.96409,TimingClock,'248'
3.98368,TimingClock,'248'
4.00309,TimingClock,'248'
4.02274,TimingClock,'248'
4.04236,TimingClock,'248'
4.06177,TimingClock,'248'
4.06177,NoteOn Channel: 9,'153'
4.08129,TimingClock,'248'
4.1009,TimingClock,'248'
4.12029,TimingClock,'248'
4.13991,TimingClock,'248'
4.15941,TimingClock,'248'
4.17904,TimingClock,'248'
4.19843,TimingClock,'248'
4.21803,TimingClock,'248'
4.23743,TimingClock,'248'
4.25706,TimingClock,'248'
4.27643,TimingClock,'248'
4.2961,TimingClock,'248'
4.31567,TimingClock,'248'
4.33515,TimingClock,'248'
4.35463,TimingClock,'248'
4.37419,TimingClock,'248'
4.39379,TimingClock,'248'
4.41329,TimingClock,'248'
4.43291,TimingClock,'248'
4.45228,TimingClock,'248'
4.47177,TimingClock,'248'
4.49136,TimingClock,'248'
4.51091,TimingClock,'248'
4.53048,TimingClock,'248'
4.53048,NoteOn Channel: 9,'153'
4.5498,TimingClock,'248'
4.5694,TimingClock,'248'
4.58905,TimingClock,'248'
4.60845,TimingClock,'248'
4.62803,TimingClock,'248'
4.64766,TimingClock,'248'
4.66705,TimingClock,'248'
4.68665,TimingClock,'248'
4.70622,TimingClock,'248'
4.72569,TimingClock,'248'
4.74518,TimingClock,'248'
4.76487,TimingClock,'248'
4.78431,TimingClock,'248'
4.80392,TimingClock,'248'
4.82331,TimingClock,'248'
4.84297,TimingClock,'248'
4.86241,TimingClock,'248'
4.88193,TimingClock,'248'
4.90141,TimingClock,'248'
4.92103,TimingClock,'248'
4.94054,TimingClock,'248'
4.95998,TimingClock,'248'
4.97941,TimingClock,'248'
4.99906,TimingClock,'248'
4.99906,NoteOn Channel: 9,'153'
5.01856,TimingClock,'248'
5.0381,TimingClock,'248'
5.05767,TimingClock,'248'
5.07724,TimingClock,'248'
5.09679,TimingClock,'248'
5.11628,TimingClock,'248'
5.13578,TimingClock,'248'
5.1553,TimingClock,'248'
5.17482,TimingClock,'248'
5.19417,TimingClock,'248'
5.21388,TimingClock,'248'
5.23342,TimingClock,'248'
5.25303,TimingClock,'248'
5.27243,TimingClock,'248'
5.2919,TimingClock,'248'
5.31163,TimingClock,'248'
5.33106,TimingClock,'248'
5.35054,TimingClock,'248'
5.37016,TimingClock,'248'
5.38967,TimingClock,'248'
5.40917,TimingClock,'248'
5.42869,TimingClock,'248'
5.44818,TimingClock,'248'
5.46779,TimingClock,'248'
5.46779,NoteOn Channel: 9,'153'
5.4873,TimingClock,'248'
5.50693,TimingClock,'248'
5.5263,TimingClock,'248'
5.54591,TimingClock,'248'
5.56535,TimingClock,'248'
5.58493,TimingClock,'248'
5.60447,TimingClock,'248'
5.62403,TimingClock,'248'
5.64357,TimingClock,'248'
5.66292,TimingClock,'248'
5.68254,TimingClock,'248'
5.702,TimingClock,'248'
5.72167,TimingClock,'248'
5.74122,TimingClock,'248'
5.76061,TimingClock,'248'
5.7802,TimingClock,'248'
5.79977,TimingClock,'248'
5.81933,TimingClock,'248'
5.83879,TimingClock,'248'
5.8583,TimingClock,'248'
5.87785,TimingClock,'248'
5.89743,TimingClock,'248'
5.91692,TimingClock,'248'
5.93647,TimingClock,'248'
5.93647,NoteOn Channel: 9,'153'
5.95587,TimingClock,'248'
5.97543,TimingClock,'248'
5.99505,TimingClock,'248'
6.01444,TimingClock,'248'
6.03405,TimingClock,'248'
6.05354,TimingClock,'248'
6.07304,TimingClock,'248'
6.09269,TimingClock,'248'
6.11217,TimingClock,'248'
6.13168,TimingClock,'248'
6.15103,TimingClock,'248'
6.17074,TimingClock,'248'
6.19022,TimingClock,'248'
6.20997,TimingClock,'248'
6.22934,TimingClock,'248'
6.24893,TimingClock,'248'
6.26841,TimingClock,'248'
6.28784,TimingClock,'248'
6.30744,TimingClock,'248'
6.32698,TimingClock,'248'
6.34645,TimingClock,'248'
6.36596,TimingClock,'248'
6.38555,TimingClock,'248'
6.40516,TimingClock,'248'
6.40516,NoteOn Channel: 9,'153'
6.42451,TimingClock,'248'
6.44405,TimingClock,'248'
6.46355,TimingClock,'248'
6.48305,TimingClock,'248'
6.50263,TimingClock,'248'
6.52231,TimingClock,'248'
6.54179,TimingClock,'248'
6.56116,TimingClock,'248'
6.581,TimingClock,'248'
6.60018,TimingClock,'248'
6.61977,TimingClock,'248'
6.63951,TimingClock,'248'
6.65891,TimingClock,'248'
6.67841,TimingClock,'248'
6.69803,TimingClock,'248'
6.71759,TimingClock,'248'
6.73691,TimingClock,'248'
6.75641,TimingClock,'248'
6.77591,TimingClock,'248'
6.79555,TimingClock,'248'
6.81518,TimingClock,'248'
6.83467,TimingClock,'248'
6.85417,TimingClock,'248'
6.87385,TimingClock,'248'
6.87385,NoteOn Channel: 9,'153'
6.89327,TimingClock,'248'
6.91291,TimingClock,'248'
6.93224,TimingClock,'248'
6.95191,TimingClock,'248'
6.9713,TimingClock,'248'
6.99099,TimingClock,'248'
7.01046,TimingClock,'248'
7.02999,TimingClock,'248'
7.04933,TimingClock,'248'
7.06896,TimingClock,'248'
7.08843,TimingClock,'248'
7.10797,TimingClock,'248'
7.12758,TimingClock,'248'
7.14709,TimingClock,'248'
7.16656,TimingClock,'248'
7.18609,TimingClock,'248'
7.2057,TimingClock,'248'
7.22528,TimingClock,'248'
7.24481,TimingClock,'248'
7.26414,TimingClock,'248'
7.28386,TimingClock,'248'
7.30324,TimingClock,'248'
7.32287,TimingClock,'248'
7.34255,TimingClock,'248'
7.34255,NoteOn Channel: 9,'153'
7.36192,TimingClock,'248'
7.38142,TimingClock,'248'
7.40104,TimingClock,'248'
7.42054,TimingClock,'248'
7.44005,TimingClock,'248'
7.45968,TimingClock,'248'
7.47891,TimingClock,'248'
7.49869,TimingClock,'248'
7.5182,TimingClock,'248'
7.53773,TimingClock,'248'
7.55717,TimingClock,'248'
7.5768,TimingClock,'248'
7.59631,TimingClock,'248'
7.61586,TimingClock,'248'
7.6353,TimingClock,'248'
7.65477,TimingClock,'248'
7.67432,TimingClock,'248'
7.69394,TimingClock,'248'
7.71342,TimingClock,'248'
7.7329,TimingClock,'248'
7.75255,TimingClock,'248'
7.772,TimingClock,'248'
7.79154,TimingClock,'248'
7.81119,TimingClock,'248'
7.81119,NoteOn Channel: 9,'153'
7.83067,TimingClock,'248'
7.85006,TimingClock,'248'
7.86966,TimingClock,'248'
7.88909,TimingClock,'248'
7.9086,TimingClock,'248'
7.92818,TimingClock,'248'
7.94773,TimingClock,'248'
7.96729,TimingClock,'248'
7.98692,TimingClock,'248'
8.0063,TimingClock,'248'
8.02591,TimingClock,'248'
8.04542,TimingClock,'248'
8.06489,TimingClock,'248'
8.08442,TimingClock,'248'
8.10404,TimingClock,'248'
8.12354,TimingClock,'248'
8.14304,TimingClock,'248'
8.16261,TimingClock,'248'
8.18204,TimingClock,'248'
8.20162,TimingClock,'248'
8.22114,TimingClock,'248'
8.24069,TimingClock,'248'
8.26018,TimingClock,'248'
8.27993,TimingClock,'248'
8.27993,NoteOn Channel: 9,'153'
8.29915,TimingClock,'248'
8.31879,TimingClock,'248'
8.33829,TimingClock,'248'
8.35791,TimingClock,'248'
8.37729,TimingClock,'248'
8.39705,TimingClock,'248'
8.41642,TimingClock,'248'
8.43597,TimingClock,'248'
8.45536,TimingClock,'248'
8.47507,TimingClock,'248'
8.49453,TimingClock,'248'
8.51396,TimingClock,'248'
8.53366,TimingClock,'248'
8.55318,TimingClock,'248'
8.57266,TimingClock,'248'
8.59211,TimingClock,'248'
8.61166,TimingClock,'248'
8.63129,TimingClock,'248'
8.65071,TimingClock,'248'
8.6703,TimingClock,'248'
8.68992,TimingClock,'248'
8.70917,TimingClock,'248'
8.72892,TimingClock,'248'
8.74855,TimingClock,'248'
8.74855,NoteOn Channel: 9,'153'
8.76782,TimingClock,'248'
8.78741,TimingClock,'248'
8.80704,TimingClock,'248'
8.8266,TimingClock,'248'
8.84605,TimingClock,'248'
8.8657,TimingClock,'248'
8.88504,TimingClock,'248'
8.90466,TimingClock,'248'
8.92416,TimingClock,'248'
8.94353,TimingClock,'248'
8.9631,TimingClock,'248'
8.98281,TimingClock,'248'
9.00218,TimingClock,'248'
9.02194,TimingClock,'248'
9.04129,TimingClock,'248'
9.06093,TimingClock,'248'
9.08036,TimingClock,'248'
9.09992,TimingClock,'248'
9.11927,TimingClock,'248'
9.13897,TimingClock,'248'
9.15842,TimingClock,'248'
9.17804,TimingClock,'248'
9.19754,TimingClock,'248'
9.21717,TimingClock,'248'
9.21717,NoteOn Channel: 9,'153'
9.23655,TimingClock,'248'
9.25604,TimingClock,'248'
9.2757,TimingClock,'248'
9.29517,TimingClock,'248'
9.31467,TimingClock,'248'
9.33429,TimingClock,'248'
9.35371,TimingClock,'248'
9.37319,TimingClock,'248'
9.39277,TimingClock,'248'
9.41231,TimingClock,'248'
9.43197,TimingClock,'248'
9.45143,TimingClock,'248'
9.47082,TimingClock,'248'
9.49041,TimingClock,'248'
9.50994,TimingClock,'248'
9.52955,TimingClock,'248'
9.54904,TimingClock,'248'
9.56855,TimingClock,'248'
9.58801,TimingClock,'248'
9.60753,TimingClock,'248'
9.62711,TimingClock,'248'
9.6467,TimingClock,'248'
9.66601,TimingClock,'248'
9.68593,TimingClock,'248'
9.68593,NoteOn Channel: 9,'153'
9.70517,TimingClock,'248'
9.72481,TimingClock,'248'
9.74418,TimingClock,'248'
9.76385,TimingClock,'248'
9.78332,TimingClock,'248'
9.80307,TimingClock,'248'
9.82241,TimingClock,'248'
9.84198,TimingClock,'248'
9.86131,TimingClock,'248'
9.8811,TimingClock,'248'
9.90051,TimingClock,'248'
9.92,TimingClock,'248'
9.9396,TimingClock,'248'
9.95903,TimingClock,'248'
9.9787,TimingClock,'248'
9.99815,TimingClock,'248'
10.0177,TimingClock,'248'
10.0372,TimingClock,'248'
10.0568,TimingClock,'248'
10.0763,TimingClock,'248'
10.096,TimingClock,'248'
10.1154,TimingClock,'248'
10.135,TimingClock,'248'
10.1545,TimingClock,'248'
10.1545,NoteOn Channel: 9,'153'
10.1739,TimingClock,'248'
10.1933,TimingClock,'248'
10.213,TimingClock,'248'
10.2324,TimingClock,'248'
10.252,TimingClock,'248'
10.2717,TimingClock,'248'
10.2909,TimingClock,'248'
10.3106,TimingClock,'248'
10.3302,TimingClock,'248'
10.3497,TimingClock,'248'
10.3692,TimingClock,'248'
10.3888,TimingClock,'248'
10.4084,TimingClock,'248'
10.4278,TimingClock,'248'
10.4473,TimingClock,'248'
10.4669,TimingClock,'248'
10.4863,TimingClock,'248'
10.5058,TimingClock,'248'
10.5254,TimingClock,'248'
10.5448,TimingClock,'248'
10.5644,TimingClock,'248'
10.584,TimingClock,'248'
10.6034,TimingClock,'248'
10.6232,TimingClock,'248'
10.6232,NoteOn Channel: 9,'153'
10.6426,TimingClock,'248'
10.662,TimingClock,'248'
10.6817,TimingClock,'248'
10.7012,TimingClock,'248'
10.7207,TimingClock,'248'
10.7403,TimingClock,'248'
10.7598,TimingClock,'248'
10.7793,TimingClock,'248'
10.7988,TimingClock,'248'
10.8183,TimingClock,'248'
10.8379,TimingClock,'248'
10.8574,TimingClock,'248'
10.8769,TimingClock,'248'
10.8965,TimingClock,'248'
10.916,TimingClock,'248'
10.9354,TimingClock,'248'
10.9551,TimingClock,'248'
10.9744,TimingClock,'248'
10.9941,TimingClock,'248'
11.0137,TimingClock,'248'
11.0331,TimingClock,'248'
11.0525,TimingClock,'248'
11.0722,TimingClock,'248'
11.0919,TimingClock,'248'
11.0919,NoteOn Channel: 9,'153'
11.1112,TimingClock,'248'
11.1307,TimingClock,'248'
11.1503,TimingClock,'248'
11.1699,TimingClock,'248'
11.1893,TimingClock,'248'
11.209,TimingClock,'248'
11.2284,TimingClock,'248'
11.2479,TimingClock,'248'
11.2673,TimingClock,'248'
11.2871,TimingClock,'248'
11.3065,TimingClock,'248'
11.326,TimingClock,'248'
11.3455,TimingClock,'248'
11.365,TimingClock,'248'
11.3847,TimingClock,'248'
11.4042,TimingClock,'248'
11.4237,TimingClock,'248'
11.4432,TimingClock,'248'
11.4628,TimingClock,'248'
11.4823,TimingClock,'248'
11.5019,TimingClock,'248'
11.5213,TimingClock,'248'
11.5409,TimingClock,'248'
11.5605,TimingClock,'248'
11.5605,NoteOn Channel: 9,'153'
11.5799,TimingClock,'248'
11.5993,TimingClock,'248'
11.6189,TimingClock,'248'
11.6385,TimingClock,'248'
11.658,TimingClock,'248'
11.6777,TimingClock,'248'
11.697,TimingClock,'248'
11.7167,TimingClock,'248'
11.7359,TimingClock,'248'
11.7557,TimingClock,'248'
11.7752,TimingClock,'248'
11.7948,TimingClock,'248'
11.8142,TimingClock,'248'
11.8338,TimingClock,'248'
11.8532,TimingClock,'248'
11.8729,TimingClock,'248'
11.8921,TimingClock,'248'
11.9118,TimingClock,'248'
11.9314,TimingClock,'248'
11.9509,TimingClock,'248'
11.9704,TimingClock,'248'
11.9901,TimingClock,'248'
12.0095,TimingClock,'248'
12.029,TimingClock,'248'
12.029,NoteOn Channel: 9,'153'
12.0486,TimingClock,'248'
12.0681,TimingClock,'248'
12.0876,TimingClock,'248'
12.1072,TimingClock,'248'
12.1267,TimingClock,'248'
12.1463,TimingClock,'248'
12.1657,TimingClock,'248'
12.1852,TimingClock,'248'
12.205,TimingClock,'248'
12.2243,TimingClock,'248'
12.2439,TimingClock,'248'
12.2632,TimingClock,'248'
12.2829,TimingClock,'248'
12.3025,TimingClock,'248'
12.3219,TimingClock,'248'
12.3414,TimingClock,'248'
12.361,TimingClock,'248'
12.3806,TimingClock,'248'
12.4,TimingClock,'248'
12.4197,TimingClock,'248'
12.4391,TimingClock,'248'
12.4586,TimingClock,'248'
12.4782,TimingClock,'248'
12.4979,TimingClock,'248'
12.4979,NoteOn Channel: 9,'153'
12.5172,TimingClock,'248'
12.5368,TimingClock,'248'
12.5563,TimingClock,'248'
12.5759,TimingClock,'248'
12.5952,TimingClock,'248'
12.6149,TimingClock,'248'
12.6344,TimingClock,'248'
12.6538,TimingClock,'248'
12.6735,TimingClock,'248'
12.693,TimingClock,'248'
12.7124,TimingClock,'248'
12.732,TimingClock,'248'
12.7515,TimingClock,'248'
12.7711,TimingClock,'248'
12.7907,TimingClock,'248'
12.8102,TimingClock,'248'
12.8297,TimingClock,'248'
12.8492,TimingClock,'248'
12.8687,TimingClock,'248'
12.8882,TimingClock,'248'
12.9079,TimingClock,'248'
12.9273,TimingClock,'248'
12.9469,TimingClock,'248'
12.9665,TimingClock,'248'
12.9665,NoteOn Channel: 9,'153'
12.9859,TimingClock,'248'
13.0054,TimingClock,'248'
13.0249,TimingClock,'248'
13.0445,TimingClock,'248'
13.0641,TimingClock,'248'
13.0836,TimingClock,'248'
13.1031,TimingClock,'248'
13.1226,TimingClock,'248'
13.142,TimingClock,'248'
13.1617,TimingClock,'248'
13.1812,TimingClock,'248'
13.2007,TimingClock,'248'
13.2202,TimingClock,'248'
13.2398,TimingClock,'248'
13.2593,TimingClock,'248'
13.279,TimingClock,'248'
13.2983,TimingClock,'248'
13.3178,TimingClock,'248'
13.3374,TimingClock,'248'
13.3569,TimingClock,'248'
13.3764,TimingClock,'248'
13.3959,TimingClock,'248'
13.4155,TimingClock,'248'
13.4352,TimingClock,'248'
13.4352,NoteOn Channel: 9,'153'
13.4546,TimingClock,'248'
13.474,TimingClock,'248'
13.4937,TimingClock,'248'
13.5132,TimingClock,'248'
13.5327,TimingClock,'248'
13.5523,TimingClock,'248'
13.5717,TimingClock,'248'
13.5911,TimingClock,'248'
13.6108,TimingClock,'248'
13.6303,TimingClock,'248'
13.6499,TimingClock,'248'
13.6693,TimingClock,'248'
13.6888,TimingClock,'248'
13.7083,TimingClock,'248'
13.7279,TimingClock,'248'
13.7476,TimingClock,'248'
13.767,TimingClock,'248'
13.7866,TimingClock,'248'
13.8061,TimingClock,'248'
13.8257,TimingClock,'248'
13.8451,TimingClock,'248'
13.8647,TimingClock,'248'
13.8842,TimingClock,'248'
13.9039,TimingClock,'248'
13.9039,NoteOn Channel: 9,'153'
13.923,TimingClock,'248'
13.9428,TimingClock,'248'
13.9622,TimingClock,'248'
13.9819,TimingClock,'248'
14.0012,TimingClock,'248'
14.0208,TimingClock,'248'
14.0405,TimingClock,'248'
14.0599,TimingClock,'248'
14.0794,TimingClock,'248'
14.0988,TimingClock,'248'
14.1185,TimingClock,'248'
14.1381,TimingClock,'248'
14.1576,TimingClock,'248'
14.1769,TimingClock,'248'
14.1967,TimingClock,'248'
14.2162,TimingClock,'248'
14.2357,TimingClock,'248'
14.2551,TimingClock,'248'
14.2748,TimingClock,'248'
14.2943,TimingClock,'248'
14.3138,TimingClock,'248'
14.3333,TimingClock,'248'
14.3529,TimingClock,'248'
14.3724,TimingClock,'248'
14.3724,NoteOn Channel: 9,'153'
14.3919,TimingClock,'248'
14.4114,TimingClock,'248'
14.4309,TimingClock,'248'
14.4504,TimingClock,'248'
14.4699,TimingClock,'248'
14.4896,TimingClock,'248'
14.5091,TimingClock,'248'
14.5286,TimingClock,'248'
14.5481,TimingClock,'248'
14.5677,TimingClock,'248'
14.587,TimingClock,'248'
14.6066,TimingClock,'248'
14.6262,TimingClock,'248'
14.6457,TimingClock,'248'
14.6653,TimingClock,'248'
14.6849,TimingClock,'248'
14.7043,TimingClock,'248'
14.7239,TimingClock,'248'
14.7433,TimingClock,'248'
14.7629,TimingClock,'248'
14.7823,TimingClock,'248'
14.8019,TimingClock,'248'
14.8215,TimingClock,'248'
14.8412,TimingClock,'248'
14.8412,NoteOn Channel: 9,'153'
14.8604,TimingClock,'248'
14.88,TimingClock,'248'
14.8996,TimingClock,'248'
14.919,TimingClock,'248'
14.9387,TimingClock,'248'
14.9583,TimingClock,'248'
14.9778,TimingClock,'248'
14.9972,TimingClock,'248'
15.0168,TimingClock,'248'
15.0363,TimingClock,'248'
15.0559,TimingClock,'248'
15.0753,TimingClock,'248'
15.0949,TimingClock,'248'
15.1145,TimingClock,'248'
15.1339,TimingClock,'248'
15.1535,TimingClock,'248'
15.1729,TimingClock,'248'
15.1925,TimingClock,'248'
15.212,TimingClock,'248'
15.2315,TimingClock,'248'
15.2509,TimingClock,'248'
15.2707,TimingClock,'248'
15.2901,TimingClock,'248'
15.3099,TimingClock,'248'
15.3099,NoteOn Channel: 9,'153'
15.3291,TimingClock,'248'
15.3487,TimingClock,'248'
15.3683,TimingClock,'248'
15.3878,TimingClock,'248'
15.4072,TimingClock,'248'
15.427,TimingClock,'248'
15.4463,TimingClock,'248'
15.4658,TimingClock,'248'
15.4853,TimingClock,'248'
15.5048,TimingClock,'248'
15.5244,TimingClock,'248'
15.544,TimingClock,'248'
15.5634,TimingClock,'248'
15.583,TimingClock,'248'
15.6027,TimingClock,'248'
15.6221,TimingClock,'248'
15.6417,TimingClock,'248'
15.6612,TimingClock,'248'
15.6808,TimingClock,'248'
15.7001,TimingClock,'248'
15.7197,TimingClock,'248'
15.7393,TimingClock,'248'
15.7589,TimingClock,'248'
15.7786,TimingClock,'248'
15.7786,NoteOn Channel: 9,'153'
15.7978,TimingClock,'248'
15.8174,TimingClock,'248'
15.8369,TimingClock,'248'
15.8564,TimingClock,'248'
15.8759,TimingClock,'248'
15.8957,TimingClock,'248'
15.9149,TimingClock,'248'
15.9345,TimingClock,'248'
15.9541,TimingClock,'248'
15.9737,TimingClock,'248'
15.9932,TimingClock,'248'
16.0126,TimingClock,'248'
16.0322,TimingClock,'248'
16.0519,TimingClock,'248'
16.0713,TimingClock,'248'
16.0909,TimingClock,'248'
16.1103,TimingClock,'248'
16.1299,TimingClock,'248'
16.1494,TimingClock,'248'
16.1688,TimingClock,'248'
16.1884,TimingClock,'248'
16.2079,TimingClock,'248'
16.2276,TimingClock,'248'
16.247,TimingClock,'248'
16.247,NoteOn Channel: 9,'153'
16.2665,TimingClock,'248'
16.2861,TimingClock,'248'
16.3057,TimingClock,'248'
16.325,TimingClock,'248'
16.3446,TimingClock,'248'
16.3643,TimingClock,'248'
16.3837,TimingClock,'248'
16.4032,TimingClock,'248'
16.4228,TimingClock,'248'
16.4423,TimingClock,'248'
16.4618,TimingClock,'248'
16.4813,TimingClock,'248'
16.5009,TimingClock,'248'
16.5204,TimingClock,'248'
16.5399,TimingClock,'248'
16.5595,TimingClock,'248'
16.5788,TimingClock,'248'
16.5985,TimingClock,'248'
16.618,TimingClock,'248'
16.6376,TimingClock,'248'
16.6571,TimingClock,'248'
16.6767,TimingClock,'248'
16.6962,TimingClock,'248'
16.7157,TimingClock,'248'
16.7157,NoteOn Channel: 9,'153'
16.7352,TimingClock,'248'
16.7548,TimingClock,'248'
16.7742,TimingClock,'248'
16.7937,TimingClock,'248'
16.8133,TimingClock,'248'
16.8329,TimingClock,'248'
16.8523,TimingClock,'248'
16.8719,TimingClock,'248'
16.8913,TimingClock,'248'
16.9108,TimingClock,'248'
16.9305,TimingClock,'248'
16.9501,TimingClock,'248'
16.9694,TimingClock,'248'
16.9891,TimingClock,'248'
17.0087,TimingClock,'248'
17.028,TimingClock,'248'
17.0477,TimingClock,'248'
17.0671,TimingClock,'248'
17.0867,TimingClock,'248'
17.1061,TimingClock,'248'
17.1257,TimingClock,'248'
17.1451,TimingClock,'248'
17.1648,TimingClock,'248'
17.1844,TimingClock,'248'
17.1844,NoteOn Channel: 9,'153'
17.2038,TimingClock,'248'
17.2233,TimingClock,'248'
17.2428,TimingClock,'248'
17.2623,TimingClock,'248'
17.2818,TimingClock,'248'
17.3016,TimingClock,'248'
17.3209,TimingClock,'248'
17.3404,TimingClock,'248'
17.3599,TimingClock,'248'
17.3796,TimingClock,'248'
17.399,TimingClock,'248'
17.4185,TimingClock,'248'
17.438,TimingClock,'248'
17.4576,TimingClock,'248'
17.4772,TimingClock,'248'
17.4967,TimingClock,'248'
17.5163,TimingClock,'248'
17.5359,TimingClock,'248'
17.5553,TimingClock,'248'
17.5748,TimingClock,'248'
17.5945,TimingClock,'248'
17.6139,TimingClock,'248'
17.6335,TimingClock,'248'
17.6529,TimingClock,'248'
17.6529,NoteOn Channel: 9,'153'
17.6724,TimingClock,'248'
17.6919,TimingClock,'248'
17.7116,TimingClock,'248'
17.731,TimingClock,'248'
17.7505,TimingClock,'248'
17.7701,TimingClock,'248'
17.7896,TimingClock,'248'
17.809,TimingClock,'248'
17.8287,TimingClock,'248'
17.8481,TimingClock,'248'
17.8678,TimingClock,'248'
17.8872,TimingClock,'248'
17.9068,TimingClock,'248'
17.9265,TimingClock,'248'
17.9459,TimingClock,'248'
17.9653,TimingClock,'248'
17.9849,TimingClock,'248'
18.0044,TimingClock,'248'
18.0241,TimingClock,'248'
18.0435,TimingClock,'248'
18.063,TimingClock,'248'
18.0825,TimingClock,'248'
18.1022,TimingClock,'248'
18.1217,TimingClock,'248'
18.1217,NoteOn Channel: 9,'153'
18.141,TimingClock,'248'
18.1608,TimingClock,'248'
18.1803,TimingClock,'248'
18.1997,TimingClock,'248'
18.2192,TimingClock,'248'
18.2388,TimingClock,'248'
18.2582,TimingClock,'248'
18.2778,TimingClock,'248'
18.2974,TimingClock,'248'
18.3169,TimingClock,'248'
18.3365,TimingClock,'248'
18.3558,TimingClock,'248'
18.3755,TimingClock,'248'
18.395,TimingClock,'248'
18.4146,TimingClock,'248'
18.434,TimingClock,'248'
18.4535,TimingClock,'248'
18.473,TimingClock,'248'
18.4927,TimingClock,'248'
18.5122,TimingClock,'248'
18.5316,TimingClock,'248'
18.5512,TimingClock,'248'
18.5708,TimingClock,'248'
18.5904,TimingClock,'248'
18.5904,NoteOn Channel: 9,'153'
18.6099,TimingClock,'248'
18.6293,TimingClock,'248'
18.6489,TimingClock,'248'
18.6683,TimingClock,'248'
18.6878,TimingClock,'248'
18.7076,TimingClock,'248'
18.727,TimingClock,'248'
18.7466,TimingClock,'248'
18.7659,TimingClock,'248'
18.7857,TimingClock,'248'
18.805,TimingClock,'248'
18.8247,TimingClock,'248'
18.8441,TimingClock,'248'
18.8637,TimingClock,'248'
18.8832,TimingClock,'248'
18.9027,TimingClock,'248'
18.9221,TimingClock,'248'
18.9419,TimingClock,'248'
18.9613,TimingClock,'248'
18.9809,TimingClock,'248'
19.0004,TimingClock,'248'
19.0199,TimingClock,'248'
19.0395,TimingClock,'248'
19.059,TimingClock,'248'
19.059,NoteOn Channel: 9,'153'
19.0784,TimingClock,'248'
19.0981,TimingClock,'248'
19.1175,TimingClock,'248'
19.137,TimingClock,'248'
19.1566,TimingClock,'248'
19.1761,TimingClock,'248'
19.1957,TimingClock,'248'
19.2152,TimingClock,'248'
19.2347,TimingClock,'248'
19.2542,TimingClock,'248'
19.2738,TimingClock,'248'
19.2933,TimingClock,'248'
19.313,TimingClock,'248'
19.3325,TimingClock,'248'
19.3519,TimingClock,'248'
19.3713,TimingClock,'248'
19.3909,TimingClock,'248'
19.4106,TimingClock,'248'
19.43,TimingClock,'248'
19.4496,TimingClock,'248'
19.469,TimingClock,'248'
19.4887,TimingClock,'248'
19.5082,TimingClock,'248'
19.5278,TimingClock,'248'
19.5278,NoteOn Channel: 9,'153'
19.5472,TimingClock,'248'
19.5666,TimingClock,'248'
19.5862,TimingClock,'248'
19.6057,TimingClock,'248'
19.6253,TimingClock,'248'
19.6449,TimingClock,'248'
19.6643,TimingClock,'248'
19.6839,TimingClock,'248'
19.7034,TimingClock,'248'
19.7229,TimingClock,'248'
19.7424,TimingClock,'248'
19.7619,TimingClock,'248'
19.7815,TimingClock,'248'
19.801,TimingClock,'248'
19.8204,TimingClock,'248'
19.8399,TimingClock,'248'
19.8597,TimingClock,'248'
19.8792,TimingClock,'248'
19.8987,TimingClock,'248'
19.9182,TimingClock,'248'
19.9377,TimingClock,'248'
19.9572,TimingClock,'248'
19.977,TimingClock,'248'
19.9964,TimingClock,'248'
19.9964,NoteOn Channel: 9,'153'
20.0158,TimingClock,'248'
20.0354,TimingClock,'248'
20.0548,TimingClock,'248'
20.0743,TimingClock,'248'
20.0939,TimingClock,'248'
20.1135,TimingClock,'248'
20.133,TimingClock,'248'
20.1525,TimingClock,'248'
20.1719,TimingClock,'248'
20.1916,TimingClock,'248'
20.2111,TimingClock,'248'
20.2307,TimingClock,'248'
20.2502,TimingClock,'248'
20.2697,TimingClock,'248'
20.289,TimingClock,'248'
20.3086,TimingClock,'248'
20.3283,TimingClock,'248'
20.3479,TimingClock,'248'
20.3674,TimingClock,'248'
20.3869,TimingClock,'248'
20.4063,TimingClock,'248'
20.426,TimingClock,'248'
20.4456,TimingClock,'248'
20.4651,TimingClock,'248'
20.4651,NoteOn Channel: 9,'153'
20.4846,TimingClock,'248'
20.5041,TimingClock,'248'
20.5235,TimingClock,'248'
20.543,TimingClock,'248'
20.5626,TimingClock,'248'
20.5822,TimingClock,'248'
20.6017,TimingClock,'248'
20.6212,TimingClock,'248'
20.6407,TimingClock,'248'
20.6602,TimingClock,'248'
20.6799,TimingClock,'248'
20.6993,TimingClock,'248'
20.7189,TimingClock,'248'
20.7384,TimingClock,'248'
20.7578,TimingClock,'248'
20.7774,TimingClock,'248'
20.7969,TimingClock,'248'
20.8165,TimingClock,'248'
20.8361,TimingClock,'248'
20.8554,TimingClock,'248'
20.875,TimingClock,'248'
20.8945,TimingClock,'248'
20.914,TimingClock,'248'
20.9338,TimingClock,'248'
20.9338,NoteOn Channel: 9,'153'
20.9532,TimingClock,'248'
20.9726,TimingClock,'248'
20.9922,TimingClock,'248'
21.0118,TimingClock,'248'
21.0313,TimingClock,'248'
21.0509,TimingClock,'248'
21.0702,TimingClock,'248'
21.0899,TimingClock,'248'
21.1094,TimingClock,'248'
21.1289,TimingClock,'248'
21.1484,TimingClock,'248'
21.168,TimingClock,'248'
21.1875,TimingClock,'248'
21.2069,TimingClock,'248'
21.2264,TimingClock,'248'
21.246,TimingClock,'248'
21.2655,TimingClock,'248'
21.2851,TimingClock,'248'
21.3046,TimingClock,'248'
21.3241,TimingClock,'248'
21.3438,TimingClock,'248'
21.3633,TimingClock,'248'
21.3826,TimingClock,'248'
21.4024,TimingClock,'248'
21.4024,NoteOn Channel: 9,'153'
21.4218,TimingClock,'248'
21.4414,TimingClock,'248'
21.4609,TimingClock,'248'
21.4805,TimingClock,'248'
21.4999,TimingClock,'248'
21.5195,TimingClock,'248'
21.539,TimingClock,'248'
21.5584,TimingClock,'248'
21.578,TimingClock,'248'
21.5975,TimingClock,'248'
21.617,TimingClock,'248'
21.6367,TimingClock,'248'
21.6562,TimingClock,'248'
21.6757,TimingClock,'248'
21.6951,TimingClock,'248'
21.7147,TimingClock,'248'
21.7343,TimingClock,'248'
21.7538,TimingClock,'248'
21.7734,TimingClock,'248'
21.7929,TimingClock,'248'
21.8124,TimingClock,'248'
21.832,TimingClock,'248'
21.8514,TimingClock,'248'
21.871,TimingClock,'248'
21.871,NoteOn Channel: 9,'153'
21.8904,TimingClock,'248'
21.9099,TimingClock,'248'
21.9295,TimingClock,'248'
21.9491,TimingClock,'248'
21.9687,TimingClock,'248'
21.9882,TimingClock,'248'
22.0077,TimingClock,'248'
22.027,TimingClock,'248'
22.0468,TimingClock,'248'
22.0661,TimingClock,'248'
22.0858,TimingClock,'248'
22.1052,TimingClock,'248'
22.1247,TimingClock,'248'
22.1445,TimingClock,'248'
22.1639,TimingClock,'248'
22.1835,TimingClock,'248'
22.2029,TimingClock,'248'
22.2224,TimingClock,'248'
22.242,TimingClock,'248'
22.2614,TimingClock,'248'
22.281,TimingClock,'248'
22.3006,TimingClock,'248'
22.32,TimingClock,'248'
22.3398,TimingClock,'248'
22.3398,NoteOn Channel: 9,'153'
22.3592,TimingClock,'248'
22.3787,TimingClock,'248'
22.3982,TimingClock,'248'
22.4178,TimingClock,'248'
22.4373,TimingClock,'248'
22.4569,TimingClock,'248'
22.4763,TimingClock,'248'
22.4959,TimingClock,'248'
22.5155,TimingClock,'248'
22.535,TimingClock,'248'
22.5543,TimingClock,'248'
22.5739,TimingClock,'248'
22.5935,TimingClock,'248'
22.613,TimingClock,'248'
22.6324,TimingClock,'248'
22.652,TimingClock,'248'
22.6717,TimingClock,'248'
22.6912,TimingClock,'248'
22.7107,TimingClock,'248'
22.7302,TimingClock,'248'
22.7498,TimingClock,'248'
22.7692,TimingClock,'248'
22.7888,TimingClock,'248'
22.8085,TimingClock,'248'
22.8085,NoteOn Channel: 9,'153'
22.8278,TimingClock,'248'
22.8474,TimingClock,'248'
22.8669,TimingClock,'248'
22.8863,TimingClock,'248'
22.906,TimingClock,'248'
22.9255,TimingClock,'248'
22.9448,TimingClock,'248'
22.9645,TimingClock,'248'
22.9841,TimingClock,'248'
23.0035,TimingClock,'248'
23.023,TimingClock,'248'
23.0427,TimingClock,'248'
23.0622,TimingClock,'248'
23.0817,TimingClock,'248'
23.1012,TimingClock,'248'
23.1208,TimingClock,'248'
23.1403,TimingClock,'248'
23.1598,TimingClock,'248'
23.1793,TimingClock,'248'
23.199,TimingClock,'248'
23.2183,TimingClock,'248'
23.2379,TimingClock,'248'
23.2574,TimingClock,'248'
23.277,TimingClock,'248'
23.277,NoteOn Channel: 9,'153'
23.2965,TimingClock,'248'
23.316,TimingClock,'248'
23.3355,TimingClock,'248'
23.355,TimingClock,'248'
23.3746,TimingClock,'248'
23.3942,TimingClock,'248'
23.4137,TimingClock,'248'
23.4332,TimingClock,'248'
23.4527,TimingClock,'248'
23.4722,TimingClock,'248'
23.4918,TimingClock,'248'
23.5113,TimingClock,'248'
23.5307,TimingClock,'248'
23.5503,TimingClock,'248'
23.57,TimingClock,'248'
23.5894,TimingClock,'248'
23.6089,TimingClock,'248'
23.6284,TimingClock,'248'
23.6478,TimingClock,'248'
23.6675,TimingClock,'248'
23.6871,TimingClock,'248'
23.7066,TimingClock,'248'
23.726,TimingClock,'248'
23.7457,TimingClock,'248'
23.7457,NoteOn Channel: 9,'153'
23.7652,TimingClock,'248'
23.7847,TimingClock,'248'
23.8041,TimingClock,'248'
23.8237,TimingClock,'248'
23.8433,TimingClock,'248'
23.8628,TimingClock,'248'
23.8822,TimingClock,'248'
23.9018,TimingClock,'248'
23.9214,TimingClock,'248'
23.9409,TimingClock,'248'
23.9604,TimingClock,'248'
23.9799,TimingClock,'248'
23.9996,TimingClock,'248'
24.0191,TimingClock,'248'
24.0385,TimingClock,'248'
24.058,TimingClock,'248'
24.0777,TimingClock,'248'
24.0971,TimingClock,'248'
24.1167,TimingClock,'248'
24.1362,TimingClock,'248'
24.1555,TimingClock,'248'
24.1751,TimingClock,'248'
24.1948,TimingClock,'248'
24.2143,TimingClock,'248'
24.2143,NoteOn Channel: 9,'153'
24.2337,TimingClock,'248'
24.2532,TimingClock,'248'
24.2729,TimingClock,'248'
24.2924,TimingClock,'248'
24.3118,TimingClock,'248'
24.3315,TimingClock,'248'
24.3509,TimingClock,'248'
24.3705,TimingClock,'248'
24.3901,TimingClock,'248'
24.4095,TimingClock,'248'
24.429,TimingClock,'248'
24.4487,TimingClock,'248'
24.4682,TimingClock,'248'
24.4875,TimingClock,'248'
24.5071,TimingClock,'248'
24.5268,TimingClock,'248'
24.5462,TimingClock,'248'
24.5658,TimingClock,'248'
24.5853,TimingClock,'248'
24.6048,TimingClock,'248'
24.6244,TimingClock,'248'
24.644,TimingClock,'248'
24.6634,TimingClock,'248'
24.6831,TimingClock,'248'
24.6831,NoteOn Channel: 9,'153'
24.7024,TimingClock,'248'
24.7219,TimingClock,'248'
24.7415,TimingClock,'248'
24.761,TimingClock,'248'
24.7806,TimingClock,'248'
24.8,TimingClock,'248'
24.8197,TimingClock,'248'
24.8391,TimingClock,'248'
24.8587,TimingClock,'248'
24.878,TimingClock,'248'
24.8977,TimingClock,'248'
24.9173,TimingClock,'248'
24.9369,TimingClock,'248'
24.9564,TimingClock,'248'
24.9759,TimingClock,'248'
24.9954,TimingClock,'248'
25.0149,TimingClock,'248'
25.0343,TimingClock,'248'
25.0539,TimingClock,'248'
25.0735,TimingClock,'248'
25.0929,TimingClock,'248'
25.1125,TimingClock,'248'
25.1321,TimingClock,'248'
25.1518,TimingClock,'248'
25.1518,NoteOn Channel: 9,'153'
25.1712,TimingClock,'248'
25.1907,TimingClock,'248'
25.21,TimingClock,'248'
25.2297,TimingClock,'248'
25.2492,TimingClock,'248'
25.2689,TimingClock,'248'
25.2883,TimingClock,'248'
25.3078,TimingClock,'248'
25.3274,TimingClock,'248'
25.3469,TimingClock,'248'
25.3664,TimingClock,'248'
25.386,TimingClock,'248'
25.4056,TimingClock,'248'
25.4249,TimingClock,'248'
25.4445,TimingClock,'248'
25.4641,TimingClock,'248'
25.4836,TimingClock,'248'
25.503,TimingClock,'248'
25.5227,TimingClock,'248'
25.5421,TimingClock,'248'
25.5616,TimingClock,'248'
25.5812,TimingClock,'248'
25.6008,TimingClock,'248'
25.6204,TimingClock,'248'
25.6204,NoteOn Channel: 9,'153'
25.6398,TimingClock,'248'
25.6593,TimingClock,'248'
25.6789,TimingClock,'248'
25.6984,TimingClock,'248'
25.7179,TimingClock,'248'
25.7375,TimingClock,'248'
25.757,TimingClock,'248'
25.7766,TimingClock,'248'
25.796,TimingClock,'248'
25.8155,TimingClock,'248'
25.8349,TimingClock,'248'
25.8546,TimingClock,'248'
25.8741,TimingClock,'248'
25.8937,TimingClock,'248'
25.9131,TimingClock,'248'
25.9327,TimingClock,'248'
25.9523,TimingClock,'248'
25.9717,TimingClock,'248'
25.9913,TimingClock,'248'
26.0108,TimingClock,'248'
26.0304,TimingClock,'248'
26.05,TimingClock,'248'
26.0693,TimingClock,'248'
26.0891,TimingClock,'248'
26.0891,NoteOn Channel: 9,'153'
26.1084,TimingClock,'248'
26.1279,TimingClock,'248'
26.1475,TimingClock,'248'
26.167,TimingClock,'248'
26.1865,TimingClock,'248'
26.206,TimingClock,'248'
26.2257,TimingClock,'248'
26.245,TimingClock,'248'
26.2646,TimingClock,'248'
26.2842,TimingClock,'248'
26.3036,TimingClock,'248'
26.3232,TimingClock,'248'
26.3427,TimingClock,'248'
26.3623,TimingClock,'248'
26.3819,TimingClock,'248'
26.4014,TimingClock,'248'
26.4209,TimingClock,'248'
26.4404,TimingClock,'248'
26.4599,TimingClock,'248'
26.4794,TimingClock,'248'
26.499,TimingClock,'248'
26.5185,TimingClock,'248'
26.5379,TimingClock,'248'
26.5577,TimingClock,'248'
26.5577,NoteOn Channel: 9,'153'
26.5771,TimingClock,'248'
26.5966,TimingClock,'248'
26.6162,TimingClock,'248'
26.6356,TimingClock,'248'
26.6552,TimingClock,'248'
26.6749,TimingClock,'248'
26.6943,TimingClock,'248'
26.7137,TimingClock,'248'
26.7333,TimingClock,'248'
26.7529,TimingClock,'248'
26.7724,TimingClock,'248'
26.7919,TimingClock,'248'
26.8114,TimingClock,'248'
26.8309,TimingClock,'248'
26.8505,TimingClock,'248'
26.8699,TimingClock,'248'
26.8894,TimingClock,'248'
26.9091,TimingClock,'248'
26.9287,TimingClock,'248'
26.9481,TimingClock,'248'
26.9677,TimingClock,'248'
26.9872,TimingClock,'248'
27.0067,TimingClock,'248'
27.0263,TimingClock,'248'
27.0263,NoteOn Channel: 9,'153'
27.0458,TimingClock,'248'
27.0653,TimingClock,'248'
27.0848,TimingClock,'248'
27.1044,TimingClock,'248'
27.1239,TimingClock,'248'
27.1436,TimingClock,'248'
27.1629,TimingClock,'248'
27.1825,TimingClock,'248'
27.2019,TimingClock,'248'
27.2215,TimingClock,'248'
27.2411,TimingClock,'248'
27.2607,TimingClock,'248'
27.2801,TimingClock,'248'
27.2997,TimingClock,'248'
27.3191,TimingClock,'248'
27.3386,TimingClock,'248'
27.3582,TimingClock,'248'
27.3778,TimingClock,'248'
27.3972,TimingClock,'248'
27.4167,TimingClock,'248'
27.4364,TimingClock,'248'
27.4559,TimingClock,'248'
27.4754,TimingClock,'248'
27.495,TimingClock,'248'
27.495,NoteOn Channel: 9,'153'
27.5144,TimingClock,'248'
27.5338,TimingClock,'248'
27.5535,TimingClock,'248'
27.5731,TimingClock,'248'
27.5925,TimingClock,'248'
27.6122,TimingClock,'248'
27.6316,TimingClock,'248'
27.6512,TimingClock,'248'
27.6707,TimingClock,'248'
27.6902,TimingClock,'248'
27.7098,TimingClock,'248'
27.7293,TimingClock,'248'
27.7488,TimingClock,'248'
27.7683,TimingClock,'248'
27.7879,TimingClock,'248'
27.8073,TimingClock,'248'
27.8269,TimingClock,'248'
27.8464,TimingClock,'248'
27.8658,TimingClock,'248'
27.8855,TimingClock,'248'
27.9051,TimingClock,'248'
27.9244,TimingClock,'248'
27.9441,TimingClock,'248'
27.9637,TimingClock,'248'
27.9637,NoteOn Channel: 9,'153'
27.9831,TimingClock,'248'
28.0027,TimingClock,'248'
28.0222,TimingClock,'248'
28.0416,TimingClock,'248'
28.0613,TimingClock,'248'
28.0809,TimingClock,'248'
28.1003,TimingClock,'248'
28.1198,TimingClock,'248'
28.1393,TimingClock,'248'
28.1589,TimingClock,'248'
28.1784,TimingClock,'248'
28.1978,TimingClock,'248'
28.2174,TimingClock,'248'
28.237,TimingClock,'248'
28.2565,TimingClock,'248'
28.276,TimingClock,'248'
28.2956,TimingClock,'248'
28.315,TimingClock,'248'
28.3345,TimingClock,'248'
28.3542,TimingClock,'248'
28.3736,TimingClock,'248'
28.3932,TimingClock,'248'
28.4127,TimingClock,'248'
28.4324,TimingClock,'248'
28.4324,NoteOn Channel: 9,'153'
28.4518,TimingClock,'248'
28.4713,TimingClock,'248'
28.4907,TimingClock,'248'
28.5103,TimingClock,'248'
28.5298,TimingClock,'248'
28.5494,TimingClock,'248'
28.5689,TimingClock,'248'
28.5885,TimingClock,'248'
28.6079,TimingClock,'248'
28.6275,TimingClock,'248'
28.6471,TimingClock,'248'
28.6665,TimingClock,'248'
28.686,TimingClock,'248'
28.7056,TimingClock,'248'
28.7251,TimingClock,'248'
28.7446,TimingClock,'248'
28.7644,TimingClock,'248'
28.7838,TimingClock,'248'
28.8033,TimingClock,'248'
28.8228,TimingClock,'248'
28.8423,TimingClock,'248'
28.8618,TimingClock,'248'
28.8815,TimingClock,'248'
28.9009,TimingClock,'248'
28.9009,NoteOn Channel: 9,'153'
28.9204,TimingClock,'248'
28.9399,TimingClock,'248'
28.9594,TimingClock,'248'
28.9791,TimingClock,'248'
28.9985,TimingClock,'248'
29.0182,TimingClock,'248'
29.0377,TimingClock,'248'
29.0572,TimingClock,'248'
29.0767,TimingClock,'248'
29.0962,TimingClock,'248'
29.1157,TimingClock,'248'
29.1353,TimingClock,'248'
29.1548,TimingClock,'248'
29.1743,TimingClock,'248'
29.1936,TimingClock,'248'
29.2134,TimingClock,'248'
29.2329,TimingClock,'248'
29.2524,TimingClock,'248'
29.2719,TimingClock,'248'
29.2915,TimingClock,'248'
29.311,TimingClock,'248'
29.3306,TimingClock,'248'
29.35,TimingClock,'248'
29.3696,TimingClock,'248'
29.3696,NoteOn Channel: 9,'153'
29.3891,TimingClock,'248'
29.4087,TimingClock,'248'
29.4282,TimingClock,'248'
29.4477,TimingClock,'248'
29.4673,TimingClock,'248'
29.4868,TimingClock,'248'
29.5062,TimingClock,'248'
29.5256,TimingClock,'248'
29.5452,TimingClock,'248'
29.565,TimingClock,'248'
29.5844,TimingClock,'248'
29.6039,TimingClock,'248'
29.6234,TimingClock,'248'
29.6429,TimingClock,'248'
29.6626,TimingClock,'248'
29.6819,TimingClock,'248'
29.7015,TimingClock,'248'
29.7211,TimingClock,'248'
29.7407,TimingClock,'248'
29.7601,TimingClock,'248'
29.7796,TimingClock,'248'
29.7991,TimingClock,'248'
29.8187,TimingClock,'248'
29.8384,TimingClock,'248'
29.8384,NoteOn Channel: 9,'153'
29.8578,TimingClock,'248'
29.8773,TimingClock,'248'
29.8968,TimingClock,'248'
29.9164,TimingClock,'248'
29.9359,TimingClock,'248'
29.9555,TimingClock,'248'
29.9749,TimingClock,'248'
29.9943,TimingClock,'248'
30.0139,TimingClock,'248'
30.0335,TimingClock,'248'
30.0531,TimingClock,'248'
30.0726,TimingClock,'248'
30.092,TimingClock,'248'
30.1115,TimingClock,'248'
30.1311,TimingClock,'248'
30.1506,TimingClock,'248'
30.1702,TimingClock,'248'
30.1897,TimingClock,'248'
30.2092,TimingClock,'248'
30.2288,TimingClock,'248'
30.2484,TimingClock,'248'
30.2679,TimingClock,'248'
30.2874,TimingClock,'248'
30.307,TimingClock,'248'
30.307,NoteOn Channel: 9,'153'
30.3264,TimingClock,'248'
30.3459,TimingClock,'248'
30.3655,TimingClock,'248'
30.385,TimingClock,'248'
30.4045,TimingClock,'248'
30.4242,TimingClock,'248'
30.4436,TimingClock,'248'
30.4631,TimingClock,'248'
30.4827,TimingClock,'248'
30.5022,TimingClock,'248'
30.5215,TimingClock,'248'
30.5412,TimingClock,'248'
30.5608,TimingClock,'248'
30.5803,TimingClock,'248'
30.5998,TimingClock,'248'
30.6194,TimingClock,'248'
30.6389,TimingClock,'248'
30.6583,TimingClock,'248'
30.678,TimingClock,'248'
30.6974,TimingClock,'248'
30.7169,TimingClock,'248'
30.7366,TimingClock,'248'
30.7561,TimingClock,'248'
30.7756,TimingClock,'248'
30.7756,NoteOn Channel: 9,'153'
30.795,TimingClock,'248'
30.8146,TimingClock,'248'
30.8341,TimingClock,'248'
30.8536,TimingClock,'248'
30.8732,TimingClock,'248'
30.8928,TimingClock,'248'
30.9123,TimingClock,'248'
30.9318,TimingClock,'248'
30.9512,TimingClock,'248'
30.9708,TimingClock,'248'
30.9903,TimingClock,'248'
31.0098,TimingClock,'248'
31.0294,TimingClock,'248'
31.0489,TimingClock,'248'
31.0685,TimingClock,'248'
31.088,TimingClock,'248'
31.1075,TimingClock,'248'
31.127,TimingClock,'248'
31.1467,TimingClock,'248'
31.1661,TimingClock,'248'
31.1857,TimingClock,'248'
31.2052,TimingClock,'248'
31.2246,TimingClock,'248'
31.2444,TimingClock,'248'
31.2444,NoteOn Channel: 9,'153'
31.2636,TimingClock,'248'
31.2832,TimingClock,'248'
31.3028,TimingClock,'248'
31.3224,TimingClock,'248'
31.3419,TimingClock,'248'
31.3615,TimingClock,'248'
31.381,TimingClock,'248'
31.4004,TimingClock,'248'
31.4199,TimingClock,'248'
31.4396,TimingClock,'248'
31.4591,TimingClock,'248'
31.4785,TimingClock,'248'
31.498,TimingClock,'248'
31.5176,TimingClock,'248'
31.5372,TimingClock,'248'
31.5567,TimingClock,'248'
31.5762,TimingClock,'248'
31.5957,TimingClock,'248'
31.6153,TimingClock,'248'
31.6348,TimingClock,'248'
31.6542,TimingClock,'248'
31.6739,TimingClock,'248'
31.6934,TimingClock,'248'
31.713,TimingClock,'248'
31.713,NoteOn Channel: 9,'153'
31.7325,TimingClock,'248'
31.7519,TimingClock,'248'
31.7713,TimingClock,'248'
31.7909,TimingClock,'248'
31.8106,TimingClock,'248'
31.8302,TimingClock,'248'
31.8494,TimingClock,'248'
31.8691,TimingClock,'248'
31.8887,TimingClock,'248'
31.9082,TimingClock,'248'
31.9276,TimingClock,'248'
31.9473,TimingClock,'248'
31.9668,TimingClock,'248'
31.9862,TimingClock,'248'
32.0058,TimingClock,'248'
32.0254,TimingClock,'248'
32.0449,TimingClock,'248'
32.0643,TimingClock,'248'
32.0838,TimingClock,'248'
32.1034,TimingClock,'248'
32.1229,TimingClock,'248'
32.1424,TimingClock,'248'
32.162,TimingClock,'248'
32.1817,TimingClock,'248'
32.1817,NoteOn Channel: 9,'153'
32.201,TimingClock,'248'
32.2205,TimingClock,'248'
32.2401,TimingClock,'248'
32.2597,TimingClock,'248'
32.2792,TimingClock,'248'
32.2988,TimingClock,'248'
32.3183,TimingClock,'248'
32.3377,TimingClock,'248'
32.3573,TimingClock,'248'
32.3767,TimingClock,'248'
32.3964,TimingClock,'248'
32.4158,TimingClock,'248'
32.4353,TimingClock,'248'
32.4549,TimingClock,'248'
32.4746,TimingClock,'248'
32.4939,TimingClock,'248'
32.5134,TimingClock,'248'
32.5331,TimingClock,'248'
32.5526,TimingClock,'248'
32.5722,TimingClock,'248'
32.5917,TimingClock,'248'
32.6111,TimingClock,'248'
32.6307,TimingClock,'248'
32.6504,TimingClock,'248'
32.6504,NoteOn Channel: 9,'153'
32.6696,TimingClock,'248'
32.6893,TimingClock,'248'
32.7088,TimingClock,'248'
32.7283,TimingClock,'248'
32.7478,TimingClock,'248'
32.7674,TimingClock,'248'
32.7869,TimingClock,'248'
32.8064,TimingClock,'248'
32.8259,TimingClock,'248'
32.8454,TimingClock,'248'
32.865,TimingClock,'248'
32.8845,TimingClock,'248'
32.9041,TimingClock,'248'
32.9236,TimingClock,'248'
32.9431,TimingClock,'248'
32.9627,TimingClock,'248'
32.9822,TimingClock,'248'
33.0016,TimingClock,'248'
33.0212,TimingClock,'248'
33.0407,TimingClock,'248'
33.0603,TimingClock,'248'
33.0799,TimingClock,'248'
33.0994,TimingClock,'248'
33.1189,TimingClock,'248'
33.1189,NoteOn Channel: 9,'153'
33.1384,TimingClock,'248'
33.1579,TimingClock,'248'
33.1774,TimingClock,'248'
33.1969,TimingClock,'248'
33.2164,TimingClock,'248'
33.2362,TimingClock,'248'
33.2556,TimingClock,'248'
33.2751,TimingClock,'248'
33.2947,TimingClock,'248'
33.3142,TimingClock,'248'
33.3335,TimingClock,'248'
33.3533,TimingClock,'248'
33.3726,TimingClock,'248'
33.3922,TimingClock,'248'
33.4118,TimingClock,'248'
33.4313,TimingClock,'248'
33.4509,TimingClock,'248'
33.4703,TimingClock,'248'
33.4898,TimingClock,'248'
33.5093,TimingClock,'248'
33.5289,TimingClock,'248'
33.5486,TimingClock,'248'
33.568,TimingClock,'248'
33.5877,TimingClock,'248'
33.5877,NoteOn Channel: 9,'153'
33.6071,TimingClock,'248'
33.6265,TimingClock,'248'
33.6462,TimingClock,'248'
33.6657,TimingClock,'248'
33.6852,TimingClock,'248'
33.7048,TimingClock,'248'
33.7244,TimingClock,'248'
33.7438,TimingClock,'248'
33.7633,TimingClock,'248'
33.7828,TimingClock,'248'
33.8025,TimingClock,'248'
33.8219,TimingClock,'248'
33.8414,TimingClock,'248'
33.8608,TimingClock,'248'
33.8805,TimingClock,'248'
33.8998,TimingClock,'248'
33.9195,TimingClock,'248'
33.939,TimingClock,'248'
33.9585,TimingClock,'248'
33.9782,TimingClock,'248'
33.9977,TimingClock,'248'
34.0172,TimingClock,'248'
34.0367,TimingClock,'248'
34.0563,TimingClock,'248'
34.0563,NoteOn Channel: 9,'153'
34.0757,TimingClock,'248'
34.0952,TimingClock,'248'
34.1147,TimingClock,'248'
34.1344,TimingClock,'248'
34.1537,TimingClock,'248'
34.1733,TimingClock,'248'
34.193,TimingClock,'248'
34.2124,TimingClock,'248'
34.2319,TimingClock,'248'
34.2515,TimingClock,'248'
34.2711,TimingClock,'248'
34.2904,TimingClock,'248'
34.3101,TimingClock,'248'
34.3296,TimingClock,'248'
34.3492,TimingClock,'248'
34.3687,TimingClock,'248'
34.3882,TimingClock,'248'
34.4077,TimingClock,'248'
34.4273,TimingClock,'248'
34.4468,TimingClock,'248'
34.4663,TimingClock,'248'
34.4858,TimingClock,'248'
34.5053,TimingClock,'248'
34.5248,TimingClock,'248'
34.5248,NoteOn Channel: 9,'153'
34.5444,TimingClock,'248'
34.5639,TimingClock,'248'
34.5834,TimingClock,'248'
34.6029,TimingClock,'248'
34.6225,TimingClock,'248'
34.6422,TimingClock,'248'
34.6615,TimingClock,'248'
34.6812,TimingClock,'248'
34.7005,TimingClock,'248'
34.7201,TimingClock,'248'
34.7397,TimingClock,'248'
34.7593,TimingClock,'248'
34.7786,TimingClock,'248'
34.7983,TimingClock,'248'
34.8178,TimingClock,'248'
34.8373,TimingClock,'248'
34.8569,TimingClock,'248'
34.8764,TimingClock,'248'
34.8959,TimingClock,'248'
34.9153,TimingClock,'248'
34.9349,TimingClock,'248'
34.9546,TimingClock,'248'
34.9741,TimingClock,'248'
34.9936,TimingClock,'248'
34.9936,NoteOn Channel: 9,'153'
35.013,TimingClock,'248'
35.0326,TimingClock,'248'
35.0521,TimingClock,'248'
35.0715,TimingClock,'248'
35.0911,TimingClock,'248'
35.1108,TimingClock,'248'
35.1302,TimingClock,'248'
35.1497,TimingClock,'248'
35.1694,TimingClock,'248'
35.1888,TimingClock,'248'
35.2084,TimingClock,'248'
35.2279,TimingClock,'248'
35.2474,TimingClock,'248'
35.2668,TimingClock,'248'
35.2865,TimingClock,'248'
35.3059,TimingClock,'248'
35.3256,TimingClock,'248'
35.3451,TimingClock,'248'
35.3645,TimingClock,'248'
35.3842,TimingClock,'248'
35.4036,TimingClock,'248'
35.4231,TimingClock,'248'
35.4427,TimingClock,'248'
35.4623,TimingClock,'248'
35.4623,NoteOn Channel: 9,'153'
35.4816,TimingClock,'248'
35.5012,TimingClock,'248'
35.5208,TimingClock,'248'
35.5403,TimingClock,'248'
35.5599,TimingClock,'248'
35.5795,TimingClock,'248'
35.5988,TimingClock,'248'
35.6183,TimingClock,'248'
35.6379,TimingClock,'248'
35.6575,TimingClock,'248'
35.6769,TimingClock,'248'
35.6966,TimingClock,'248'
35.7161,TimingClock,'248'
35.7356,TimingClock,'248'
35.7552,TimingClock,'248'
35.7747,TimingClock,'248'
35.7942,TimingClock,'248'
35.8137,TimingClock,'248'
35.8333,TimingClock,'248'
35.8528,TimingClock,'248'
35.8723,TimingClock,'248'
35.8917,TimingClock,'248'
35.9113,TimingClock,'248'
35.9309,TimingClock,'248'
35.9309,NoteOn Channel: 9,'153'
35.9505,TimingClock,'248'
35.9699,TimingClock,'248'
35.9894,TimingClock,'248'
36.0089,TimingClock,'248'
36.0285,TimingClock,'248'
36.0481,TimingClock,'248'
36.0675,TimingClock,'248'
36.087,TimingClock,'248'
36.1065,TimingClock,'248'
36.1262,TimingClock,'248'
36.1456,TimingClock,'248'
36.1651,TimingClock,'248'
36.1846,TimingClock,'248'
36.2042,TimingClock,'248'
36.2238,TimingClock,'248'
36.2444,TimingClock,'248'
36.2627,TimingClock,'248'
36.2824,TimingClock,'248'
36.3019,TimingClock,'248'
36.3215,TimingClock,'248'
36.3409,TimingClock,'248'
36.3605,TimingClock,'248'
36.3801,TimingClock,'248'
36.3997,TimingClock,'248'
36.3997,NoteOn Channel: 9,'153'
36.419,TimingClock,'248'
36.4385,TimingClock,'248'
36.4582,TimingClock,'248'
36.4776,TimingClock,'248'
36.4972,TimingClock,'248'
36.5168,TimingClock,'248'
36.5363,TimingClock,'248'
36.5556,TimingClock,'248'
36.5753,TimingClock,'248'
36.5948,TimingClock,'248'
36.6143,TimingClock,'248'
36.6339,TimingClock,'248'
36.6534,TimingClock,'248'
36.6729,TimingClock,'248'
36.6924,TimingClock,'248'
36.7119,TimingClock,'248'
36.7315,TimingClock,'248'
36.751,TimingClock,'248'
36.7704,TimingClock,'248'
36.7901,TimingClock,'248'
36.8095,TimingClock,'248'
36.8292,TimingClock,'248'
36.8486,TimingClock,'248'
36.8683,TimingClock,'248'
36.8683,NoteOn Channel: 9,'153'
36.8877,TimingClock,'248'
36.9073,TimingClock,'248'
36.9267,TimingClock,'248'
36.9463,TimingClock,'248'
36.9658,TimingClock,'248'
36.9854,TimingClock,'248'
37.0048,TimingClock,'248'
37.0243,TimingClock,'248'
37.044,TimingClock,'248'
37.0634,TimingClock,'248'
37.0828,TimingClock,'248'
37.1025,TimingClock,'248'
37.1221,TimingClock,'248'
37.1416,TimingClock,'248'
37.1612,TimingClock,'248'
37.1805,TimingClock,'248'
37.2002,TimingClock,'248'
37.2197,TimingClock,'248'
37.2393,TimingClock,'248'
37.2587,TimingClock,'248'
37.2783,TimingClock,'248'
37.2977,TimingClock,'248'
37.3174,TimingClock,'248'
37.3369,TimingClock,'248'
37.3369,NoteOn Channel: 9,'153'
37.3564,TimingClock,'248'
37.3759,TimingClock,'248'
37.3954,TimingClock,'248'
37.4148,TimingClock,'248'
37.4344,TimingClock,'248'
37.4542,TimingClock,'248'
37.4736,TimingClock,'248'
37.4931,TimingClock,'248'
37.5125,TimingClock,'248'
37.5322,TimingClock,'248'
37.5517,TimingClock,'248'
37.5712,TimingClock,'248'
37.5907,TimingClock,'248'
37.6103,TimingClock,'248'
37.6298,TimingClock,'248'
37.6493,TimingClock,'248'
37.6688,TimingClock,'248'
37.6884,TimingClock,'248'
37.708,TimingClock,'248'
37.7275,TimingClock,'248'
37.747,TimingClock,'248'
37.7664,TimingClock,'248'
37.7859,TimingClock,'248'
37.8057,TimingClock,'248'
37.8057,NoteOn Channel: 9,'153'
37.825,TimingClock,'248'
37.8446,TimingClock,'248'
37.8642,TimingClock,'248'
37.8836,TimingClock,'248'
37.9032,TimingClock,'248'
37.9228,TimingClock,'248'
37.9422,TimingClock,'248'
37.9617,TimingClock,'248'
37.9813,TimingClock,'248'
38.0007,TimingClock,'248'
38.0204,TimingClock,'248'
38.0399,TimingClock,'248'
38.0595,TimingClock,'248'
38.0789,TimingClock,'248'
38.0983,TimingClock,'248'
38.1179,TimingClock,'248'
38.1375,TimingClock,'248'
38.1571,TimingClock,'248'
38.1764,TimingClock,'248'
38.1961,TimingClock,'248'
38.2155,TimingClock,'248'
38.2352,TimingClock,'248'
38.2547,TimingClock,'248'
38.2743,TimingClock,'248'
38.2743,NoteOn Channel: 9,'153'
38.2936,TimingClock,'248'
38.3133,TimingClock,'248'
38.3327,TimingClock,'248'
38.3523,TimingClock,'248'
38.3718,TimingClock,'248'
38.3915,TimingClock,'248'
38.4109,TimingClock,'248'
38.4304,TimingClock,'248'
38.4499,TimingClock,'248'
38.4694,TimingClock,'248'
38.489,TimingClock,'248'
38.5086,TimingClock,'248'
38.528,TimingClock,'248'
38.5475,TimingClock,'248'
38.5672,TimingClock,'248'
38.5866,TimingClock,'248'
38.6062,TimingClock,'248'
38.6257,TimingClock,'248'
38.6453,TimingClock,'248'
38.6647,TimingClock,'248'
38.6842,TimingClock,'248'
38.7038,TimingClock,'248'
38.7233,TimingClock,'248'
38.7429,TimingClock,'248'
38.7429,NoteOn Channel: 9,'153'
38.7624,TimingClock,'248'
38.7819,TimingClock,'248'
38.8013,TimingClock,'248'
38.8209,TimingClock,'248'
38.8404,TimingClock,'248'
38.8602,TimingClock,'248'
38.8795,TimingClock,'248'
38.8989,TimingClock,'248'
38.9184,TimingClock,'248'
38.9381,TimingClock,'248'
38.9575,TimingClock,'248'
38.9772,TimingClock,'248'
38.9967,TimingClock,'248'
39.0163,TimingClock,'248'
39.0356,TimingClock,'248'
39.0553,TimingClock,'248'
39.0748,TimingClock,'248'
39.0943,TimingClock,'248'
39.1139,TimingClock,'248'
39.1334,TimingClock,'248'
39.1529,TimingClock,'248'
39.1724,TimingClock,'248'
39.1921,TimingClock,'248'
39.2115,TimingClock,'248'
39.2115,NoteOn Channel: 9,'153'
39.231,TimingClock,'248'
39.2505,TimingClock,'248'
39.2701,TimingClock,'248'
39.2895,TimingClock,'248'
39.3092,TimingClock,'248'
39.3286,TimingClock,'248'
39.3481,TimingClock,'248'
39.3677,TimingClock,'248'
39.3873,TimingClock,'248'
39.4068,TimingClock,'248'
39.4263,TimingClock,'248'
39.4459,TimingClock,'248'
39.4655,TimingClock,'248'
39.4849,TimingClock,'248'
39.5043,TimingClock,'248'
39.5239,TimingClock,'248'
39.5434,TimingClock,'248'
39.5629,TimingClock,'248'
39.5826,TimingClock,'248'
39.602,TimingClock,'248'
39.6216,TimingClock,'248'
39.6412,TimingClock,'248'
39.6606,TimingClock,'248'
39.6802,TimingClock,'248'
39.6802,NoteOn Channel: 9,'153'
39.6997,TimingClock,'248'
39.7192,TimingClock,'248'
39.7387,TimingClock,'248'
39.7582,TimingClock,'248'
39.7778,TimingClock,'248'
39.7974,TimingClock,'248'
39.8169,TimingClock,'248'
39.8363,TimingClock,'248'
39.8559,TimingClock,'248'
39.8753,TimingClock,'248'
39.8949,TimingClock,'248'
39.9144,TimingClock,'248'
39.934,TimingClock,'248'
39.9535,TimingClock,'248'
39.973,TimingClock,'248'
39.9925,TimingClock,'248'
40.0121,TimingClock,'248'
40.0317,TimingClock,'248'
40.0512,TimingClock,'248'
40.0706,TimingClock,'248'
40.0903,TimingClock,'248'
40.1098,TimingClock,'248'
40.1292,TimingClock,'248'
40.1489,TimingClock,'248'
40.1489,NoteOn Channel: 9,'153'
40.1684,TimingClock,'248'
40.1879,TimingClock,'248'
40.2074,TimingClock,'248'
40.2269,TimingClock,'248'
40.2464,TimingClock,'248'
40.266,TimingClock,'248'
40.2855,TimingClock,'248'
40.305,TimingClock,'248'
40.3245,TimingClock,'248'
40.344,TimingClock,'248'
40.3635,TimingClock,'248'
40.3831,TimingClock,'248'
40.4027,TimingClock,'248'
40.4223,TimingClock,'248'
40.4416,TimingClock,'248'
40.4613,TimingClock,'248'
40.4807,TimingClock,'248'
40.5004,TimingClock,'248'
40.5199,TimingClock,'248'
40.5394,TimingClock,'248'
40.5588,TimingClock,'248'
40.5784,TimingClock,'248'
40.5981,TimingClock,'248'
40.6175,TimingClock,'248'
40.6175,NoteOn Channel: 9,'153'
40.6371,TimingClock,'248'
40.6564,TimingClock,'248'
40.6761,TimingClock,'248'
40.6956,TimingClock,'248'
40.7151,TimingClock,'248'
40.7347,TimingClock,'248'
40.7542,TimingClock,'248'
40.7737,TimingClock,'248'
40.7933,TimingClock,'248'
40.8128,TimingClock,'248'
40.8323,TimingClock,'248'
40.8518,TimingClock,'248'
40.8713,TimingClock,'248'
40.8909,TimingClock,'248'
40.9104,TimingClock,'248'
40.93,TimingClock,'248'
40.9495,TimingClock,'248'
40.9691,TimingClock,'248'
40.9884,TimingClock,'248'
41.0081,TimingClock,'248'
41.0275,TimingClock,'248'
41.0472,TimingClock,'248'
41.0666,TimingClock,'248'
41.0863,TimingClock,'248'
41.0863,NoteOn Channel: 9,'153'
41.1055,TimingClock,'248'
41.1252,TimingClock,'248'
41.1446,TimingClock,'248'
41.1643,TimingClock,'248'
41.1838,TimingClock,'248'
41.2034,TimingClock,'248'
41.2228,TimingClock,'248'
41.2424,TimingClock,'248'
41.2619,TimingClock,'248'
41.2814,TimingClock,'248'
41.3009,TimingClock,'248'
41.3203,TimingClock,'248'
41.34,TimingClock,'248'
41.3595,TimingClock,'248'
41.379,TimingClock,'248'
41.3984,TimingClock,'248'
41.4181,TimingClock,'248'
41.4377,TimingClock,'248'
41.4572,TimingClock,'248'
41.4767,TimingClock,'248'
41.4963,TimingClock,'248'
41.5157,TimingClock,'248'
41.5353,TimingClock,'248'
41.5549,TimingClock,'248'
41.5549,NoteOn Channel: 9,'153'
41.5743,TimingClock,'248'
41.5939,TimingClock,'248'
41.6134,TimingClock,'248'
41.6329,TimingClock,'248'
41.6525,TimingClock,'248'
41.672,TimingClock,'248'
41.6913,TimingClock,'248'
41.711,TimingClock,'248'
41.7306,TimingClock,'248'
41.7499,TimingClock,'248'
41.7695,TimingClock,'248'
41.7891,TimingClock,'248'
41.8088,TimingClock,'248'
41.8282,TimingClock,'248'
41.8477,TimingClock,'248'
41.8673,TimingClock,'248'
41.8868,TimingClock,'248'
41.9063,TimingClock,'248'
41.9259,TimingClock,'248'
41.9454,TimingClock,'248'
41.9649,TimingClock,'248'
41.9845,TimingClock,'248'
42.004,TimingClock,'248'
42.0235,TimingClock,'248'
42.0235,NoteOn Channel: 9,'153'
42.0431,TimingClock,'248'
42.0625,TimingClock,'248'
42.0821,TimingClock,'248'
42.1016,TimingClock,'248'
42.1211,TimingClock,'248'
42.1407,TimingClock,'248'
42.16,TimingClock,'248'
42.1796,TimingClock,'248'
42.1993,TimingClock,'248'
42.2186,TimingClock,'248'
42.2383,TimingClock,'248'
42.2576,TimingClock,'248'
42.2774,TimingClock,'248'
42.2968,TimingClock,'248'
42.3164,TimingClock,'248'
42.3359,TimingClock,'248'
42.3554,TimingClock,'248'
42.375,TimingClock,'248'
42.3945,TimingClock,'248'
42.4141,TimingClock,'248'
42.4336,TimingClock,'248'
42.4532,TimingClock,'248'
42.4724,TimingClock,'248'
42.4923,TimingClock,'248'
42.4923,NoteOn Channel: 9,'153'
42.5117,TimingClock,'248'
42.5311,TimingClock,'248'
42.5507,TimingClock,'248'
42.5703,TimingClock,'248'
42.5898,TimingClock,'248'
42.6094,TimingClock,'248'
42.6288,TimingClock,'248'
42.6484,TimingClock,'248'
42.668,TimingClock,'248'
42.6874,TimingClock,'248'
42.7069,TimingClock,'248'
42.7263,TimingClock,'248'
42.746,TimingClock,'248'
42.7655,TimingClock,'248'
42.785,TimingClock,'248'
42.8046,TimingClock,'248'
42.8241,TimingClock,'248'
42.8437,TimingClock,'248'
42.8631,TimingClock,'248'
42.8826,TimingClock,'248'
42.9023,TimingClock,'248'
42.9217,TimingClock,'248'
42.9413,TimingClock,'248'
42.9609,TimingClock,'248'
42.9609,NoteOn Channel: 9,'153'
42.9804,TimingClock,'248'
42.9999,TimingClock,'248'
43.0193,TimingClock,'248'
43.0389,TimingClock,'248'
43.0584,TimingClock,'248'
43.0781,TimingClock,'248'
43.0975,TimingClock,'248'
43.1169,TimingClock,'248'
43.1365,TimingClock,'248'
43.1561,TimingClock,'248'
43.1755,TimingClock,'248'
43.1952,TimingClock,'248'
43.2146,TimingClock,'248'
43.2342,TimingClock,'248'
43.2536,TimingClock,'248'
43.2732,TimingClock,'248'
43.2928,TimingClock,'248'
43.3122,TimingClock,'248'
43.3319,TimingClock,'248'
43.3513,TimingClock,'248'
43.371,TimingClock,'248'
43.3904,TimingClock,'248'
43.4099,TimingClock,'248'
43.4295,TimingClock,'248'
43.4295,NoteOn Channel: 9,'153'
43.4491,TimingClock,'248'
43.4685,TimingClock,'248'
43.4881,TimingClock,'248'
43.5075,TimingClock,'248'
43.5271,TimingClock,'248'
43.5467,TimingClock,'248'
43.5662,TimingClock,'248'
43.5857,TimingClock,'248'
43.6052,TimingClock,'248'
43.6247,TimingClock,'248'
43.6443,TimingClock,'248'
43.6638,TimingClock,'248'
43.6833,TimingClock,'248'
43.7028,TimingClock,'248'
43.7225,TimingClock,'248'
43.7418,TimingClock,'248'
43.7614,TimingClock,'248'
43.7811,TimingClock,'248'
43.8004,TimingClock,'248'
43.82,TimingClock,'248'
43.8395,TimingClock,'248'
43.8592,TimingClock,'248'
43.8785,TimingClock,'248'
43.8982,TimingClock,'248'
43.8982,NoteOn Channel: 9,'153'
43.9177,TimingClock,'248'
43.9372,TimingClock,'248'
43.9567,TimingClock,'248'
43.9763,TimingClock,'248'
43.9958,TimingClock,'248'
44.0155,TimingClock,'248'
44.0348,TimingClock,'248'
44.0543,TimingClock,'248'
44.0739,TimingClock,'248'
44.0934,TimingClock,'248'
44.1129,TimingClock,'248'
44.1324,TimingClock,'248'
44.152,TimingClock,'248'
44.1715,TimingClock,'248'
44.191,TimingClock,'248'
44.2104,TimingClock,'248'
44.2302,TimingClock,'248'
44.2497,TimingClock,'248'
44.2692,TimingClock,'248'
44.2886,TimingClock,'248'
44.3082,TimingClock,'248'
44.3277,TimingClock,'248'
44.3473,TimingClock,'248'
44.3669,TimingClock,'248'
44.3669,NoteOn Channel: 9,'153'
44.3864,TimingClock,'248'
44.4059,TimingClock,'248'
44.4253,TimingClock,'248'
44.4449,TimingClock,'248'
44.4644,TimingClock,'248'
44.4839,TimingClock,'248'
44.5035,TimingClock,'248'
44.523,TimingClock,'248'
44.5425,TimingClock,'248'
44.562,TimingClock,'248'
44.5816,TimingClock,'248'
44.6012,TimingClock,'248'
44.6206,TimingClock,'248'
44.6402,TimingClock,'248'
44.6597,TimingClock,'248'
44.6793,TimingClock,'248'
44.6988,TimingClock,'248'
44.7184,TimingClock,'248'
44.7378,TimingClock,'248'
44.7574,TimingClock,'248'
44.7769,TimingClock,'248'
44.7964,TimingClock,'248'
44.8159,TimingClock,'248'
44.8355,TimingClock,'248'
44.8355,NoteOn Channel: 9,'153'
44.8551,TimingClock,'248'
44.8743,TimingClock,'248'
44.894,TimingClock,'248'
44.9135,TimingClock,'248'
44.9332,TimingClock,'248'
44.9527,TimingClock,'248'
44.9721,TimingClock,'248'
44.9917,TimingClock,'248'
45.0112,TimingClock,'248'
45.0307,TimingClock,'248'
45.0503,TimingClock,'248'
45.0698,TimingClock,'248'
45.0893,TimingClock,'248'
45.1089,TimingClock,'248'
45.1283,TimingClock,'248'
45.1479,TimingClock,'248'
45.1674,TimingClock,'248'
45.1871,TimingClock,'248'
45.2064,TimingClock,'248'
45.2259,TimingClock,'248'
45.2455,TimingClock,'248'
45.2649,TimingClock,'248'
45.2845,TimingClock,'248'
45.3043,TimingClock,'248'
45.3043,NoteOn Channel: 9,'153'
45.3236,TimingClock,'248'
45.3432,TimingClock,'248'
45.3626,TimingClock,'248'
45.3823,TimingClock,'248'
45.4016,TimingClock,'248'
45.4214,TimingClock,'248'
45.4409,TimingClock,'248'
45.4603,TimingClock,'248'
45.4799,TimingClock,'248'
45.4994,TimingClock,'248'
45.5189,TimingClock,'248'
45.5384,TimingClock,'248'
45.558,TimingClock,'248'
45.5775,TimingClock,'248'
45.597,TimingClock,'248'
45.6166,TimingClock,'248'
45.6361,TimingClock,'248'
45.6556,TimingClock,'248'
45.6751,TimingClock,'248'
45.6947,TimingClock,'248'
45.7143,TimingClock,'248'
45.7337,TimingClock,'248'
45.7533,TimingClock,'248'
45.7729,TimingClock,'248'
45.7729,NoteOn Channel: 9,'153'
45.7923,TimingClock,'248'
45.8118,TimingClock,'248'
45.8313,TimingClock,'248'
45.8509,TimingClock,'248'
45.8703,TimingClock,'248'
45.89,TimingClock,'248'
45.9093,TimingClock,'248'
45.9289,TimingClock,'248'
45.9486,TimingClock,'248'
45.968,TimingClock,'248'
45.9875,TimingClock,'248'
46.0072,TimingClock,'248'
46.0266,TimingClock,'248'
46.0462,TimingClock,'248'
46.0657,TimingClock,'248'
46.0853,TimingClock,'248'
46.1049,TimingClock,'248'
46.1243,TimingClock,'248'
46.1438,TimingClock,'248'
46.1633,TimingClock,'248'
46.1829,TimingClock,'248'
46.2024,TimingClock,'248'
46.2218,TimingClock,'248'
46.2416,TimingClock,'248'
46.2416,NoteOn Channel: 9,'153'
46.261,TimingClock,'248'
46.2805,TimingClock,'248'
46.3,TimingClock,'248'
46.3195,TimingClock,'248'
46.339,TimingClock,'248'
46.3587,TimingClock,'248'
46.3782,TimingClock,'248'
46.3976,TimingClock,'248'
46.417,TimingClock,'248'
46.4365,TimingClock,'248'
46.4562,TimingClock,'248'
46.4758,TimingClock,'248'
46.4952,TimingClock,'248'
46.5149,TimingClock,'248'
46.5343,TimingClock,'248'
46.5539,TimingClock,'248'
46.5735,TimingClock,'248'
46.5929,TimingClock,'248'
46.6124,TimingClock,'248'
46.632,TimingClock,'248'
46.6516,TimingClock,'248'
46.671,TimingClock,'248'
46.6906,TimingClock,'248'
46.7103,TimingClock,'248'
46.7103,NoteOn Channel: 9,'153'
46.7296,TimingClock,'248'
46.7492,TimingClock,'248'
46.7687,TimingClock,'248'
46.7883,TimingClock,'248'
46.8077,TimingClock,'248'
46.8274,TimingClock,'248'
46.8468,TimingClock,'248'
46.8662,TimingClock,'248'
46.8859,TimingClock,'248'
46.9053,TimingClock,'248'
46.9249,TimingClock,'248'
46.9445,TimingClock,'248'
46.9641,TimingClock,'248'
46.9834,TimingClock,'248'
47.0031,TimingClock,'248'
47.0225,TimingClock,'248'
47.0419,TimingClock,'248'
47.0614,TimingClock,'248'
47.0812,TimingClock,'248'
47.1007,TimingClock,'248'
47.1202,TimingClock,'248'
47.1396,TimingClock,'248'
47.1593,TimingClock,'248'
47.1789,TimingClock,'248'
47.1789,NoteOn Channel: 9,'153'
47.1983,TimingClock,'248'
47.2178,TimingClock,'248'
47.2373,TimingClock,'248'
47.2569,TimingClock,'248'
47.2764,TimingClock,'248'
47.296,TimingClock,'248'
47.3154,TimingClock,'248'
47.335,TimingClock,'248'
47.3546,TimingClock,'248'
47.374,TimingClock,'248'
47.3934,TimingClock,'248'
47.4131,TimingClock,'248'
47.4325,TimingClock,'248'
47.4522,TimingClock,'248'
47.4717,TimingClock,'248'
47.4912,TimingClock,'248'
47.5107,TimingClock,'248'
47.5303,TimingClock,'248'
47.5498,TimingClock,'248'
47.5693,TimingClock,'248'
47.589,TimingClock,'248'
47.6084,TimingClock,'248'
47.6279,TimingClock,'248'
47.6475,TimingClock,'248'
47.6475,NoteOn Channel: 9,'153'
47.6669,TimingClock,'248'
47.6864,TimingClock,'248'
47.706,TimingClock,'248'
47.7256,TimingClock,'248'
47.7451,TimingClock,'248'
47.7646,TimingClock,'248'
47.7841,TimingClock,'248'
47.8037,TimingClock,'248'
47.8232,TimingClock,'248'
47.8426,TimingClock,'248'
47.8623,TimingClock,'248'
47.8818,TimingClock,'248'
47.9013,TimingClock,'248'
47.9209,TimingClock,'248'
47.9403,TimingClock,'248'
47.9599,TimingClock,'248'
47.9793,TimingClock,'248'
47.9989,TimingClock,'248'
48.0185,TimingClock,'248'
48.038,TimingClock,'248'
48.0576,TimingClock,'248'
48.077,TimingClock,'248'
48.0966,TimingClock,'248'
48.1163,TimingClock,'248'
48.1163,NoteOn Channel: 9,'153'
48.1356,TimingClock,'248'
48.1552,TimingClock,'248'
48.1747,TimingClock,'248'
48.1942,TimingClock,'248'
48.2136,TimingClock,'248'
48.2334,TimingClock,'248'
48.2528,TimingClock,'248'
48.2722,TimingClock,'248'
48.2918,TimingClock,'248'
48.3113,TimingClock,'248'
48.3309,TimingClock,'248'
48.3504,TimingClock,'248'
48.3701,TimingClock,'248'
48.3894,TimingClock,'248'
48.409,TimingClock,'248'
48.4285,TimingClock,'248'
48.4481,TimingClock,'248'
48.4675,TimingClock,'248'
48.4871,TimingClock,'248'
48.5066,TimingClock,'248'
48.5262,TimingClock,'248'
48.5457,TimingClock,'248'
48.5653,TimingClock,'248'
48.5849,TimingClock,'248'
48.5849,NoteOn Channel: 9,'153'
48.6042,TimingClock,'248'
48.6239,TimingClock,'248'
48.6433,TimingClock,'248'
48.6629,TimingClock,'248'
48.6824,TimingClock,'248'
48.702,TimingClock,'248'
48.7214,TimingClock,'248'
48.741,TimingClock,'248'
48.7606,TimingClock,'248'
48.78,TimingClock,'248'
48.7994,TimingClock,'248'
48.8191,TimingClock,'248'
48.8385,TimingClock,'248'
48.8582,TimingClock,'248'
48.8775,TimingClock,'248'
48.8972,TimingClock,'248'
48.9167,TimingClock,'248'
48.9363,TimingClock,'248'
48.9558,TimingClock,'248'
48.9752,TimingClock,'248'
48.9948,TimingClock,'248'
49.0144,TimingClock,'248'
49.0339,TimingClock,'248'
49.0535,TimingClock,'248'
49.0535,NoteOn Channel: 9,'153'
49.0729,TimingClock,'248'
49.0924,TimingClock,'248'
49.1121,TimingClock,'248'
49.1316,TimingClock,'248'
49.151,TimingClock,'248'
49.1705,TimingClock,'248'
49.19,TimingClock,'248'
49.2097,TimingClock,'248'
49.2292,TimingClock,'248'
49.2487,TimingClock,'248'
49.2683,TimingClock,'248'
49.2878,TimingClock,'248'
49.3073,TimingClock,'248'
49.3269,TimingClock,'248'
49.3463,TimingClock,'248'
49.3659,TimingClock,'248'
49.3855,TimingClock,'248'
49.4048,TimingClock,'248'
49.4243,TimingClock,'248'
49.444,TimingClock,'248'
49.4634,TimingClock,'248'
49.4831,TimingClock,'248'
49.5026,TimingClock,'248'
49.5223,TimingClock,'248'
49.5223,NoteOn Channel: 9,'153'
49.5415,TimingClock,'248'
49.5612,TimingClock,'248'
49.5807,TimingClock,'248'
49.6002,TimingClock,'248'
49.6197,TimingClock,'248'
49.6393,TimingClock,'248'
49.6588,TimingClock,'248'
49.6782,TimingClock,'248'
49.6979,TimingClock,'248'
49.7172,TimingClock,'248'
49.7369,TimingClock,'248'
49.7563,TimingClock,'248'
49.7758,TimingClock,'248'
49.7953,TimingClock,'248'
49.815,TimingClock,'248'
49.8345,TimingClock,'248'
49.854,TimingClock,'248'
49.8735,TimingClock,'248'
49.8932,TimingClock,'248'
49.9127,TimingClock,'248'
49.9322,TimingClock,'248'
49.9517,TimingClock,'248'
49.9713,TimingClock,'248'
49.9909,TimingClock,'248'
49.9909,NoteOn Channel: 9,'153'
50.0102,TimingClock,'248'
50.0298,TimingClock,'248'
50.0493,TimingClock,'248'
50.0689,TimingClock,'248'
50.0883,TimingClock,'248'
50.108,TimingClock,'248'
50.1274,TimingClock,'248'
50.1469,TimingClock,'248'
50.1664,TimingClock,'248'
50.186,TimingClock,'248'
50.2055,TimingClock,'248'
50.2252,TimingClock,'248'
50.2445,TimingClock,'248'
50.2641,TimingClock,'248'
50.2837,TimingClock,'248'
50.3032,TimingClock,'248'
50.3227,TimingClock,'248'
50.3423,TimingClock,'248'
50.3618,TimingClock,'248'
50.3813,TimingClock,'248'
50.4009,TimingClock,'248'
50.4203,TimingClock,'248'
50.4399,TimingClock,'248'
50.4595,TimingClock,'248'
50.4595,NoteOn Channel: 9,'153'
50.4789,TimingClock,'248'
50.4984,TimingClock,'248'
50.518,TimingClock,'248'
50.5375,TimingClock,'248'
50.5571,TimingClock,'248'
50.5766,TimingClock,'248'
50.5962,TimingClock,'248'
50.6155,TimingClock,'248'
50.6352,TimingClock,'248'
50.6547,TimingClock,'248'
50.6743,TimingClock,'248'
50.6937,TimingClock,'248'
50.7132,TimingClock,'248'
50.7328,TimingClock,'248'
50.7523,TimingClock,'248'
50.7718,TimingClock,'248'
50.7913,TimingClock,'248'
50.811,TimingClock,'248'
50.8304,TimingClock,'248'
50.85,TimingClock,'248'
50.8696,TimingClock,'248'
50.8889,TimingClock,'248'
50.9084,TimingClock,'248'
50.9281,TimingClock,'248'
50.9281,NoteOn Channel: 9,'153'
50.9476,TimingClock,'248'
50.9672,TimingClock,'248'
50.9867,TimingClock,'248'
51.0062,TimingClock,'248'
51.0257,TimingClock,'248'
51.0453,TimingClock,'248'
51.0648,TimingClock,'248'
51.0843,TimingClock,'248'
51.1038,TimingClock,'248'
51.1234,TimingClock,'248'
51.1429,TimingClock,'248'
51.1624,TimingClock,'248'
51.1819,TimingClock,'248'
51.2014,TimingClock,'248'
51.2209,TimingClock,'248'
51.2405,TimingClock,'248'
51.2601,TimingClock,'248'
51.2795,TimingClock,'248'
51.2992,TimingClock,'248'
51.3187,TimingClock,'248'
51.3382,TimingClock,'248'
51.3576,TimingClock,'248'
51.3773,TimingClock,'248'
51.3969,TimingClock,'248'
51.3969,NoteOn Channel: 9,'153'
51.4163,TimingClock,'248'
51.4358,TimingClock,'248'
51.4553,TimingClock,'248'
51.4748,TimingClock,'248'
51.4943,TimingClock,'248'
51.514,TimingClock,'248'
51.5333,TimingClock,'248'
51.5529,TimingClock,'248'
51.5723,TimingClock,'248'
51.5919,TimingClock,'248'
51.6116,TimingClock,'248'
51.6309,TimingClock,'248'
51.6505,TimingClock,'248'
51.6702,TimingClock,'248'
51.6895,TimingClock,'248'
51.7092,TimingClock,'248'
51.7287,TimingClock,'248'
51.7483,TimingClock,'248'
51.7678,TimingClock,'248'
51.7873,TimingClock,'248'
51.807,TimingClock,'248'
51.8263,TimingClock,'248'
51.846,TimingClock,'248'
51.8654,TimingClock,'248'
51.8654,NoteOn Channel: 9,'153'
51.8849,TimingClock,'248'
51.9044,TimingClock,'248'
51.9239,TimingClock,'248'
51.9436,TimingClock,'248'
51.963,TimingClock,'248'
51.9827,TimingClock,'248'
52.0021,TimingClock,'248'
52.0215,TimingClock,'248'
52.0412,TimingClock,'248'
52.0607,TimingClock,'248'
52.0802,TimingClock,'248'
52.0998,TimingClock,'248'
52.1192,TimingClock,'248'
52.1388,TimingClock,'248'
52.1583,TimingClock,'248'
52.1779,TimingClock,'248'
52.1973,TimingClock,'248'
52.2169,TimingClock,'248'
52.2364,TimingClock,'248'
52.256,TimingClock,'248'
52.2754,TimingClock,'248'
52.295,TimingClock,'248'
52.3145,TimingClock,'248'
52.3341,TimingClock,'248'
52.3341,NoteOn Channel: 9,'153'
52.3536,TimingClock,'248'
52.3732,TimingClock,'248'
52.3927,TimingClock,'248'
52.4122,TimingClock,'248'
52.4317,TimingClock,'248'
52.4513,TimingClock,'248'
52.4708,TimingClock,'248'
52.4903,TimingClock,'248'
52.5098,TimingClock,'248'
52.5293,TimingClock,'248'
52.5489,TimingClock,'248'
52.5684,TimingClock,'248'
52.5879,TimingClock,'248'
52.6074,TimingClock,'248'
52.6271,TimingClock,'248'
52.6465,TimingClock,'248'
52.666,TimingClock,'248'
52.6856,TimingClock,'248'
52.705,TimingClock,'248'
52.7246,TimingClock,'248'
52.7441,TimingClock,'248'
52.7636,TimingClock,'248'
52.7832,TimingClock,'248'
52.8029,TimingClock,'248'
52.8029,NoteOn Channel: 9,'153'
52.8222,TimingClock,'248'
52.8418,TimingClock,'248'
52.8613,TimingClock,'248'
52.8809,TimingClock,'248'
52.9002,TimingClock,'248'
52.92,TimingClock,'248'
52.9394,TimingClock,'248'
52.9588,TimingClock,'248'
52.9783,TimingClock,'248'
52.9981,TimingClock,'248'
53.0174,TimingClock,'248'
53.0371,TimingClock,'248'
53.0565,TimingClock,'248'
53.0762,TimingClock,'248'
53.0957,TimingClock,'248'
53.1151,TimingClock,'248'
53.1347,TimingClock,'248'
53.1541,TimingClock,'248'
53.1738,TimingClock,'248'
53.1933,TimingClock,'248'
53.2129,TimingClock,'248'
53.2323,TimingClock,'248'
53.2519,TimingClock,'248'
53.2714,TimingClock,'248'
53.2714,NoteOn Channel: 9,'153'
53.2908,TimingClock,'248'
53.3103,TimingClock,'248'
53.33,TimingClock,'248'
53.3494,TimingClock,'248'
53.369,TimingClock,'248'
53.3887,TimingClock,'248'
53.408,TimingClock,'248'
53.4275,TimingClock,'248'
53.4472,TimingClock,'248'
53.4666,TimingClock,'248'
53.4862,TimingClock,'248'
53.5057,TimingClock,'248'
53.5253,TimingClock,'248'
53.5448,TimingClock,'248'
53.5643,TimingClock,'248'
53.5838,TimingClock,'248'
53.6033,TimingClock,'248'
53.6229,TimingClock,'248'
53.6424,TimingClock,'248'
53.6618,TimingClock,'248'
53.6814,TimingClock,'248'
53.701,TimingClock,'248'
53.7205,TimingClock,'248'
53.7401,TimingClock,'248'
53.7401,NoteOn Channel: 9,'153'
53.7595,TimingClock,'248'
53.7792,TimingClock,'248'
53.7987,TimingClock,'248'
53.8182,TimingClock,'248'
53.8377,TimingClock,'248'
53.8574,TimingClock,'248'
53.8768,TimingClock,'248'
53.8963,TimingClock,'248'
53.916,TimingClock,'248'
53.9352,TimingClock,'248'
53.9549,TimingClock,'248'
53.9744,TimingClock,'248'
53.994,TimingClock,'248'
54.0133,TimingClock,'248'
54.0331,TimingClock,'248'
54.0524,TimingClock,'248'
54.072,TimingClock,'248'
54.0916,TimingClock,'248'
54.1112,TimingClock,'248'
54.1305,TimingClock,'248'
54.1502,TimingClock,'248'
54.1696,TimingClock,'248'
54.189,TimingClock,'248'
54.209,TimingClock,'248'
54.209,NoteOn Channel: 9,'153'
54.228,TimingClock,'248'
54.2478,TimingClock,'248'
54.2673,TimingClock,'248'
54.2869,TimingClock,'248'
54.3063,TimingClock,'248'
54.3261,TimingClock,'248'
54.3455,TimingClock,'248'
54.3649,TimingClock,'248'
54.3844,TimingClock,'248'
54.404,TimingClock,'248'
54.4235,TimingClock,'248'
54.4431,TimingClock,'248'
54.4626,TimingClock,'248'
54.4822,TimingClock,'248'
54.5017,TimingClock,'248'
54.5212,TimingClock,'248'
54.5407,TimingClock,'248'
54.5602,TimingClock,'248'
54.5798,TimingClock,'248'
54.5993,TimingClock,'248'
54.6188,TimingClock,'248'
54.6383,TimingClock,'248'
54.6578,TimingClock,'248'
54.6774,TimingClock,'248'
54.6774,NoteOn Channel: 9,'153'
54.6969,TimingClock,'248'
54.7164,TimingClock,'248'
54.736,TimingClock,'248'
54.7554,TimingClock,'248'
54.7749,TimingClock,'248'
54.7946,TimingClock,'248'
54.8141,TimingClock,'248'
54.8335,TimingClock,'248'
54.853,TimingClock,'248'
54.8726,TimingClock,'248'
54.8921,TimingClock,'248'
54.9118,TimingClock,'248'
54.9312,TimingClock,'248'
54.9508,TimingClock,'248'
54.9703,TimingClock,'248'
54.9899,TimingClock,'248'
55.0093,TimingClock,'248'
55.0288,TimingClock,'248'
55.0484,TimingClock,'248'
55.068,TimingClock,'248'
55.0875,TimingClock,'248'
55.1071,TimingClock,'248'
55.1266,TimingClock,'248'
55.1461,TimingClock,'248'
55.1461,NoteOn Channel: 9,'153'
55.1655,TimingClock,'248'
55.1852,TimingClock,'248'
55.2045,TimingClock,'248'
55.2241,TimingClock,'248'
55.2435,TimingClock,'248'
55.2633,TimingClock,'248'
55.2828,TimingClock,'248'
55.3023,TimingClock,'248'
55.3218,TimingClock,'248'
55.3413,TimingClock,'248'
55.3609,TimingClock,'248'
55.3804,TimingClock,'248'
55.3999,TimingClock,'248'
55.4193,TimingClock,'248'
55.4388,TimingClock,'248'
55.4584,TimingClock,'248'
55.478,TimingClock,'248'
55.4975,TimingClock,'248'
55.5171,TimingClock,'248'
55.5365,TimingClock,'248'
55.5562,TimingClock,'248'
55.5757,TimingClock,'248'
55.5951,TimingClock,'248'
55.615,TimingClock,'248'
55.615,NoteOn Channel: 9,'153'
55.6342,TimingClock,'248'
55.6538,TimingClock,'248'
55.6732,TimingClock,'248'
55.6929,TimingClock,'248'
55.7123,TimingClock,'248'
55.732,TimingClock,'248'
55.7514,TimingClock,'248'
55.7709,TimingClock,'248'
55.7905,TimingClock,'248'
55.81,TimingClock,'248'
55.8296,TimingClock,'248'
55.8491,TimingClock,'248'
55.8685,TimingClock,'248'
55.8882,TimingClock,'248'
55.9076,TimingClock,'248'
55.9272,TimingClock,'248'
55.9467,TimingClock,'248'
55.9662,TimingClock,'248'
55.9858,TimingClock,'248'
56.0053,TimingClock,'248'
56.0249,TimingClock,'248'
56.0443,TimingClock,'248'
56.0639,TimingClock,'248'
56.0834,TimingClock,'248'
56.0834,NoteOn Channel: 9,'153'
56.1029,TimingClock,'248'
56.1223,TimingClock,'248'
56.1419,TimingClock,'248'
56.1615,TimingClock,'248'
56.181,TimingClock,'248'
56.2006,TimingClock,'248'
56.22,TimingClock,'248'
56.2395,TimingClock,'248'
56.2592,TimingClock,'248'
56.2787,TimingClock,'248'
56.2983,TimingClock,'248'
56.3178,TimingClock,'248'
56.3371,TimingClock,'248'
56.3568,TimingClock,'248'
56.3762,TimingClock,'248'
56.3959,TimingClock,'248'
56.4154,TimingClock,'248'
56.435,TimingClock,'248'
56.4544,TimingClock,'248'
56.4738,TimingClock,'248'
56.4933,TimingClock,'248'
56.5129,TimingClock,'248'
56.5325,TimingClock,'248'
56.5522,TimingClock,'248'
56.5522,NoteOn Channel: 9,'153'
56.5715,TimingClock,'248'
56.5911,TimingClock,'248'
56.6106,TimingClock,'248'
56.6301,TimingClock,'248'
56.6496,TimingClock,'248'
56.6693,TimingClock,'248'
56.6888,TimingClock,'248'
56.7082,TimingClock,'248'
56.7278,TimingClock,'248'
56.7473,TimingClock,'248'
56.7669,TimingClock,'248'
56.7863,TimingClock,'248'
56.8059,TimingClock,'248'
56.8254,TimingClock,'248'
56.8448,TimingClock,'248'
56.8644,TimingClock,'248'
56.884,TimingClock,'248'
56.9035,TimingClock,'248'
56.923,TimingClock,'248'
56.9425,TimingClock,'248'
56.9622,TimingClock,'248'
56.9817,TimingClock,'248'
57.0012,TimingClock,'248'
57.0208,TimingClock,'248'
57.0208,NoteOn Channel: 9,'153'
57.0402,TimingClock,'248'
57.0598,TimingClock,'248'
57.0792,TimingClock,'248'
57.0988,TimingClock,'248'
57.1183,TimingClock,'248'
57.1379,TimingClock,'248'
57.1575,TimingClock,'248'
57.1769,TimingClock,'248'
57.1964,TimingClock,'248'
57.216,TimingClock,'248'
57.2353,TimingClock,'248'
57.255,TimingClock,'248'
57.2745,TimingClock,'248'
57.2941,TimingClock,'248'
57.3135,TimingClock,'248'
57.3332,TimingClock,'248'
57.3527,TimingClock,'248'
57.3721,TimingClock,'248'
57.3918,TimingClock,'248'
57.4113,TimingClock,'248'
57.4309,TimingClock,'248'
57.4503,TimingClock,'248'
57.4699,TimingClock,'248'
57.4894,TimingClock,'248'
57.4894,NoteOn Channel: 9,'153'
57.5088,TimingClock,'248'
57.5283,TimingClock,'248'
57.548,TimingClock,'248'
57.5674,TimingClock,'248'
57.587,TimingClock,'248'
57.6064,TimingClock,'248'
57.626,TimingClock,'248'
57.6455,TimingClock,'248'
57.665,TimingClock,'248'
57.6847,TimingClock,'248'
57.7042,TimingClock,'248'
57.7237,TimingClock,'248'
57.7432,TimingClock,'248'
57.7627,TimingClock,'248'
57.7822,TimingClock,'248'
57.802,TimingClock,'248'
57.8213,TimingClock,'248'
57.841,TimingClock,'248'
57.8604,TimingClock,'248'
57.8799,TimingClock,'248'
57.8995,TimingClock,'248'
57.9191,TimingClock,'248'
57.9386,TimingClock,'248'
57.9582,TimingClock,'248'
57.9582,NoteOn Channel: 9,'153'
57.9775,TimingClock,'248'
57.997,TimingClock,'248'
58.0166,TimingClock,'248'
58.0361,TimingClock,'248'
58.0557,TimingClock,'248'
58.0753,TimingClock,'248'
58.0946,TimingClock,'248'
58.1142,TimingClock,'248'
58.1338,TimingClock,'248'
58.1533,TimingClock,'248'
58.1729,TimingClock,'248'
58.1924,TimingClock,'248'
58.2119,TimingClock,'248'
58.2315,TimingClock,'248'
58.2508,TimingClock,'248'
58.2703,TimingClock,'248'
58.29,TimingClock,'248'
58.3095,TimingClock,'248'
58.329,TimingClock,'248'
58.3486,TimingClock,'248'
58.3682,TimingClock,'248'
58.3877,TimingClock,'248'
58.4072,TimingClock,'248'
58.4269,TimingClock,'248'
58.4269,NoteOn Channel: 9,'153'
58.4462,TimingClock,'248'
58.4658,TimingClock,'248'
58.4852,TimingClock,'248'
58.5047,TimingClock,'248'
58.5242,TimingClock,'248'
58.5439,TimingClock,'248'
58.5633,TimingClock,'248'
58.5829,TimingClock,'248'
58.6024,TimingClock,'248'
58.6219,TimingClock,'248'
58.6414,TimingClock,'248'
58.661,TimingClock,'248'
58.6805,TimingClock,'248'
58.7001,TimingClock,'248'
58.7195,TimingClock,'248'
58.7392,TimingClock,'248'
58.7587,TimingClock,'248'
58.7782,TimingClock,'248'
58.7977,TimingClock,'248'
58.8171,TimingClock,'248'
58.8369,TimingClock,'248'
58.8563,TimingClock,'248'
58.8758,TimingClock,'248'
58.8954,TimingClock,'248'
58.8954,NoteOn Channel: 9,'153'
58.9149,TimingClock,'248'
58.9343,TimingClock,'248'
58.9539,TimingClock,'248'
58.9734,TimingClock,'248'
58.993,TimingClock,'248'
59.0124,TimingClock,'248'
59.0321,TimingClock,'248'
59.0515,TimingClock,'248'
59.0711,TimingClock,'248'
59.0906,TimingClock,'248'
59.1102,TimingClock,'248'
59.1296,TimingClock,'248'
59.1492,TimingClock,'248'
59.1687,TimingClock,'248'
59.1883,TimingClock,'248'
59.2079,TimingClock,'248'
59.2273,TimingClock,'248'
59.2469,TimingClock,'248'
59.2664,TimingClock,'248'
59.2859,TimingClock,'248'
59.3054,TimingClock,'248'
59.3251,TimingClock,'248'
59.3444,TimingClock,'248'
59.3642,TimingClock,'248'
59.3642,NoteOn Channel: 9,'153'
59.3835,TimingClock,'248'
59.4031,TimingClock,'248'
59.4224,TimingClock,'248'
59.442,TimingClock,'248'
59.4617,TimingClock,'248'
59.4813,TimingClock,'248'
59.5007,TimingClock,'248'
59.5202,TimingClock,'248'
59.5398,TimingClock,'248'
59.5592,TimingClock,'248'
59.5788,TimingClock,'248'
59.5983,TimingClock,'248'
59.6179,TimingClock,'248'
59.6374,TimingClock,'248'
59.6568,TimingClock,'248'
59.6764,TimingClock,'248'
59.6959,TimingClock,'248'
59.7156,TimingClock,'248'
59.7349,TimingClock,'248'
59.7544,TimingClock,'248'
59.774,TimingClock,'248'
59.7937,TimingClock,'248'
59.8132,TimingClock,'248'
59.8329,TimingClock,'248'
59.8329,NoteOn Channel: 9,'153'
59.8522,TimingClock,'248'
59.8718,TimingClock,'248'
59.8911,TimingClock,'248'
59.9108,TimingClock,'248'
59.9303,TimingClock,'248'
59.9499,TimingClock,'248'
59.9693,TimingClock,'248'
59.9888,TimingClock,'248'
60.0084,TimingClock,'248'
